(footprint "74AHC1G125-sot23" (version 20221018) (generator pcbnew)
  (layer "F.Cu")
  (descr "5-pin SOT23 package")
  (tags "SOT-23-5 hand-soldering")
  (attr smd)
  (fp_text reference "REF**" (at 1.84 -0.04) (layer "F.SilkS")
      (effects (font (size 0.5 0.5) (thickness 0.125)))
    (tstamp 7738eb5e-7342-4033-80d9-458801360be8)
  )
  (fp_text value "74AHC1G125" (at -0.22 -2.74) (layer "F.SilkS")
      (effects (font (size 0.5 0.5) (thickness 0.125)))
    (tstamp d0a7fec5-6633-47bc-92d4-fb0bc52f8815)
  )
  (fp_text user "~{OE}" (at -3.5 -0.65 unlocked) (layer "F.SilkS")
      (effects (font (size 0.5 0.5) (thickness 0.1)) (justify left bottom))
    (tstamp 565c3945-a51c-457f-b54e-dd5b9ee15eec)
  )
  (fp_text user "A" (at -2.9 0.3 unlocked) (layer "F.SilkS")
      (effects (font (size 0.5 0.5) (thickness 0.1)) (justify left bottom))
    (tstamp 727a7348-129a-40f7-be95-6cba500c72b6)
  )
  (fp_text user "G" (at -2.9 1.2 unlocked) (layer "F.SilkS")
      (effects (font (size 0.5 0.5) (thickness 0.1)) (justify left bottom))
    (tstamp b509629a-97fc-4f7f-b1fe-ea72bbe4fa88)
  )
  (fp_text user "VCC" (at 2.5 -0.7 unlocked) (layer "F.SilkS")
      (effects (font (size 0.5 0.5) (thickness 0.1)) (justify left bottom))
    (tstamp cfcb1c30-e7db-457a-b295-8d66fc1df235)
  )
  (fp_text user "Y" (at 2.5 1.2 unlocked) (layer "F.SilkS")
      (effects (font (size 0.5 0.5) (thickness 0.1)) (justify left bottom))
    (tstamp d50d3c38-ea48-493c-9ce8-9d95a362aed7)
  )
  (fp_text user "${REFERENCE}" (at 0 0 90) (layer "F.Fab")
      (effects (font (size 0.5 0.5) (thickness 0.075)))
    (tstamp 29449681-b455-4033-bb16-065718eaf902)
  )
  (fp_line (start -0.9 1.61) (end 0.9 1.61)
    (stroke (width 0.12) (type solid)) (layer "F.SilkS") (tstamp f576f60c-da8c-4cd3-baff-88da888c33f3))
  (fp_line (start 0.9 -1.61) (end -1.55 -1.61)
    (stroke (width 0.12) (type solid)) (layer "F.SilkS") (tstamp 6fbe98f0-97c9-4fbe-847f-898a351d6c0f))
  (fp_circle (center -1.6 -2.1) (end -1.45 -2.1)
    (stroke (width 0.1) (type solid)) (fill solid) (layer "F.SilkS") (tstamp 943cc273-ec71-4808-bffe-b2499e3f428c))
  (fp_line (start -2.38 -1.8) (end -2.38 1.8)
    (stroke (width 0.05) (type solid)) (layer "F.CrtYd") (tstamp 9b7b89a8-6ad0-435a-bf2a-2d3b7cdee690))
  (fp_line (start -2.38 -1.8) (end 2.38 -1.8)
    (stroke (width 0.05) (type solid)) (layer "F.CrtYd") (tstamp 575b62ea-3c6b-411b-9515-24ca0dd7651f))
  (fp_line (start 2.38 1.8) (end -2.38 1.8)
    (stroke (width 0.05) (type solid)) (layer "F.CrtYd") (tstamp 0d647716-dc3b-46b3-87ce-7b1a6aec0e71))
  (fp_line (start 2.38 1.8) (end 2.38 -1.8)
    (stroke (width 0.05) (type solid)) (layer "F.CrtYd") (tstamp 50ec4015-cd9b-4136-b0a2-dbcbc4d7e063))
  (fp_line (start -0.9 -0.9) (end -0.9 1.55)
    (stroke (width 0.1) (type solid)) (layer "F.Fab") (tstamp 99703c63-2a66-4274-b789-4afd3dfc9caf))
  (fp_line (start -0.9 -0.9) (end -0.25 -1.55)
    (stroke (width 0.1) (type solid)) (layer "F.Fab") (tstamp fe966f3c-a392-4fcf-946a-97001dac030c))
  (fp_line (start 0.9 -1.55) (end -0.25 -1.55)
    (stroke (width 0.1) (type solid)) (layer "F.Fab") (tstamp f57b60fd-fe6a-432f-9f55-d9a5542c4fdd))
  (fp_line (start 0.9 -1.55) (end 0.9 1.55)
    (stroke (width 0.1) (type solid)) (layer "F.Fab") (tstamp 459e213e-d951-4b8a-9dd9-aa03fb82c01b))
  (fp_line (start 0.9 1.55) (end -0.9 1.55)
    (stroke (width 0.1) (type solid)) (layer "F.Fab") (tstamp a10d3725-f7ba-4ff7-b9c0-98831ecf06e3))
  (pad "1" smd rect (at -1.35 -0.95) (size 1.56 0.65) (layers "F.Cu" "F.Paste" "F.Mask") (tstamp e05a090c-bab6-4d26-a2db-f880a2faadbf))
  (pad "2" smd rect (at -1.35 0) (size 1.56 0.65) (layers "F.Cu" "F.Paste" "F.Mask") (tstamp 26b397f5-a1d6-44f9-a271-2167bd4cff19))
  (pad "3" smd rect (at -1.35 0.95) (size 1.56 0.65) (layers "F.Cu" "F.Paste" "F.Mask") (tstamp 08f3e90d-0748-4ba3-8343-f3c0cec15977))
  (pad "4" smd rect (at 1.35 0.95) (size 1.56 0.65) (layers "F.Cu" "F.Paste" "F.Mask") (tstamp 045388fd-9206-406f-bda2-37abb6038098))
  (pad "5" smd rect (at 1.35 -0.95) (size 1.56 0.65) (layers "F.Cu" "F.Paste" "F.Mask") (tstamp 07ee9ba5-6407-4f9e-9cc9-3a8c64cd5a34))
  (model "${KICAD6_3DMODEL_DIR}/Package_TO_SOT_SMD.3dshapes/SOT-23-5.wrl"
    (offset (xyz 0 0 0))
    (scale (xyz 1 1 1))
    (rotate (xyz 0 0 0))
  )
)
