(footprint "74hc125" (version 20221018) (generator pcbnew)
  (layer "F.Cu")
  (descr "<b>Dual In Line Package</b>")
  (property "Sheetfile" "handwire8x16.kicad_sch")
  (property "Sheetname" "")
  (attr through_hole)
  (fp_text reference "U2" (at -11.04 4.35 -90) (layer "F.SilkS")
      (effects (font (size 0.70009 0.70009) (thickness 0.15)))
    (tstamp 63376e16-2b58-4ca6-98ee-01891fefa822)
  )
  (fp_text value "74HC125" (at 5.07 0.01) (layer "F.Fab")
      (effects (font (size 0.700252 0.700252) (thickness 0.15)))
    (tstamp 31865461-aea9-4130-af69-513a6d33b335)
  )
  (fp_text user "2a" (at 1.55 6.16 -90 unlocked) (layer "B.SilkS")
      (effects (font (size 0.75 0.75) (thickness 0.125)) (justify mirror))
    (tstamp 00bb6126-9b6f-4db8-8817-4c704e92950a)
  )
  (fp_text user "4a" (at -3.87 -6.27 -90 unlocked) (layer "B.SilkS")
      (effects (font (size 0.75 0.75) (thickness 0.125)) (justify mirror))
    (tstamp 09a6e180-5621-487d-a057-825783deedc0)
  )
  (fp_text user "gnd" (at 6.71 6.11 -90 unlocked) (layer "B.SilkS")
      (effects (font (size 0.75 0.75) (thickness 0.125)) (justify mirror))
    (tstamp 1b619016-bf65-4c9f-ab47-81873f8612c0)
  )
  (fp_text user "1a" (at -5.95 6.11 -90 unlocked) (layer "B.SilkS")
      (effects (font (size 0.75 0.75) (thickness 0.125)) (justify mirror))
    (tstamp 4330972f-e244-49a2-8e76-8eed2fb70d00)
  )
  (fp_text user "1~{oe}" (at -8.5 6.09 -90 unlocked) (layer "B.SilkS")
      (effects (font (size 0.75 0.75) (thickness 0.125)) (justify mirror))
    (tstamp 5af3df87-9153-4070-83d0-5ff8d31f2edb)
  )
  (fp_text user "2~{oe}" (at -1.07 6.16 -90 unlocked) (layer "B.SilkS")
      (effects (font (size 0.75 0.75) (thickness 0.125)) (justify mirror))
    (tstamp 603a1ec9-c8b4-46c7-b2eb-08140eda9bf2)
  )
  (fp_text user "${VALUE}" (at -11.18 -2.42 90) (layer "B.SilkS")
      (effects (font (size 0.700252 0.700252) (thickness 0.15)) (justify mirror))
    (tstamp 6f0c472a-e61e-440d-bdea-91ebb54e3648)
  )
  (fp_text user "3a" (at 3.95 -6.36 -90 unlocked) (layer "B.SilkS")
      (effects (font (size 0.75 0.75) (thickness 0.125)) (justify mirror))
    (tstamp 741000fc-7d27-4b6c-b51c-bc8112df9857)
  )
  (fp_text user "1y" (at -3.47 6.09 -90 unlocked) (layer "B.SilkS")
      (effects (font (size 0.75 0.75) (thickness 0.125)) (justify mirror))
    (tstamp 7a33d58a-cc04-4fde-97f1-4b3c20fee841)
  )
  (fp_text user "${REFERENCE}" (at -11.11 3.77 -90) (layer "B.SilkS")
      (effects (font (size 0.70009 0.70009) (thickness 0.15)) (justify mirror))
    (tstamp 8f9a6eec-fc76-4a14-b658-bf9fc6fb7c44)
  )
  (fp_text user "4~{oe}" (at -6.44 -6.25 -90 unlocked) (layer "B.SilkS")
      (effects (font (size 0.75 0.75) (thickness 0.125)) (justify mirror))
    (tstamp 93c118a3-d1b0-4383-bce6-e909a3f08fb1)
  )
  (fp_text user "3y" (at 6.68 -6.28 -90 unlocked) (layer "B.SilkS")
      (effects (font (size 0.75 0.75) (thickness 0.125)) (justify mirror))
    (tstamp 9bb23750-f324-42ca-aabe-095c9dd640bf)
  )
  (fp_text user "3~{oe}" (at 1.42 -6.31 -90 unlocked) (layer "B.SilkS")
      (effects (font (size 0.75 0.75) (thickness 0.125)) (justify mirror))
    (tstamp a80e111c-6507-45d3-a673-f4d5bd9fe2ef)
  )
  (fp_text user "vcc" (at -8.6 -6.31 -90 unlocked) (layer "B.SilkS")
      (effects (font (size 0.75 0.75) (thickness 0.125)) (justify mirror))
    (tstamp b918a8f0-e399-496f-94b1-52af1158c55c)
  )
  (fp_text user "2y" (at 3.97 6.13 -90 unlocked) (layer "B.SilkS")
      (effects (font (size 0.75 0.75) (thickness 0.125)) (justify mirror))
    (tstamp ec3447cf-dca0-4633-958f-9e5c7939200d)
  )
  (fp_text user "4y" (at -1.15 -6.21 -90 unlocked) (layer "B.SilkS")
      (effects (font (size 0.75 0.75) (thickness 0.125)) (justify mirror))
    (tstamp f8bd6e28-dcb7-4bbf-8443-b70c6fedb7f7)
  )
  (fp_text user "${VALUE}" (at -11.22 -2.35 90) (layer "F.SilkS")
      (effects (font (size 0.700252 0.700252) (thickness 0.15)))
    (tstamp 02ad6136-a0b6-4ce9-af42-4d836a2fc55a)
  )
  (fp_text user "3y" (at 6.47 -6.29 90 unlocked) (layer "F.SilkS")
      (effects (font (size 0.75 0.75) (thickness 0.125)))
    (tstamp 474f7830-829a-4949-9593-dc266672664a)
  )
  (fp_text user "2a" (at 1.336692 6.156693 90 unlocked) (layer "F.SilkS")
      (effects (font (size 0.75 0.75) (thickness 0.125)))
    (tstamp 4feb645d-5cdd-4b17-9a92-05ef716253c7)
  )
  (fp_text user "4~{oe}" (at -6.56 -6.24 90 unlocked) (layer "F.SilkS")
      (effects (font (size 0.75 0.75) (thickness 0.125)))
    (tstamp 644ee115-c078-44ec-8960-9e2139e17fe2)
  )
  (fp_text user "1a" (at -6.1 6.11 90 unlocked) (layer "F.SilkS")
      (effects (font (size 0.75 0.75) (thickness 0.125)))
    (tstamp 75b09c66-5282-4040-9ab8-e686d5b43f84)
  )
  (fp_text user "2~{oe}" (at -1.254852 6.14 90 unlocked) (layer "F.SilkS")
      (effects (font (size 0.75 0.75) (thickness 0.125)))
    (tstamp 799dec3d-7250-4b0f-8e97-e33d14e7d63d)
  )
  (fp_text user "3~{oe}" (at 1.24 -6.32 90 unlocked) (layer "F.SilkS")
      (effects (font (size 0.75 0.75) (thickness 0.125)))
    (tstamp 7dd34c0c-16c6-475f-8c75-682f66c6cb02)
  )
  (fp_text user "1~{oe}" (at -8.691544 6.093307 90 unlocked) (layer "F.SilkS")
      (effects (font (size 0.75 0.75) (thickness 0.125)))
    (tstamp 841db23b-4749-4aa9-8789-876552940d41)
  )
  (fp_text user "1y" (at -3.616692 6.093307 90 unlocked) (layer "F.SilkS")
      (effects (font (size 0.75 0.75) (thickness 0.125)))
    (tstamp 86fdab0d-94c7-459f-992a-d989f2753e21)
  )
  (fp_text user "gnd" (at 6.55 6.1 90 unlocked) (layer "F.SilkS")
      (effects (font (size 0.75 0.75) (thickness 0.125)))
    (tstamp a8e2818e-8719-40f2-a49d-ed1417993e0a)
  )
  (fp_text user "vcc" (at -8.77 -6.29 90 unlocked) (layer "F.SilkS")
      (effects (font (size 0.75 0.75) (thickness 0.125)))
    (tstamp d6b8bdcd-e2d0-4499-998e-d85f06cd22d3)
  )
  (fp_text user "4a" (at -4.08 -6.28 90 unlocked) (layer "F.SilkS")
      (effects (font (size 0.75 0.75) (thickness 0.125)))
    (tstamp f7a891be-ff01-42c6-b03c-5e617b659388)
  )
  (fp_text user "4y" (at -1.33 -6.21 90 unlocked) (layer "F.SilkS")
      (effects (font (size 0.75 0.75) (thickness 0.125)))
    (tstamp fa8d8506-5cf3-4c02-8723-5f82efa67932)
  )
  (fp_text user "2y" (at 3.82 6.14 90 unlocked) (layer "F.SilkS")
      (effects (font (size 0.75 0.75) (thickness 0.125)))
    (tstamp fdd06356-8410-4707-b908-b84f72a14fde)
  )
  (fp_text user "3a" (at 3.72 -6.36 90 unlocked) (layer "F.SilkS")
      (effects (font (size 0.75 0.75) (thickness 0.125)))
    (tstamp fed7e4c8-2bbb-43af-b33c-b06a4f208ef3)
  )
  (fp_circle (center -10.22 5.93) (end -10.57 5.93)
    (stroke (width 0.1) (type solid)) (fill solid) (layer "B.SilkS") (tstamp ef0ba140-3493-40d2-a089-554b69c07180))
  (fp_line (start -10.16 -5.08) (end -10.16 -1.016)
    (stroke (width 0.1524) (type solid)) (layer "F.SilkS") (tstamp 387cd4d6-ae96-4449-aad6-20e5483eab8c))
  (fp_line (start -10.16 5.08) (end -10.16 1.016)
    (stroke (width 0.1524) (type solid)) (layer "F.SilkS") (tstamp 69f95d13-9095-4887-b2c2-a5325c37298c))
  (fp_arc (start -10.16 -1.016) (mid -9.144 0) (end -10.16 1.016)
    (stroke (width 0.1524) (type solid)) (layer "F.SilkS") (tstamp bf75da0f-7a50-49bc-8c69-f0b02daf0f3e))
  (fp_circle (center -10.19 5.93) (end -9.84 5.93)
    (stroke (width 0.1) (type solid)) (fill solid) (layer "F.SilkS") (tstamp d7798fce-13ad-45c5-83cd-9db726105b39))
  (fp_poly
    (pts
      (xy -10.1675 -5.08)
      (xy 7.56 -5.03)
      (xy 7.56 5.13)
      (xy -10.16 5.08)
    )

    (stroke (width 0.01) (type solid)) (fill none) (layer "F.CrtYd") (tstamp c9eb2dd0-d67d-40e5-afea-d33db83a8a0a))
  (pad "1" thru_hole circle (at -8.89 3.81) (size 1.13 1.13) (drill 0.73) (layers "*.Cu" "*.Mask") (tstamp 8c000278-bb54-44c4-8ebe-1187b6b5ba68))
  (pad "2" thru_hole circle (at -6.35 3.81) (size 1.13 1.13) (drill 0.73) (layers "*.Cu" "*.Mask") (tstamp 0977bd26-bbca-4021-9c96-fadd31e7451b))
  (pad "3" thru_hole circle (at -3.81 3.81) (size 1.13 1.13) (drill 0.73) (layers "*.Cu" "*.Mask") (tstamp 15511719-3960-4850-ac82-a3998d985c1d))
  (pad "4" thru_hole circle (at -1.27 3.81) (size 1.13 1.13) (drill 0.73) (layers "*.Cu" "*.Mask") (tstamp c9b975db-8c6b-49c1-929e-a17c98ae226e))
  (pad "5" thru_hole circle (at 1.27 3.81) (size 1.13 1.13) (drill 0.73) (layers "*.Cu" "*.Mask") (tstamp 08b671dd-e474-40f4-bf25-4bb678839c44))
  (pad "6" thru_hole circle (at 3.81 3.81) (size 1.13 1.13) (drill 0.73) (layers "*.Cu" "*.Mask") (tstamp 22ece754-0318-4ea4-91da-f496be7a1dac))
  (pad "7" thru_hole roundrect (at 6.35 3.81) (size 1.13 1.13) (drill 0.73) (layers "*.Cu" "*.Mask") (roundrect_rratio 0.25) (tstamp 364f0c54-41e5-46fb-b394-d74bb3a654fd))
  (pad "8" thru_hole circle (at 6.35 -3.81) (size 1.13 1.13) (drill 0.73) (layers "*.Cu" "*.Mask") (tstamp 8c3680ea-6a7c-4d0e-9871-3dab79446927))
  (pad "9" thru_hole circle (at 3.81 -3.81) (size 1.13 1.13) (drill 0.73) (layers "*.Cu" "*.Mask") (tstamp 809ec5ef-05e5-4762-8842-cc1a46706e91))
  (pad "10" thru_hole circle (at 1.27 -3.81) (size 1.13 1.13) (drill 0.73) (layers "*.Cu" "*.Mask") (tstamp a4054d87-5531-444c-97c5-96f0cdad692a))
  (pad "11" thru_hole circle (at -1.27 -3.81) (size 1.13 1.13) (drill 0.73) (layers "*.Cu" "*.Mask") (tstamp 3c8fc06d-0288-43cd-a5e7-76d27e4f7522))
  (pad "12" thru_hole circle (at -3.81 -3.81) (size 1.13 1.13) (drill 0.73) (layers "*.Cu" "*.Mask") (tstamp 127e8bbd-01de-439d-bcca-d231b6b1c6da))
  (pad "13" thru_hole circle (at -6.35 -3.81) (size 1.13 1.13) (drill 0.73) (layers "*.Cu" "*.Mask") (tstamp c2648ca0-e789-454f-95e8-2218b302baa6))
  (pad "14" thru_hole circle (at -8.89 -3.81) (size 1.13 1.13) (drill 0.73) (layers "*.Cu" "*.Mask") (tstamp f0eba038-d8d3-4081-9190-7ab179add70b))
  (model "/home/drFaustroll/playground/keyboard/m65/m65-pcb/packages3d/74HC595N_DIP16.step"
    (offset (xyz 0 0 0))
    (scale (xyz 1 1 1))
    (rotate (xyz -90 0 -90))
  )
)
