(footprint "74hc595n" (version 20221018) (generator pcbnew)
  (layer "F.Cu")
  (descr "<b>Dual In Line Package</b>")
  (property "Sheetfile" "handwire8x16.kicad_sch")
  (property "Sheetname" "")
  (attr through_hole)
  (fp_text reference "U2" (at -11.04 4.35 -90) (layer "F.SilkS")
      (effects (font (size 0.70009 0.70009) (thickness 0.15)))
    (tstamp 63376e16-2b58-4ca6-98ee-01891fefa822)
  )
  (fp_text value "74HC595" (at 7.62 0) (layer "F.Fab")
      (effects (font (size 0.700252 0.700252) (thickness 0.15)))
    (tstamp 31865461-aea9-4130-af69-513a6d33b335)
  )
  (fp_text user "q7" (at 6.620077 6.116693 90 unlocked) (layer "B.SilkS")
      (effects (font (size 0.75 0.75) (thickness 0.125)) (justify mirror))
    (tstamp 0a75abca-4b81-4efd-901d-719d0c6c9b9c)
  )
  (fp_text user "q4" (at -0.999923 6.116693 90 unlocked) (layer "B.SilkS")
      (effects (font (size 0.75 0.75) (thickness 0.125)) (justify mirror))
    (tstamp 1e01e203-972b-4e12-a9b1-6af733d90fc3)
  )
  (fp_text user "stcp" (at 1.29 -6.26 90 unlocked) (layer "B.SilkS")
      (effects (font (size 0.75 0.75) (thickness 0.125)) (justify mirror))
    (tstamp 230cf29d-815c-4b84-98ea-231f96176bff)
  )
  (fp_text user "q5" (at 1.540077 6.116693 90 unlocked) (layer "B.SilkS")
      (effects (font (size 0.75 0.75) (thickness 0.125)) (justify mirror))
    (tstamp 3486e1e8-0019-4487-a9e3-b66852c2efae)
  )
  (fp_text user "q2" (at -6.15 6.1 90 unlocked) (layer "B.SilkS")
      (effects (font (size 0.75 0.75) (thickness 0.125)) (justify mirror))
    (tstamp 3a4946e4-6229-44de-a78b-e8a2accd47ca)
  )
  (fp_text user "q1" (at -8.619923 6.116693 90 unlocked) (layer "B.SilkS")
      (effects (font (size 0.75 0.75) (thickness 0.125)) (justify mirror))
    (tstamp 3ee0c1b4-dd1b-48a6-9c43-793fc184e1d0)
  )
  (fp_text user "q6" (at 4.080077 6.116693 90 unlocked) (layer "B.SilkS")
      (effects (font (size 0.75 0.75) (thickness 0.125)) (justify mirror))
    (tstamp 60204979-91c3-4b87-b145-d963cfb41624)
  )
  (fp_text user "${VALUE}" (at -11.18 -2.42 90) (layer "B.SilkS")
      (effects (font (size 0.700252 0.700252) (thickness 0.15)) (justify mirror))
    (tstamp 6f0c472a-e61e-440d-bdea-91ebb54e3648)
  )
  (fp_text user "Vcc" (at -8.87 -6.26 90 unlocked) (layer "B.SilkS")
      (effects (font (size 0.75 0.75) (thickness 0.125)) (justify mirror))
    (tstamp 7aa0254c-2fdc-4548-89de-64cc2ca65f34)
  )
  (fp_text user "q7s" (at 8.88 -6.26 90 unlocked) (layer "B.SilkS")
      (effects (font (size 0.75 0.75) (thickness 0.125)) (justify mirror))
    (tstamp 8a5c1714-0999-499e-924f-a5854c391ba0)
  )
  (fp_text user "${REFERENCE}" (at -11.11 3.77 -90) (layer "B.SilkS")
      (effects (font (size 0.70009 0.70009) (thickness 0.15)) (justify mirror))
    (tstamp 8f9a6eec-fc76-4a14-b658-bf9fc6fb7c44)
  )
  (fp_text user "~{oe}" (at -1.08 -6.27 90 unlocked) (layer "B.SilkS")
      (effects (font (size 0.75 0.75) (thickness 0.125)) (justify mirror))
    (tstamp 912d1c90-f30d-45ba-909a-dbd763e6ce4f)
  )
  (fp_text user "shcp" (at 3.83 -6.26 90 unlocked) (layer "B.SilkS")
      (effects (font (size 0.75 0.75) (thickness 0.125)) (justify mirror))
    (tstamp b5f00f01-0306-4614-b04a-f583a1caba3b)
  )
  (fp_text user "ds" (at -3.8 -6.26 90 unlocked) (layer "B.SilkS")
      (effects (font (size 0.75 0.75) (thickness 0.125)) (justify mirror))
    (tstamp c517b866-4755-4990-a866-09886e72816e)
  )
  (fp_text user "q0" (at -6.33 -6.26 90 unlocked) (layer "B.SilkS")
      (effects (font (size 0.75 0.75) (thickness 0.125)) (justify mirror))
    (tstamp c7fc5265-870f-4595-95ee-f090ecfc2d8d)
  )
  (fp_text user "q3" (at -3.539923 6.116693 90 unlocked) (layer "B.SilkS")
      (effects (font (size 0.75 0.75) (thickness 0.125)) (justify mirror))
    (tstamp e5aedd0d-45ba-42fd-a98e-4b72d72cdda2)
  )
  (fp_text user "~{oe}" (at 6.49 -6.26 90 unlocked) (layer "B.SilkS")
      (effects (font (size 0.75 0.75) (thickness 0.125)) (justify mirror))
    (tstamp efeb89e5-8608-45e8-9679-e7766a5abe8e)
  )
  (fp_text user "gnd" (at 9.160077 6.116693 90 unlocked) (layer "B.SilkS")
      (effects (font (size 0.75 0.75) (thickness 0.125)) (justify mirror))
    (tstamp f8b6ced0-ac89-420f-bf03-bc5b6bb56554)
  )
  (fp_text user "${VALUE}" (at -11.22 -2.35 90) (layer "F.SilkS")
      (effects (font (size 0.700252 0.700252) (thickness 0.15)))
    (tstamp 02ad6136-a0b6-4ce9-af42-4d836a2fc55a)
  )
  (fp_text user "~{oe}" (at -1.15 -6.29 90 unlocked) (layer "F.SilkS")
      (effects (font (size 0.75 0.75) (thickness 0.125)))
    (tstamp 066b2d1e-5e9c-4403-81d2-13c7dd04cb4a)
  )
  (fp_text user "q0" (at -6.23 -6.29 90 unlocked) (layer "F.SilkS")
      (effects (font (size 0.75 0.75) (thickness 0.125)))
    (tstamp 28895406-80c5-4eb0-a03d-0710e2154cb6)
  )
  (fp_text user "stcp" (at 1.39 -6.29 90 unlocked) (layer "F.SilkS")
      (effects (font (size 0.75 0.75) (thickness 0.125)))
    (tstamp 2ff0cc4b-6797-49f1-8217-a227a61ecb28)
  )
  (fp_text user "q4" (at -1.07469 6.084441 90 unlocked) (layer "F.SilkS")
      (effects (font (size 0.75 0.75) (thickness 0.125)))
    (tstamp 35a72f0d-556b-4bae-8fda-148623abaf35)
  )
  (fp_text user "~{mr}" (at 6.47 -6.29 90 unlocked) (layer "F.SilkS")
      (effects (font (size 0.75 0.75) (thickness 0.125)))
    (tstamp 474f7830-829a-4949-9593-dc266672664a)
  )
  (fp_text user "q2" (at -6.1 6.11 90 unlocked) (layer "F.SilkS")
      (effects (font (size 0.75 0.75) (thickness 0.125)))
    (tstamp 75b09c66-5282-4040-9ab8-e686d5b43f84)
  )
  (fp_text user "ds" (at -3.79 -6.26 90 unlocked) (layer "F.SilkS")
      (effects (font (size 0.75 0.75) (thickness 0.125)))
    (tstamp 77262a19-574b-41fa-828a-447a75f85b63)
  )
  (fp_text user "q1" (at -8.691544 6.093307 90 unlocked) (layer "F.SilkS")
      (effects (font (size 0.75 0.75) (thickness 0.125)))
    (tstamp 841db23b-4749-4aa9-8789-876552940d41)
  )
  (fp_text user "q3" (at -3.616692 6.093307 90 unlocked) (layer "F.SilkS")
      (effects (font (size 0.75 0.75) (thickness 0.125)))
    (tstamp 86fdab0d-94c7-459f-992a-d989f2753e21)
  )
  (fp_text user "shcp" (at 3.93 -6.29 90 unlocked) (layer "F.SilkS")
      (effects (font (size 0.75 0.75) (thickness 0.125)))
    (tstamp 9ce66b3a-c772-495c-829e-93a18d0cdbde)
  )
  (fp_text user "q7" (at 6.55 6.1 90 unlocked) (layer "F.SilkS")
      (effects (font (size 0.75 0.75) (thickness 0.125)))
    (tstamp a8e2818e-8719-40f2-a49d-ed1417993e0a)
  )
  (fp_text user "q7s" (at 9.01 -6.29 90 unlocked) (layer "F.SilkS")
      (effects (font (size 0.75 0.75) (thickness 0.125)))
    (tstamp ab1a5afb-f4bf-41d3-b128-fba84dc9427f)
  )
  (fp_text user "gnd" (at 9.09 6.1 90 unlocked) (layer "F.SilkS")
      (effects (font (size 0.75 0.75) (thickness 0.125)))
    (tstamp d1023c60-7b95-4418-bea0-3d67010a1050)
  )
  (fp_text user "Vcc" (at -8.77 -6.29 90 unlocked) (layer "F.SilkS")
      (effects (font (size 0.75 0.75) (thickness 0.125)))
    (tstamp d6b8bdcd-e2d0-4499-998e-d85f06cd22d3)
  )
  (fp_text user "q5" (at 1.452096 6.084441 90 unlocked) (layer "F.SilkS")
      (effects (font (size 0.75 0.75) (thickness 0.125)))
    (tstamp e05449e3-4493-486a-a417-eba090648b5a)
  )
  (fp_text user "q6" (at 4.001048 6.084441 90 unlocked) (layer "F.SilkS")
      (effects (font (size 0.75 0.75) (thickness 0.125)))
    (tstamp e0d70d71-4810-4fe4-9e33-cd18d8856540)
  )
  (fp_circle (center -10.22 5.93) (end -10.57 5.93)
    (stroke (width 0.1) (type solid)) (fill solid) (layer "B.SilkS") (tstamp ef0ba140-3493-40d2-a089-554b69c07180))
  (fp_line (start -10.16 -5.08) (end -10.16 -1.016)
    (stroke (width 0.1524) (type solid)) (layer "F.SilkS") (tstamp 387cd4d6-ae96-4449-aad6-20e5483eab8c))
  (fp_line (start -10.16 5.08) (end -10.16 1.016)
    (stroke (width 0.1524) (type solid)) (layer "F.SilkS") (tstamp 69f95d13-9095-4887-b2c2-a5325c37298c))
  (fp_arc (start -10.16 -1.016) (mid -9.144 0) (end -10.16 1.016)
    (stroke (width 0.1524) (type solid)) (layer "F.SilkS") (tstamp bf75da0f-7a50-49bc-8c69-f0b02daf0f3e))
  (fp_circle (center -10.19 5.93) (end -9.84 5.93)
    (stroke (width 0.1) (type solid)) (fill solid) (layer "F.SilkS") (tstamp d7798fce-13ad-45c5-83cd-9db726105b39))
  (fp_poly
    (pts
      (xy -10.1675 -5.08)
      (xy 10.16 -5.08)
      (xy 10.16 5.08)
      (xy -10.16 5.08)
    )

    (stroke (width 0.01) (type solid)) (fill none) (layer "F.CrtYd") (tstamp c9eb2dd0-d67d-40e5-afea-d33db83a8a0a))
  (pad "1" thru_hole circle (at -8.89 3.81) (size 1.13 1.13) (drill 0.73) (layers "*.Cu" "*.Mask") (tstamp 8c000278-bb54-44c4-8ebe-1187b6b5ba68))
  (pad "2" thru_hole circle (at -6.35 3.81) (size 1.13 1.13) (drill 0.73) (layers "*.Cu" "*.Mask") (tstamp 0977bd26-bbca-4021-9c96-fadd31e7451b))
  (pad "3" thru_hole circle (at -3.81 3.81) (size 1.13 1.13) (drill 0.73) (layers "*.Cu" "*.Mask") (tstamp 15511719-3960-4850-ac82-a3998d985c1d))
  (pad "4" thru_hole circle (at -1.27 3.81) (size 1.13 1.13) (drill 0.73) (layers "*.Cu" "*.Mask") (tstamp c9b975db-8c6b-49c1-929e-a17c98ae226e))
  (pad "5" thru_hole circle (at 1.27 3.81) (size 1.13 1.13) (drill 0.73) (layers "*.Cu" "*.Mask") (tstamp 08b671dd-e474-40f4-bf25-4bb678839c44))
  (pad "6" thru_hole circle (at 3.81 3.81) (size 1.13 1.13) (drill 0.73) (layers "*.Cu" "*.Mask") (tstamp 22ece754-0318-4ea4-91da-f496be7a1dac))
  (pad "7" thru_hole circle (at 6.35 3.81) (size 1.13 1.13) (drill 0.73) (layers "*.Cu" "*.Mask") (tstamp 364f0c54-41e5-46fb-b394-d74bb3a654fd))
  (pad "8" thru_hole roundrect (at 8.89 3.81) (size 1.13 1.13) (drill 0.73) (layers "*.Cu" "*.Mask") (roundrect_rratio 0.25) (tstamp f41e5ac6-bc80-44af-9564-ba4883f47122))
  (pad "9" thru_hole circle (at 8.89 -3.81) (size 1.13 1.13) (drill 0.73) (layers "*.Cu" "*.Mask") (tstamp 99aeb6e4-6350-43f2-946c-3ff48bdaa4c4))
  (pad "10" thru_hole circle (at 6.35 -3.81) (size 1.13 1.13) (drill 0.73) (layers "*.Cu" "*.Mask") (tstamp 8c3680ea-6a7c-4d0e-9871-3dab79446927))
  (pad "11" thru_hole circle (at 3.81 -3.81) (size 1.13 1.13) (drill 0.73) (layers "*.Cu" "*.Mask") (tstamp 809ec5ef-05e5-4762-8842-cc1a46706e91))
  (pad "12" thru_hole circle (at 1.27 -3.81) (size 1.13 1.13) (drill 0.73) (layers "*.Cu" "*.Mask") (tstamp a4054d87-5531-444c-97c5-96f0cdad692a))
  (pad "13" thru_hole circle (at -1.27 -3.81) (size 1.13 1.13) (drill 0.73) (layers "*.Cu" "*.Mask") (tstamp 3c8fc06d-0288-43cd-a5e7-76d27e4f7522))
  (pad "14" thru_hole circle (at -3.81 -3.81) (size 1.13 1.13) (drill 0.73) (layers "*.Cu" "*.Mask") (tstamp 127e8bbd-01de-439d-bcca-d231b6b1c6da))
  (pad "15" thru_hole circle (at -6.35 -3.81) (size 1.13 1.13) (drill 0.73) (layers "*.Cu" "*.Mask") (tstamp c2648ca0-e789-454f-95e8-2218b302baa6))
  (pad "16" thru_hole circle (at -8.89 -3.81) (size 1.13 1.13) (drill 0.73) (layers "*.Cu" "*.Mask") (tstamp f0eba038-d8d3-4081-9190-7ab179add70b))
  (model "/home/drFaustroll/playground/keyboard/m65/m65-pcb/packages3d/74HC595N_DIP16.step"
    (offset (xyz 0 0 0))
    (scale (xyz 1 1 1))
    (rotate (xyz -90 0 -90))
  )
)
