(footprint "C-1206_3216Metric_Pad1.33x1.80mm_HandSolder"
	(version 20240108)
	(generator "pcbnew")
	(generator_version "8.0")
	(layer "F.Cu")
	(descr "Capacitor SMD 1206 (3216 Metric), square (rectangular) end terminal, IPC_7351 nominal with elongated pad for handsoldering. (Body size source: IPC-SM-782 page 76, https://www.pcb-3d.com/wordpress/wp-content/uploads/ipc-sm-782a_amendment_1_and_2.pdf), generated with kicad-footprint-generator")
	(tags "capacitor handsolder")
	(property "Reference" "C3"
		(at -3.05 0.05 90)
		(layer "F.SilkS")
		(uuid "93208394-0818-449c-b85f-df977fabe89f")
		(effects
			(font
				(size 0.5 0.5)
				(thickness 0.1)
				(bold yes)
			)
		)
	)
	(property "Value" "100nF"
		(at 0 1.85 0)
		(layer "F.Fab")
		(uuid "30daa0ce-7b40-49df-a24e-b56fb4a76cf8")
		(effects
			(font
				(size 1 1)
				(thickness 0.15)
			)
		)
	)
	(property "Footprint" ""
		(at 0 0 0)
		(unlocked yes)
		(layer "F.Fab")
		(hide yes)
		(uuid "b5fbb791-eb3a-41a1-9916-3f40089efff6")
		(effects
			(font
				(size 1.27 1.27)
			)
		)
	)
	(property "Datasheet" ""
		(at 0 0 0)
		(unlocked yes)
		(layer "F.Fab")
		(hide yes)
		(uuid "5d60f4d8-2cd9-4e92-98d6-a87636b59c11")
		(effects
			(font
				(size 1.27 1.27)
			)
		)
	)
	(property "Description" "Unpolarized capacitor"
		(at 0 0 0)
		(unlocked yes)
		(layer "F.Fab")
		(hide yes)
		(uuid "38a93f73-1565-452b-9aa0-aedad47d6852")
		(effects
			(font
				(size 1.27 1.27)
			)
		)
	)
	(attr smd)
	(fp_line
		(start -0.711252 -0.91)
		(end 0.711252 -0.91)
		(stroke
			(width 0.12)
			(type solid)
		)
		(layer "F.SilkS")
		(uuid "9b30a980-4a20-4a61-ac69-73fc7b45efc3")
	)
	(fp_line
		(start -0.711252 0.91)
		(end 0.711252 0.91)
		(stroke
			(width 0.12)
			(type solid)
		)
		(layer "F.SilkS")
		(uuid "cb8a60b6-a49b-48dc-9671-72d72e4e0998")
	)
	(fp_line
		(start -2.48 -1.15)
		(end 2.48 -1.15)
		(stroke
			(width 0.05)
			(type solid)
		)
		(layer "F.CrtYd")
		(uuid "857255b6-5469-4402-825a-450ae72b2e0b")
	)
	(fp_line
		(start -2.48 1.15)
		(end -2.48 -1.15)
		(stroke
			(width 0.05)
			(type solid)
		)
		(layer "F.CrtYd")
		(uuid "c4a68f29-6d9d-449f-b6a9-dd843096b772")
	)
	(fp_line
		(start 2.48 -1.15)
		(end 2.48 1.15)
		(stroke
			(width 0.05)
			(type solid)
		)
		(layer "F.CrtYd")
		(uuid "5db5dbda-8996-4db0-8692-7baf251d7093")
	)
	(fp_line
		(start 2.48 1.15)
		(end -2.48 1.15)
		(stroke
			(width 0.05)
			(type solid)
		)
		(layer "F.CrtYd")
		(uuid "3746c847-6f22-498e-95f6-d7e1a067f450")
	)
	(fp_line
		(start -1.6 -0.8)
		(end 1.6 -0.8)
		(stroke
			(width 0.1)
			(type solid)
		)
		(layer "F.Fab")
		(uuid "dc596f9b-fcc1-4c9c-8649-cb097207de5a")
	)
	(fp_line
		(start -1.6 0.8)
		(end -1.6 -0.8)
		(stroke
			(width 0.1)
			(type solid)
		)
		(layer "F.Fab")
		(uuid "da5a127b-f363-4dc0-9abd-b98465d9dc39")
	)
	(fp_line
		(start 1.6 -0.8)
		(end 1.6 0.8)
		(stroke
			(width 0.1)
			(type solid)
		)
		(layer "F.Fab")
		(uuid "c79a6fa4-107a-4ae4-abd0-5a02344d76a7")
	)
	(fp_line
		(start 1.6 0.8)
		(end -1.6 0.8)
		(stroke
			(width 0.1)
			(type solid)
		)
		(layer "F.Fab")
		(uuid "371bea2a-3479-4719-a0b0-b763f37ceb01")
	)
	(fp_text user "${VALUE}"
		(at 2.95 0 90)
		(layer "F.SilkS")
		(uuid "352ae2a7-b603-4c00-8146-aed68e86d609")
		(effects
			(font
				(size 0.5 0.5)
				(thickness 0.1)
				(bold yes)
			)
		)
	)
	(fp_text user "${REFERENCE}"
		(at 0 -2.54 0)
		(layer "F.Fab")
		(uuid "85f94986-cff7-4a21-8290-9894051f16d4")
		(effects
			(font
				(size 0.8 0.8)
				(thickness 0.12)
			)
		)
	)
	(pad "1" smd roundrect
		(at -1.5625 0)
		(size 1.325 1.8)
		(layers "F.Cu" "F.Paste" "F.Mask")
		(roundrect_rratio 0.188679)
		(uuid "98edd115-36eb-4777-a308-ca88525e686d")
	)
	(pad "1" thru_hole circle
		(at -0.9 0)
		(size 0.5 0.5)
		(drill 0.3)
		(layers "*.Cu" "*.Mask")
		(remove_unused_layers no)
		(uuid "af5e31f9-0be7-4927-a20a-ebc889e72718")
	)
	(pad "2" thru_hole circle
		(at 0.9 0)
		(size 0.5 0.5)
		(drill 0.3)
		(layers "*.Cu" "*.Mask")
		(remove_unused_layers no)
		(uuid "4e5b16a0-5abc-4a74-a70e-593628671e44")
	)
	(pad "2" smd roundrect
		(at 1.5625 0)
		(size 1.325 1.8)
		(layers "F.Cu" "F.Paste" "F.Mask")
		(roundrect_rratio 0.188679)
		(uuid "776ddc7f-5d3e-40b0-ad71-d67dc73636e3")
	)
	(model "${KICAD6_3DMODEL_DIR}/Capacitor_SMD.3dshapes/C_1206_3216Metric.wrl"
		(offset
			(xyz 0 0 0)
		)
		(scale
			(xyz 1 1 1)
		)
		(rotate
			(xyz 0 0 0)
		)
	)
)