(footprint "C_1206_3216Metric_Pad1.33x1.80mm_HandSolder_dual" (version 20221018) (generator pcbnew)
  (layer "F.Cu")
  (descr "Capacitor SMD 1206 (3216 Metric), square (rectangular) end terminal, IPC_7351 nominal with elongated pad for handsoldering. (Body size source: IPC-SM-782 page 76, https://www.pcb-3d.com/wordpress/wp-content/uploads/ipc-sm-782a_amendment_1_and_2.pdf), generated with kicad-footprint-generator")
  (tags "capacitor handsolder")
  (attr smd)
  (fp_text reference "REF**" (at 0 -1.85) (layer "F.SilkS")
      (effects (font (size 1 1) (thickness 0.15)))
    (tstamp b407f268-daf0-4d1d-a344-899359edb348)
  )
  (fp_text value "C_1206_3216Metric_Pad1.33x1.80mm_HandSolder_dual" (at 0 1.85) (layer "F.Fab")
      (effects (font (size 1 1) (thickness 0.15)))
    (tstamp d16e2670-786f-4e93-8805-45c64ffa3fdf)
  )
  (fp_text user "${REFERENCE}" (at 0 0) (layer "F.Fab")
      (effects (font (size 0.8 0.8) (thickness 0.12)))
    (tstamp e745c535-c330-49e3-8f6e-f70f98e36d28)
  )
  (fp_line (start -0.711252 -0.91) (end 0.711252 -0.91)
    (stroke (width 0.12) (type solid)) (layer "F.SilkS") (tstamp 17b6fc06-9a2f-4947-8b0e-5ee47449878d))
  (fp_line (start -0.711252 0.91) (end 0.711252 0.91)
    (stroke (width 0.12) (type solid)) (layer "F.SilkS") (tstamp 06cb9b40-feda-416d-8c7b-9d7ebe510fc7))
  (fp_line (start -2.48 -1.15) (end 2.48 -1.15)
    (stroke (width 0.05) (type solid)) (layer "F.CrtYd") (tstamp cee4f4fd-4448-46f4-8cb6-b82860d5ea5a))
  (fp_line (start -2.48 1.15) (end -2.48 -1.15)
    (stroke (width 0.05) (type solid)) (layer "F.CrtYd") (tstamp a7c01796-85e7-4a1b-aa45-896dfef2efd3))
  (fp_line (start 2.48 -1.15) (end 2.48 1.15)
    (stroke (width 0.05) (type solid)) (layer "F.CrtYd") (tstamp c8ebac23-3aa9-45f1-962e-14fac50864e6))
  (fp_line (start 2.48 1.15) (end -2.48 1.15)
    (stroke (width 0.05) (type solid)) (layer "F.CrtYd") (tstamp de40c896-ce22-4bae-aaac-0a818145ed86))
  (fp_line (start -1.6 -0.8) (end 1.6 -0.8)
    (stroke (width 0.1) (type solid)) (layer "F.Fab") (tstamp 47deadd9-4283-4abf-b9b2-e6ce21d533d3))
  (fp_line (start -1.6 0.8) (end -1.6 -0.8)
    (stroke (width 0.1) (type solid)) (layer "F.Fab") (tstamp b251839e-cf2c-46e3-89cd-6af391a82d69))
  (fp_line (start 1.6 -0.8) (end 1.6 0.8)
    (stroke (width 0.1) (type solid)) (layer "F.Fab") (tstamp 40ec0471-1cf8-4713-a2e4-c2669f4924ec))
  (fp_line (start 1.6 0.8) (end -1.6 0.8)
    (stroke (width 0.1) (type solid)) (layer "F.Fab") (tstamp ab5c20ae-61bc-4223-b82c-4f2a17678f69))
  (pad "1" smd roundrect (at -1.5625 0) (size 1.325 1.8) (layers "F.Cu" "F.Paste" "F.Mask") (roundrect_rratio 0.188679) (tstamp 406fa0b0-f87f-4b38-ac65-6ae679a6c4c3))
  (pad "2" smd roundrect (at 1.5625 0) (size 1.325 1.8) (layers "F.Cu" "F.Paste" "F.Mask") (roundrect_rratio 0.188679) (tstamp c19335d4-a4a1-44bf-9759-72620c4c4223))
  (model "${KICAD6_3DMODEL_DIR}/Capacitor_SMD.3dshapes/C_1206_3216Metric.wrl"
    (offset (xyz 0 0 0))
    (scale (xyz 1 1 1))
    (rotate (xyz 0 0 0))
  )
)
