(module "DIP794W53P254L1930H508Q16N" (layer F.Cu)
  (descr "PDIP 16")
  (tags "Integrated Circuit")
  (fp_text reference IC** (at 0 0) (layer F.SilkS)
    (effects (font (size 1.27 1.27) (thickness 0.254)))
  )
  (fp_text user %R (at 0 0) (layer F.Fab)
    (effects (font (size 1.27 1.27) (thickness 0.254)))
  )
  (fp_text value "DIP794W53P254L1930H508Q16N" (at 0 0) (layer F.SilkS) hide
    (effects (font (size 1.27 1.27) (thickness 0.254)))
  )
  (fp_line (start -4.945 -10.095) (end 4.945 -10.095) (layer F.CrtYd) (width 0.05))
  (fp_line (start 4.945 -10.095) (end 4.945 10.095) (layer F.CrtYd) (width 0.05))
  (fp_line (start 4.945 10.095) (end -4.945 10.095) (layer F.CrtYd) (width 0.05))
  (fp_line (start -4.945 10.095) (end -4.945 -10.095) (layer F.CrtYd) (width 0.05))
  (fp_line (start -3.3 -9.845) (end 3.3 -9.845) (layer F.Fab) (width 0.1))
  (fp_line (start 3.3 -9.845) (end 3.3 9.845) (layer F.Fab) (width 0.1))
  (fp_line (start 3.3 9.845) (end -3.3 9.845) (layer F.Fab) (width 0.1))
  (fp_line (start -3.3 9.845) (end -3.3 -9.845) (layer F.Fab) (width 0.1))
  (fp_line (start -3.3 -8.575) (end -2.03 -9.845) (layer F.Fab) (width 0.1))
  (fp_line (start -4.535 -9.845) (end 3.3 -9.845) (layer F.SilkS) (width 0.2))
  (fp_line (start -3.3 9.845) (end 3.3 9.845) (layer F.SilkS) (width 0.2))
  (pad 1 thru_hole rect (at -3.97 -8.89) (size 1.13 1.13) (drill 0.73) (layers *.Cu *.Mask))
  (pad 2 thru_hole circle (at -3.97 -6.35) (size 1.13 1.13) (drill 0.73) (layers *.Cu *.Mask))
  (pad 3 thru_hole circle (at -3.97 -3.81) (size 1.13 1.13) (drill 0.73) (layers *.Cu *.Mask))
  (pad 4 thru_hole circle (at -3.97 -1.27) (size 1.13 1.13) (drill 0.73) (layers *.Cu *.Mask))
  (pad 5 thru_hole circle (at -3.97 1.27) (size 1.13 1.13) (drill 0.73) (layers *.Cu *.Mask))
  (pad 6 thru_hole circle (at -3.97 3.81) (size 1.13 1.13) (drill 0.73) (layers *.Cu *.Mask))
  (pad 7 thru_hole circle (at -3.97 6.35) (size 1.13 1.13) (drill 0.73) (layers *.Cu *.Mask))
  (pad 8 thru_hole circle (at -3.97 8.89) (size 1.13 1.13) (drill 0.73) (layers *.Cu *.Mask))
  (pad 9 thru_hole circle (at 3.97 8.89) (size 1.13 1.13) (drill 0.73) (layers *.Cu *.Mask))
  (pad 10 thru_hole circle (at 3.97 6.35) (size 1.13 1.13) (drill 0.73) (layers *.Cu *.Mask))
  (pad 11 thru_hole circle (at 3.97 3.81) (size 1.13 1.13) (drill 0.73) (layers *.Cu *.Mask))
  (pad 12 thru_hole circle (at 3.97 1.27) (size 1.13 1.13) (drill 0.73) (layers *.Cu *.Mask))
  (pad 13 thru_hole circle (at 3.97 -1.27) (size 1.13 1.13) (drill 0.73) (layers *.Cu *.Mask))
  (pad 14 thru_hole circle (at 3.97 -3.81) (size 1.13 1.13) (drill 0.73) (layers *.Cu *.Mask))
  (pad 15 thru_hole circle (at 3.97 -6.35) (size 1.13 1.13) (drill 0.73) (layers *.Cu *.Mask))
  (pad 16 thru_hole circle (at 3.97 -8.89) (size 1.13 1.13) (drill 0.73) (layers *.Cu *.Mask))
  (model CD74HC597EE4.stp
    (at (xyz 0 0 0.098425196850394))
    (scale (xyz 1 1 1))
    (rotate (xyz -90 0 0))
  )
)
