(footprint "jst_split" (version 20211014) (generator pcbnew)
  (layer "F.Cu")
  (tedit 6128FC90)
  (descr "JST EH series connector, S3B-EH (http://www.jst-mfg.com/product/pdf/eng/eEH.pdf), generated with kicad-footprint-generator")
  (tags "connector JST EH horizontal")
  (attr through_hole)
  (fp_text reference "J*" (at 0.55 -7.95 180) (layer "F.SilkS")
    (effects (font (size 1 1) (thickness 0.15)))
    (tstamp 0461bf04-b12a-440a-bf88-b26d193f6a92)
  )
  (fp_text value "Conn_01x03_Male" (at 2.5 2.7 180) (layer "F.Fab")
    (effects (font (size 1 1) (thickness 0.15)))
    (tstamp f44825a9-8465-427c-be03-423b89ff9b5e)
  )
  (fp_text user "${REFERENCE}" (at 4.775 -7.85 180) (layer "B.SilkS")
    (effects (font (size 1 1) (thickness 0.15)) (justify mirror))
    (tstamp 31347548-9c33-48c3-ba94-7e4ab95cc67c)
  )
  (fp_text user "${VALUE}" (at 8.75 -0.85 270) (layer "B.SilkS")
    (effects (font (size 1 1) (thickness 0.15)) (justify mirror))
    (tstamp 7f71a528-1b0d-4059-bff1-e8e42b3ded5b)
  )
  (fp_text user "${REFERENCE}" (at 2.5 -2.6 180) (layer "F.Fab")
    (effects (font (size 1 1) (thickness 0.15)))
    (tstamp 3ebc6d49-ecfa-4e60-839a-b9fc76b6cb4f)
  )
  (fp_line (start 3.67 -0.59) (end 3.83 -0.59) (layer "F.SilkS") (width 0.12) (tstamp 031f2028-f520-43b7-be73-0a47425c5719))
  (fp_line (start -2.61 -5.59) (end -1.39 -5.59) (layer "F.SilkS") (width 0.12) (tstamp 1bc0e3f1-654c-46f5-894d-126ebceee2fc))
  (fp_line (start -1.39 -0.59) (end -2.61 -0.59) (layer "F.SilkS") (width 0.12) (tstamp 21a4f8f0-61be-471b-91b2-2f5fc4f42be2))
  (fp_line (start -0.3 2.1) (end 0.3 2.1) (layer "F.SilkS") (width 0.12) (tstamp 248eb926-83d4-4a24-89ca-439a999ac8bd))
  (fp_line (start 4.68 -1.59) (end 4.68 -5.01) (layer "F.SilkS") (width 0.12) (tstamp 258fdb82-70ac-4e3a-aafd-8a7c34a68831))
  (fp_line (start -1.39 -1.59) (end 6.39 -1.59) (layer "F.SilkS") (width 0.12) (tstamp 3dfabf96-97c9-43ab-a954-1c854f19d8ce))
  (fp_line (start -1.39 1.61) (end -2.61 1.61) (layer "F.SilkS") (width 0.12) (tstamp 45f62b0f-17f9-4758-991c-f28a83cb14ed))
  (fp_line (start 6.39 -0.59) (end 7.61 -0.59) (layer "F.SilkS") (width 0.12) (tstamp 490cd175-255c-4ff0-b01e-0b3834697b32))
  (fp_line (start 2.18 -1.59) (end 2.18 -5.01) (layer "F.SilkS") (width 0.12) (tstamp 4e976a52-6f57-4db1-af9f-abfa2d18b1e6))
  (fp_line (start 0.32 -5.01) (end 0.32 -1.59) (layer "F.SilkS") (width 0.12) (tstamp 50806e8f-0de6-4ca2-b5f9-1514eeacaa4d))
  (fp_line (start 5.32 -1.59) (end 5 -1.59) (layer "F.SilkS") (width 0.12) (tstamp 5a327304-a9cc-4ca7-ba04-7550c2384870))
  (fp_line (start 0 1.5) (end -0.3 2.1) (layer "F.SilkS") (width 0.12) (tstamp 5f581aef-2eda-488d-8d64-74f5d338324d))
  (fp_line (start 0 -5.09) (end 0.32 -5.01) (layer "F.SilkS") (width 0.12) (tstamp 6365c74a-08d9-4af8-9ee5-af197f1ce4cc))
  (fp_line (start 0.3 2.1) (end 0 1.5) (layer "F.SilkS") (width 0.12) (tstamp 771a46c2-4ff3-47d8-b901-0191e1278437))
  (fp_line (start 2.5 -1.59) (end 2.18 -1.59) (layer "F.SilkS") (width 0.12) (tstamp 7c2bbfa4-99ac-43a2-9160-71e6add9f142))
  (fp_line (start 7.61 1.61) (end 6.39 1.61) (layer "F.SilkS") (width 0.12) (tstamp 7dbc5285-d897-49d0-9d6a-05daed05fd08))
  (fp_line (start 4.68 -5.01) (end 5 -5.09) (layer "F.SilkS") (width 0.12) (tstamp 8663a4f4-08d5-4ee5-a274-b4da351e6ff6))
  (fp_line (start -1.39 -0.59) (end -1.39 1.61) (layer "F.SilkS") (width 0.12) (tstamp 872f1cc1-2fd5-4d0c-aba8-f29fabc36e61))
  (fp_line (start -2.61 -6.81) (end 7.61 -6.81) (layer "F.SilkS") (width 0.12) (tstamp 87c94c9b-3ea7-4901-8204-191b61caa571))
  (fp_line (start 5 -1.59) (end 4.68 -1.59) (layer "F.SilkS") (width 0.12) (tstamp 89633c71-010a-480a-a1b8-a2b12d4dc103))
  (fp_line (start 2.5 -5.09) (end 2.82 -5.01) (layer "F.SilkS") (width 0.12) (tstamp 8c47fde8-3c90-46d8-bea9-27980019e677))
  (fp_line (start 2.18 -5.01) (end 2.5 -5.09) (layer "F.SilkS") (width 0.12) (tstamp 9360eec4-4d42-41ec-a3c3-f5648c62dcff))
  (fp_line (start 0.32 -1.59) (end 0 -1.59) (layer "F.SilkS") (width 0.12) (tstamp 94a2ba35-f76f-4a13-bd9e-d9c7e9944972))
  (fp_line (start 7.61 -5.59) (end 6.39 -5.59) (layer "F.SilkS") (width 0.12) (tstamp b01f1bd9-8365-4b62-b28f-14be137e9dda))
  (fp_line (start -0.32 -1.59) (end -0.32 -5.01) (layer "F.SilkS") (width 0.12) (tstamp b1e2d928-058f-4159-8e71-9b7a98c1c258))
  (fp_line (start 2.82 -5.01) (end 2.82 -1.59) (layer "F.SilkS") (width 0.12) (tstamp b536e35a-dbd0-4c1a-b05d-33169b1a4811))
  (fp_line (start 7.61 -6.81) (end 7.61 1.61) (layer "F.SilkS") (width 0.12) (tstamp b6f4dc32-3c97-41e6-ab14-37c398f0f1a9))
  (fp_line (start 5.32 -5.01) (end 5.32 -1.59) (layer "F.SilkS") (width 0.12) (tstamp bc1ff399-cc8c-4aeb-b8a4-616bbc34eb50))
  (fp_line (start 6.39 1.61) (end 6.39 -0.59) (layer "F.SilkS") (width 0.12) (tstamp be26e418-5335-4494-b372-71bd86a7ab11))
  (fp_line (start -0.32 -5.01) (end 0 -5.09) (layer "F.SilkS") (width 0.12) (tstamp be385868-dd79-4cd0-92be-8a4f244d5cf1))
  (fp_line (start 0 -1.59) (end -0.32 -1.59) (layer "F.SilkS") (width 0.12) (tstamp c1915737-f7d0-4a94-b512-5591d366d834))
  (fp_line (start 2.82 -1.59) (end 2.5 -1.59) (layer "F.SilkS") (width 0.12) (tstamp cd8fa7b3-a931-4f10-b28b-4543a66f67e9))
  (fp_line (start 5 -5.09) (end 5.32 -5.01) (layer "F.SilkS") (width 0.12) (tstamp d913e0c2-301a-4b07-9cd9-07b12b75ab7d))
  (fp_line (start 6.39 -5.59) (end 6.39 -0.59) (layer "F.SilkS") (width 0.12) (tstamp e0b851fe-7384-4bd0-a43a-89cea9bd0a8a))
  (fp_line (start -2.61 1.61) (end -2.61 -6.81) (layer "F.SilkS") (width 0.12) (tstamp ebdae53f-c979-423d-8d7c-089b4c165b0d))
  (fp_line (start 1.17 -0.59) (end 1.33 -0.59) (layer "F.SilkS") (width 0.12) (tstamp f4e81c38-fb6a-46ca-8455-ead6f12c9ee7))
  (fp_line (start -1.39 -5.59) (end -1.39 -0.59) (layer "F.SilkS") (width 0.12) (tstamp fe97d2e9-4ecb-4634-946a-807056816b0e))
  (fp_line (start 8 2) (end 8 -7.2) (layer "F.CrtYd") (width 0.05) (tstamp 09f87509-279a-4186-a45e-e0d11d64929c))
  (fp_line (start -3 -7.2) (end -3 2) (layer "F.CrtYd") (width 0.05) (tstamp 3d624e20-088b-4a9d-92af-72dafbf064db))
  (fp_line (start -3 2) (end 8 2) (layer "F.CrtYd") (width 0.05) (tstamp 56e30b9a-a5b7-410a-9fce-87f246f59750))
  (fp_line (start 8 -7.2) (end -3 -7.2) (layer "F.CrtYd") (width 0.05) (tstamp df591d67-4822-464f-b42e-45127390f322))
  (fp_line (start -0.5 -0.7) (end 0 -1.407107) (layer "F.Fab") (width 0.1) (tstamp 23d4ccc3-09b4-4f73-826b-bcfc959a3fd9))
  (fp_line (start 6.5 1.5) (end 6.5 -0.7) (layer "F.Fab") (width 0.1) (tstamp 4f818bba-7c28-4a87-bcef-364e405aa8fd))
  (fp_line (start -1.5 1.5) (end -2.5 1.5) (layer "F.Fab") (width 0.1) (tstamp 538841e4-dc59-4075-aad2-bd68328db3f9))
  (fp_line (start -1.5 -0.7) (end -1.5 1.5) (layer "F.Fab") (width 0.1) (tstamp 563e1c76-a704-46d7-b210-7fd63b4a4d33))
  (fp_line (start 7.5 -6.7) (end 7.5 1.5) (layer "F.Fab") (width 0.1) (tstamp 87d8e9ea-630c-4c98-bffd-2ff5da80cb00))
  (fp_line (start 6.5 -0.7) (end -1.5 -0.7) (layer "F.Fab") (width 0.1) (tstamp af3139f5-00bc-42c0-b5d0-0ea3115565cf))
  (fp_line (start 7.5 1.5) (end 6.5 1.5) (layer "F.Fab") (width 0.1) (tstamp dba27c68-070d-4d9a-a24a-37ed326754b0))
  (fp_line (start 0 -1.407107) (end 0.5 -0.7) (layer "F.Fab") (width 0.1) (tstamp dc7b764e-5116-45ff-bbbd-b721dc0d47ce))
  (fp_line (start -2.5 -6.7) (end 7.5 -6.7) (layer "F.Fab") (width 0.1) (tstamp f6003a4f-9efe-459d-b097-d2b7be98e1c3))
  (fp_line (start -2.5 1.5) (end -2.5 -6.7) (layer "F.Fab") (width 0.1) (tstamp f9428330-9edb-4a6e-bb9c-daac6a7e4651))
  (pad "1" thru_hole roundrect (at 0 0) (size 1.7 1.7) (drill 0.95) (layers *.Cu *.Mask) (roundrect_rratio 0.25) (tstamp 7cefc08d-d2d0-46b8-be71-a73a207e779b))
  (pad "2" thru_hole circle (at 2.5 0) (size 1.7 1.7) (drill 0.95) (layers *.Cu *.Mask) (tstamp 28e3fa10-b558-45e6-990c-a82ec801b2b4))
  (pad "3" thru_hole circle (at 5 0) (size 1.7 1.7) (drill 0.95) (layers *.Cu *.Mask) (tstamp 2eaa63de-4fb3-48b0-8b1c-a6de084c440a))
  (model "${KISYS3DMOD}/Connector_JST.3dshapes/JST_EH_S3B-EH_1x03_P2.50mm_Horizontal.wrl"
    (offset (xyz 0 0 0))
    (scale (xyz 1 1 1))
    (rotate (xyz 0 0 0))
  )
)
