(footprint "jumper2ways" (version 20221018) (generator pcbnew)
  (layer "F.Cu")
  (descr "SMD Solder Jumper, 1x1.5mm Triangular Pads, 0.3mm gap, open, labeled with numbers")
  (tags "solder jumper open")
  (property "Sheetfile" "multi_sensor.kicad_sch")
  (property "Sheetname" "")
  (property "ki_description" "Solder Jumper, 3-pole, open")
  (property "ki_keywords" "Solder Jumper SPDT")
  (attr exclude_from_pos_files)
  (fp_text reference "JP2" (at 3.76 0.02 -90) (layer "F.SilkS")
      (effects (font (size 0.5 0.5) (thickness 0.125)))
    (tstamp 886f1a90-80ac-4d40-b1e3-6009ce177079)
  )
  (fp_text value "jp2" (at 0.725 1.925 180) (layer "F.Fab") hide
      (effects (font (size 1 1) (thickness 0.15)))
    (tstamp 92d0024d-cc95-412a-b2db-0cb047b5e203)
  )
  (fp_text user "${VALUE}" (at -2.42 2.37 unlocked) (layer "F.SilkS")
      (effects (font (size 0.75 0.75) (thickness 0.1)) (justify left bottom))
    (tstamp af4c0c04-f4e0-471f-8b9e-158dee94be43)
  )
  (fp_text user "1" (at -4.02 0.52 unlocked) (layer "F.Fab")
      (effects (font (size 1 1) (thickness 0.1)) (justify left bottom))
    (tstamp aaa23865-b3ac-4134-b776-ae21cca201cd)
  )
  (fp_text user "3" (at 2.94 0.5 unlocked) (layer "F.Fab")
      (effects (font (size 1 1) (thickness 0.1)) (justify left bottom))
    (tstamp f405a782-6683-49ce-b310-aaad2eab7a01)
  )
  (fp_line (start -2.75 -1) (end 2.75 -1)
    (stroke (width 0.12) (type solid)) (layer "F.SilkS") (tstamp 7d4cc43f-d609-4326-bc63-dc7a0f9d2fb9))
  (fp_line (start -2.75 0.95) (end -2.75 -1)
    (stroke (width 0.12) (type solid)) (layer "F.SilkS") (tstamp 8447e326-0c20-4e71-b825-99a26b75e7b0))
  (fp_line (start 2.75 -1) (end 2.75 0.95)
    (stroke (width 0.12) (type solid)) (layer "F.SilkS") (tstamp 7b695728-e0c5-4bbf-951b-960da6885c88))
  (fp_line (start 2.75 0.95) (end -2.75 0.95)
    (stroke (width 0.12) (type solid)) (layer "F.SilkS") (tstamp 0da425f0-6661-4a28-9147-ca73ebd5a6c1))
  (fp_line (start -2.98 -1.27) (end -2.98 1.25)
    (stroke (width 0.05) (type solid)) (layer "F.CrtYd") (tstamp a6b07a26-9089-46dc-8466-86609952386a))
  (fp_line (start -2.98 -1.27) (end 3 -1.27)
    (stroke (width 0.05) (type solid)) (layer "F.CrtYd") (tstamp b2731c89-edb2-489c-9fa6-c3b0cf2bb46a))
  (fp_line (start 3 1.25) (end -2.98 1.25)
    (stroke (width 0.05) (type solid)) (layer "F.CrtYd") (tstamp 292723fd-79b9-4d1a-8a44-2d22a88d5ea1))
  (fp_line (start 3 1.25) (end 3 -1.27)
    (stroke (width 0.05) (type solid)) (layer "F.CrtYd") (tstamp 6632246a-f5da-403c-af08-a9f49be938f1))
  (pad "" smd rect (at -1.2 0) (size 1.5 1.5) (layers "F.Mask") (tstamp 65774112-2422-48ae-9ae0-7e8e9b69a3b1))
  (pad "" smd rect (at 1.2 0) (size 1.5 1.5) (layers "F.Mask") (tstamp 9c659cd7-2183-4dbd-939f-358cad7c3967))
  (pad "1" smd custom (at -2 0) (size 0.3 0.3) (layers "F.Cu" "F.Mask")
    (zone_connect 2) (thermal_bridge_angle 45)
    (options (clearance outline) (anchor rect))
    (primitives
      (gr_poly
        (pts
          (xy 1 0)
          (xy 0.5 0.75)
          (xy -0.5 0.75)
          (xy -0.5 -0.75)
          (xy 0.5 -0.75)
        )
        (width 0) (fill yes))
    ) (tstamp a682ec28-bf96-4f44-a990-00fc6053db63))
  (pad "2" smd custom (at 0 0) (size 0.3 0.3) (layers "F.Cu" "F.Mask")
    (zone_connect 2) (thermal_bridge_angle 45)
    (options (clearance outline) (anchor rect))
    (primitives
      (gr_poly
        (pts
          (xy 0.7 0)
          (xy 1.2 0.75)
          (xy -1.2 0.75)
          (xy -0.7 0)
          (xy -1.2 -0.75)
          (xy 1.2 -0.75)
        )
        (width 0) (fill yes))
    ) (tstamp dcf196bf-b1ef-419e-8f12-5f894dd94456))
  (pad "3" smd custom (at 2 0 180) (size 0.3 0.3) (layers "F.Cu" "F.Mask")
    (zone_connect 2) (thermal_bridge_angle 45)
    (options (clearance outline) (anchor rect))
    (primitives
      (gr_poly
        (pts
          (xy 1 0)
          (xy 0.5 0.75)
          (xy -0.5 0.75)
          (xy -0.5 -0.75)
          (xy 0.5 -0.75)
        )
        (width 0) (fill yes))
    ) (tstamp 5dd4ea04-3f9f-454e-95d2-744fe9de7b02))
)
