(footprint "LED_D3.0mm_rse" (version 20211014) (generator pcbnew)
  (layer "F.Cu")
  (tedit 61D8D206)
  (descr "IR-LED, diameter 3.0mm, 2 pins, color: clear")
  (tags "IR infrared LED diameter 3.0mm 2 pins clear")
  (property "Sheetfile" "m65.kicad_sch")
  (property "Sheetname" "")
  (attr through_hole)
  (fp_text reference "D*" (at 1.27 -2.96) (layer "F.SilkS")
    (effects (font (size 1 1) (thickness 0.15)))
    (tstamp ca3f6c53-e2b5-4153-b164-3fcbb876eac6)
  )
  (fp_text value "LED" (at 1.27 2.96) (layer "F.Fab")
    (effects (font (size 1 1) (thickness 0.15)))
    (tstamp 0ba81eb1-6d57-4373-98c2-826cc1f4a67b)
  )
  (fp_text user "${REFERENCE}" (at -0.225 -2.925) (layer "B.SilkS")
    (effects (font (size 1 1) (thickness 0.15)) (justify mirror))
    (tstamp d50593b8-d9a2-4b48-8ec7-abb116320fba)
  )
  (fp_text user "${REFERENCE}" (at 1.47 0) (layer "F.Fab")
    (effects (font (size 0.8 0.8) (thickness 0.12)))
    (tstamp 203e7b00-24e4-4b17-9b24-ed80e1ab0ee4)
  )
  (fp_line (start -0.29 1.08) (end -0.29 1.236) (layer "F.SilkS") (width 0.12) (tstamp 30e26165-a55d-4ef5-b0b1-ededb1c1ef59))
  (fp_line (start -0.29 -1.236) (end -0.29 -1.08) (layer "F.SilkS") (width 0.12) (tstamp 4e987240-5dfe-45c9-a3b9-5d57e80889cd))
  (fp_arc (start 2.31113 1.079837) (mid 1.270117 1.5) (end 0.229039 1.08) (layer "F.SilkS") (width 0.12) (tstamp 25c27ffc-3b54-41c3-be86-a55fa3fd8195))
  (fp_arc (start 2.942335 1.078608) (mid 1.366487 1.987659) (end -0.29 1.235516) (layer "F.SilkS") (width 0.12) (tstamp 3c37c519-b9ff-40de-951d-541f012efbe7))
  (fp_arc (start 0.229039 -1.08) (mid 1.270117 -1.5) (end 2.31113 -1.079837) (layer "F.SilkS") (width 0.12) (tstamp a8dc8588-47f1-44ae-aaa8-c5dc23a950cc))
  (fp_arc (start -0.29 -1.235516) (mid 1.366487 -1.987659) (end 2.942335 -1.078608) (layer "F.SilkS") (width 0.12) (tstamp e6efbdf3-51c8-4cf4-86ee-f081c3da0fc3))
  (fp_line (start -1.15 -2.25) (end -1.15 2.25) (layer "F.CrtYd") (width 0.05) (tstamp 2a32db63-6568-4eea-99df-577289ac6af5))
  (fp_line (start 3.7 2.25) (end 3.7 -2.25) (layer "F.CrtYd") (width 0.05) (tstamp 5daf4ecb-af4b-40d6-85f0-fe5203a65bc3))
  (fp_line (start -1.15 2.25) (end 3.7 2.25) (layer "F.CrtYd") (width 0.05) (tstamp bd40963b-0e4c-421a-ade0-205b4ed4d57e))
  (fp_line (start 3.7 -2.25) (end -1.15 -2.25) (layer "F.CrtYd") (width 0.05) (tstamp e05318a9-5e8c-4e53-aba1-9a630dd2885b))
  (fp_line (start -0.23 -1.16619) (end -0.23 1.16619) (layer "F.Fab") (width 0.1) (tstamp f1ea0a50-be66-4efb-a9a6-1da01b9f8625))
  (fp_arc (start -0.23 -1.16619) (mid 3.17 0.000452) (end -0.230555 1.165476) (layer "F.Fab") (width 0.1) (tstamp 0919c1c7-9fdb-45e5-9538-654fe1620aab))
  (fp_circle (center 1.27 0) (end 2.77 0) (layer "F.Fab") (width 0.1) (fill none) (tstamp de47a638-08ca-4b04-8c4b-6f7a467d0fea))
  (pad "1" thru_hole rect (at 0 0) (size 1.8 1.8) (drill 0.9) (layers *.Cu *.Mask) (tstamp ac53e438-b230-45ae-bced-4c65a6142f2a))
  (pad "2" thru_hole circle (at 2.54 0) (size 1.8 1.8) (drill 0.9) (layers *.Cu *.Mask) (tstamp f3540d71-617b-4bb4-ab14-e7c695aa5797))
  (model "${KICAD6_3DMODEL_DIR}/LED_THT.3dshapes/LED_D3.0mm.step"
    (offset (xyz 0 0 -3))
    (scale (xyz 1 1 1))
    (rotate (xyz 0 0 0))
  )
)
