(footprint "LegoHole_12x12u_4875" (version 20211014) (generator pcbnew)
  (layer "F.Cu")
  (tedit 61D86E9B)
  (descr "Mounting Hole 4.9mm, no annular")
  (tags "mounting hole 4.9mm, no annular")
  (property "Sheetfile" "m2x2-rev2.kicad_sch")
  (property "Sheetname" "")
  (attr exclude_from_pos_files)
  (fp_text reference "H1" (at 2.794 3.048) (layer "F.SilkS") hide
    (effects (font (size 1 1) (thickness 0.15)))
    (tstamp 0aae6e9c-cb97-4987-a70b-b5092e33137d)
  )
  (fp_text value "Lego" (at -5.08 2.54 90) (layer "F.Fab") hide
    (effects (font (size 1 1) (thickness 0.15)))
    (tstamp 97f4c906-6099-45db-93d0-2a695338ba85)
  )
  (fp_text user "${REFERENCE}" (at 88.3 56) (layer "F.Fab")
    (effects (font (size 1 1) (thickness 0.15)))
    (tstamp 035faf13-05b1-4660-b491-dcea3801c254)
  )
  (fp_text user "${REFERENCE}" (at 72 -0.3 90) (layer "F.Fab")
    (effects (font (size 1 1) (thickness 0.15)))
    (tstamp 08c1f978-9b6d-4a1d-8555-21bedc721350)
  )
  (fp_text user "${REFERENCE}" (at -0.3 72 180) (layer "F.Fab")
    (effects (font (size 1 1) (thickness 0.15)))
    (tstamp 0f790568-09e0-4e2c-b90f-042314494700)
  )
  (fp_text user "${REFERENCE}" (at 0 -0.3 90) (layer "F.Fab")
    (effects (font (size 1 1) (thickness 0.15)))
    (tstamp 0f9119a2-041c-4c69-b06d-359836acfabe)
  )
  (fp_text user "${REFERENCE}" (at 64 88.3 270) (layer "F.Fab")
    (effects (font (size 1 1) (thickness 0.15)))
    (tstamp 129d2414-ae65-4331-8625-a57e5912717a)
  )
  (fp_text user "${REFERENCE}" (at 72 88.3 270) (layer "F.Fab")
    (effects (font (size 1 1) (thickness 0.15)))
    (tstamp 1783434a-9387-40e6-9476-78d3ed5b1f3d)
  )
  (fp_text user "${REFERENCE}" (at 80 88.3 270) (layer "F.Fab")
    (effects (font (size 1 1) (thickness 0.15)))
    (tstamp 192fd2dc-5c26-4550-8f8b-59a12ce651c5)
  )
  (fp_text user "${REFERENCE}" (at 88.3 72) (layer "F.Fab")
    (effects (font (size 1 1) (thickness 0.15)))
    (tstamp 195fb167-f486-4215-856c-4903f5b4e08d)
  )
  (fp_text user "${REFERENCE}" (at 32 -0.3 90) (layer "F.Fab")
    (effects (font (size 1 1) (thickness 0.15)))
    (tstamp 1d66f8f0-76fa-47e8-bb32-10dfc5274975)
  )
  (fp_text user "${REFERENCE}" (at 88.3 8) (layer "F.Fab")
    (effects (font (size 1 1) (thickness 0.15)))
    (tstamp 21f8d0cb-573b-42a4-8f20-7c468f1687e4)
  )
  (fp_text user "${REFERENCE}" (at 16 88.3 270) (layer "F.Fab")
    (effects (font (size 1 1) (thickness 0.15)))
    (tstamp 31e0865c-3714-4d22-948e-ea7d83fe7788)
  )
  (fp_text user "${REFERENCE}" (at 88.3 48) (layer "F.Fab")
    (effects (font (size 1 1) (thickness 0.15)))
    (tstamp 38b2399b-550d-4d67-be38-7378e8d08ea0)
  )
  (fp_text user "${REFERENCE}" (at 80 -0.3 90) (layer "F.Fab")
    (effects (font (size 1 1) (thickness 0.15)))
    (tstamp 39bb6a59-585d-43f1-9241-7085138a5507)
  )
  (fp_text user "${REFERENCE}" (at 16 -0.3 90) (layer "F.Fab")
    (effects (font (size 1 1) (thickness 0.15)))
    (tstamp 47813e31-f5ef-4671-854b-29adf0686c66)
  )
  (fp_text user "${REFERENCE}" (at 40 -0.3 90) (layer "F.Fab")
    (effects (font (size 1 1) (thickness 0.15)))
    (tstamp 4a8b8fae-2b06-4c99-8f15-e2ae5a468efb)
  )
  (fp_text user "${REFERENCE}" (at -0.3 56 180) (layer "F.Fab")
    (effects (font (size 1 1) (thickness 0.15)))
    (tstamp 51e37797-ee80-4ca4-824f-ed91e94e9dd9)
  )
  (fp_text user "${REFERENCE}" (at 88.3 0) (layer "F.Fab")
    (effects (font (size 1 1) (thickness 0.15)))
    (tstamp 5867e5e2-e2cf-46bb-b317-3b3bc37c5e42)
  )
  (fp_text user "${REFERENCE}" (at 24 88.3 270) (layer "F.Fab")
    (effects (font (size 1 1) (thickness 0.15)))
    (tstamp 71b0c136-940f-45b4-898f-e0d09ab6cd27)
  )
  (fp_text user "${REFERENCE}" (at -0.3 48 180) (layer "F.Fab")
    (effects (font (size 1 1) (thickness 0.15)))
    (tstamp 72d8408b-7e0c-4117-bf2a-552569f2e116)
  )
  (fp_text user "${REFERENCE}" (at -0.3 24 180) (layer "F.Fab")
    (effects (font (size 1 1) (thickness 0.15)))
    (tstamp 77e33e7c-0bc7-4472-92eb-1a6de1e43b0c)
  )
  (fp_text user "${REFERENCE}" (at -0.3 16 180) (layer "F.Fab")
    (effects (font (size 1 1) (thickness 0.15)))
    (tstamp 7eb7db33-93d0-4af1-863b-d75066726b5c)
  )
  (fp_text user "${REFERENCE}" (at 88.3 24) (layer "F.Fab")
    (effects (font (size 1 1) (thickness 0.15)))
    (tstamp 819f281a-b1dd-48b0-b48f-10021e849c5a)
  )
  (fp_text user "${REFERENCE}" (at 88.3 16) (layer "F.Fab")
    (effects (font (size 1 1) (thickness 0.15)))
    (tstamp 8740997a-b3f3-4470-94e0-7228cd9ae1b3)
  )
  (fp_text user "${REFERENCE}" (at 8 -0.3 90) (layer "F.Fab")
    (effects (font (size 1 1) (thickness 0.15)))
    (tstamp 8935e765-9f43-4a7c-8719-7b91b060d4c6)
  )
  (fp_text user "${REFERENCE}" (at -0.3 40 180) (layer "F.Fab")
    (effects (font (size 1 1) (thickness 0.15)))
    (tstamp 8d2dad98-14b6-4878-888c-f5e354dc41ae)
  )
  (fp_text user "${REFERENCE}" (at 48 -0.3 90) (layer "F.Fab")
    (effects (font (size 1 1) (thickness 0.15)))
    (tstamp 8f952e2a-c435-4830-bbf9-0975730d38d0)
  )
  (fp_text user "${REFERENCE}" (at 40 88.3 270) (layer "F.Fab")
    (effects (font (size 1 1) (thickness 0.15)))
    (tstamp 9bf5b100-4710-407d-8f08-f039a38d6e8d)
  )
  (fp_text user "${REFERENCE}" (at 88.3 64) (layer "F.Fab")
    (effects (font (size 1 1) (thickness 0.15)))
    (tstamp a0736cdd-1493-457d-903d-e85f1e43ab00)
  )
  (fp_text user "${REFERENCE}" (at 88.3 80) (layer "F.Fab")
    (effects (font (size 1 1) (thickness 0.15)))
    (tstamp a58774cc-488e-4455-89e3-543f3bd39f24)
  )
  (fp_text user "${REFERENCE}" (at -0.3 32 180) (layer "F.Fab")
    (effects (font (size 1 1) (thickness 0.15)))
    (tstamp a7ec725d-ba62-4812-9e0f-315d5d3c2c0f)
  )
  (fp_text user "${REFERENCE}" (at 88 88.3 270) (layer "F.Fab")
    (effects (font (size 1 1) (thickness 0.15)))
    (tstamp ac74e932-067e-4793-aefa-f9cdde6f0080)
  )
  (fp_text user "${REFERENCE}" (at 24 -0.3 90) (layer "F.Fab")
    (effects (font (size 1 1) (thickness 0.15)))
    (tstamp ade3122b-8a71-481b-bf73-3dd8e9ca377c)
  )
  (fp_text user "${REFERENCE}" (at 88.3 40) (layer "F.Fab")
    (effects (font (size 1 1) (thickness 0.15)))
    (tstamp aee332dd-3354-43f1-90d9-d9a1cbff2155)
  )
  (fp_text user "${REFERENCE}" (at -0.3 64 180) (layer "F.Fab")
    (effects (font (size 1 1) (thickness 0.15)))
    (tstamp b286cbd8-7667-4469-9df2-a7bd8b285452)
  )
  (fp_text user "${REFERENCE}" (at 88.3 32) (layer "F.Fab")
    (effects (font (size 1 1) (thickness 0.15)))
    (tstamp b9343d3d-ab36-4a06-b4ad-7db197e78d1f)
  )
  (fp_text user "${REFERENCE}" (at -0.3 88 180) (layer "F.Fab")
    (effects (font (size 1 1) (thickness 0.15)))
    (tstamp bf67882c-9822-4927-b851-7c5d24b31569)
  )
  (fp_text user "${REFERENCE}" (at 56 -0.3 90) (layer "F.Fab")
    (effects (font (size 1 1) (thickness 0.15)))
    (tstamp bf8a2f50-19f5-4c58-8917-044f96d73a0f)
  )
  (fp_text user "${REFERENCE}" (at -0.3 8 180) (layer "F.Fab")
    (effects (font (size 1 1) (thickness 0.15)))
    (tstamp cfbb2492-ba25-4336-b54e-d3729a672004)
  )
  (fp_text user "${REFERENCE}" (at 48 88.3 270) (layer "F.Fab")
    (effects (font (size 1 1) (thickness 0.15)))
    (tstamp d25aad59-08ac-40ca-946e-7be05f654407)
  )
  (fp_text user "${REFERENCE}" (at 56 88.3 270) (layer "F.Fab")
    (effects (font (size 1 1) (thickness 0.15)))
    (tstamp dbacb655-3b13-4e50-9012-6c7b23bfa1f1)
  )
  (fp_text user "${REFERENCE}" (at -0.3 80 180) (layer "F.Fab")
    (effects (font (size 1 1) (thickness 0.15)))
    (tstamp dce79caa-fc28-4244-9499-cfb4874f2d63)
  )
  (fp_text user "${REFERENCE}" (at 32 88.3 270) (layer "F.Fab")
    (effects (font (size 1 1) (thickness 0.15)))
    (tstamp dd7a6b11-f84f-4c77-ac1a-26a97837ba75)
  )
  (fp_text user "${REFERENCE}" (at 8 88.3 270) (layer "F.Fab")
    (effects (font (size 1 1) (thickness 0.15)))
    (tstamp e14b714e-4535-4830-833f-9d56d5a6cd01)
  )
  (fp_text user "${REFERENCE}" (at 64 -0.3 90) (layer "F.Fab")
    (effects (font (size 1 1) (thickness 0.15)))
    (tstamp f41165e7-b708-4814-862d-62dc04f5ceb0)
  )
  (fp_line (start 0 91.95) (end 3.95 91.95) (layer "F.SilkS") (width 0.1) (tstamp 0a537770-e783-4a40-b270-6ee5ba2a9f41))
  (fp_line (start 3.95 91.95) (end 3.95 84.05) (layer "F.SilkS") (width 0.1) (tstamp 1d4886dc-d178-4750-a086-33db216c9087))
  (fp_line (start 88 91.95) (end 84.05 91.95) (layer "F.SilkS") (width 0.1) (tstamp 2b94b9b8-2d65-4b8d-9c3f-dfbf9a38959a))
  (fp_line (start 88 -3.95) (end 84.05 -3.95) (layer "F.SilkS") (width 0.1) (tstamp 2c0d462f-b1cd-4770-aacd-d24fb00d767b))
  (fp_line (start -3.95 3.95) (end 3.95 3.95) (layer "F.SilkS") (width 0.1) (tstamp 37c3084d-1b6b-43a6-bcec-d9ea4ad875a6))
  (fp_line (start 3.95 84.05) (end -3.95 84.05) (layer "F.SilkS") (width 0.1) (tstamp 6b501eb8-7598-4df2-9a36-c5f6a6e619f9))
  (fp_line (start 91.95 88) (end 91.95 84.05) (layer "F.SilkS") (width 0.1) (tstamp 7ad356ac-161f-48bf-b7fd-3b100e05cf70))
  (fp_line (start 91.95 0) (end 91.95 3.95) (layer "F.SilkS") (width 0.1) (tstamp 8863ef29-d3b4-410d-8029-5e89291bc452))
  (fp_line (start 84.05 -3.95) (end 84.05 3.95) (layer "F.SilkS") (width 0.1) (tstamp 8d658c47-f5a3-407f-bad1-a5f4d01ca693))
  (fp_line (start 0 -3.95) (end 3.95 -3.95) (layer "F.SilkS") (width 0.1) (tstamp 9c63d707-e6b0-4ac9-adcd-d67593253532))
  (fp_line (start -3.95 88) (end -3.95 84.05) (layer "F.SilkS") (width 0.1) (tstamp a4c66e18-37fb-4ffb-a241-17bd20a24666))
  (fp_line (start 91.95 84.05) (end 84.05 84.05) (layer "F.SilkS") (width 0.1) (tstamp b3051b3f-6c44-4bce-9a55-87431a1b6818))
  (fp_line (start -3.95 0) (end -3.95 3.95) (layer "F.SilkS") (width 0.1) (tstamp c5c6f4f9-a0a8-49ab-a698-ddcd63a5214b))
  (fp_line (start 84.05 3.95) (end 91.95 3.95) (layer "F.SilkS") (width 0.1) (tstamp efce7c4d-d1a0-49c4-afd8-6229a2f77e3c))
  (fp_line (start 84.05 84.05) (end 84.05 91.95) (layer "F.SilkS") (width 0.1) (tstamp f26381b9-260c-4731-b3a2-394c28fc8c0d))
  (fp_line (start 3.95 3.95) (end 3.95 -3.95) (layer "F.SilkS") (width 0.1) (tstamp f35d58a2-bbbb-4f13-b97d-f12cf911408f))
  (fp_rect (start 84.05 36.05) (end 91.95 43.95) (layer "F.SilkS") (width 0.1) (fill none) (tstamp 0bf09eae-fb0a-4d11-8a2a-a410df5cf046))
  (fp_rect (start 51.95 84.05) (end 44.05 91.95) (layer "F.SilkS") (width 0.1) (fill none) (tstamp 0ffaef4a-143d-4abb-8530-afa0eec013c4))
  (fp_rect (start 84.05 28.05) (end 91.95 35.95) (layer "F.SilkS") (width 0.1) (fill none) (tstamp 108e8301-fce0-4f64-891e-3adb7d4793e1))
  (fp_rect (start 84.05 76.05) (end 91.95 83.95) (layer "F.SilkS") (width 0.1) (fill none) (tstamp 237bef14-aacb-463d-bc23-e0fca7a8c05b))
  (fp_rect (start 28.05 3.95) (end 35.95 -3.95) (layer "F.SilkS") (width 0.1) (fill none) (tstamp 285c2df1-fad8-4408-b380-497d5a86efbe))
  (fp_rect (start 12.05 3.95) (end 19.95 -3.95) (layer "F.SilkS") (width 0.1) (fill none) (tstamp 35bf46c5-128b-4235-8fa1-6977b27516fa))
  (fp_rect (start 3.95 35.95) (end -3.95 28.05) (layer "F.SilkS") (width 0.1) (fill none) (tstamp 37976705-4c66-437c-94cc-fc9a739ded9b))
  (fp_rect (start 11.95 84.05) (end 4.05 91.95) (layer "F.SilkS") (width 0.1) (fill none) (tstamp 37d0c91e-2f15-4fcf-8b23-bcb72fa55130))
  (fp_rect (start 3.95 83.95) (end -3.95 76.05) (layer "F.SilkS") (width 0.1) (fill none) (tstamp 41032838-63da-4d91-8ac5-833018bd34a0))
  (fp_rect (start 59.95 84.05) (end 52.05 91.95) (layer "F.SilkS") (width 0.1) (fill none) (tstamp 425e93e5-2cbe-4b71-8127-ef3a1a189850))
  (fp_rect (start 19.95 84.05) (end 12.05 91.95) (layer "F.SilkS") (width 0.1) (fill none) (tstamp 490ba55d-b652-4359-8029-620d12b7940c))
  (fp_rect (start 68.05 3.95) (end 75.95 -3.95) (layer "F.SilkS") (width 0.1) (fill none) (tstamp 4ff9b5ac-712f-480a-8536-839a79e83b8e))
  (fp_rect (start 44.05 3.95) (end 51.95 -3.95) (layer "F.SilkS") (width 0.1) (fill none) (tstamp 50e499a7-a483-4ba2-b6ab-2015723b2bfd))
  (fp_rect (start 84.05 4.05) (end 91.95 11.95) (layer "F.SilkS") (width 0.1) (fill none) (tstamp 5d02ca5c-ef19-4899-b501-3500f25c0307))
  (fp_rect (start 84.05 52.05) (end 91.95 59.95) (layer "F.SilkS") (width 0.1) (fill none) (tstamp 5f7fc48c-7384-409e-b3a9-fe9b3adc8802))
  (fp_rect (start 84.05 60.05) (end 91.95 67.95) (layer "F.SilkS") (width 0.1) (fill none) (tstamp 65107db6-b086-4d9f-8e1f-c270593068bd))
  (fp_rect (start 3.95 19.95) (end -3.95 12.05) (layer "F.SilkS") (width 0.1) (fill none) (tstamp 66dc1efd-118a-47ec-9f73-9841ad44acbc))
  (fp_rect (start 3.95 59.95) (end -3.95 52.05) (layer "F.SilkS") (width 0.1) (fill none) (tstamp 6cd25b77-26e8-45c4-9370-2f238127a75a))
  (fp_rect (start 75.95 84.05) (end 68.05 91.95) (layer "F.SilkS") (width 0.1) (fill none) (tstamp 6d6758c1-816c-4c4a-9d27-c10f36bd5679))
  (fp_rect (start 83.95 84.05) (end 76.05 91.95) (layer "F.SilkS") (width 0.1) (fill none) (tstamp 6e42954d-0e9b-417f-b8c1-f80cc3274705))
  (fp_rect (start 3.95 67.95) (end -3.95 60.05) (layer "F.SilkS") (width 0.1) (fill none) (tstamp 701e7c02-15f1-4955-8362-2d88920f0ef6))
  (fp_rect (start 3.95 51.95) (end -3.95 44.05) (layer "F.SilkS") (width 0.1) (fill none) (tstamp 70b2c403-9b56-4ff8-9218-c282994f1c55))
  (fp_rect (start 35.95 84.05) (end 28.05 91.95) (layer "F.SilkS") (width 0.1) (fill none) (tstamp 7766f8a6-119a-4b49-ae80-41ce108c878c))
  (fp_rect (start 36.05 3.95) (end 43.95 -3.95) (layer "F.SilkS") (width 0.1) (fill none) (tstamp 78df55e0-0dfd-4057-a1fb-8d04cdd27860))
  (fp_rect (start 52.05 3.95) (end 59.95 -3.95) (layer "F.SilkS") (width 0.1) (fill none) (tstamp 798f9ef2-3b25-4ecf-a874-eb8137d59209))
  (fp_rect (start 84.05 68.05) (end 91.95 75.95) (layer "F.SilkS") (width 0.1) (fill none) (tstamp 7a74b48a-ca4e-4380-836a-f5ea59e4215d))
  (fp_rect (start 84.05 12.05) (end 91.95 19.95) (layer "F.SilkS") (width 0.1) (fill none) (tstamp 914f6b30-68b2-4f3c-848d-1b156b65dc69))
  (fp_rect (start 3.95 75.95) (end -3.95 68.05) (layer "F.SilkS") (width 0.1) (fill none) (tstamp 9f4ed365-a537-4174-a028-aa5be185d644))
  (fp_rect (start 27.95 84.05) (end 20.05 91.95) (layer "F.SilkS") (width 0.1) (fill none) (tstamp a29fbdba-c161-4919-9ed5-54ffe87f157c))
  (fp_rect (start 67.95 84.05) (end 60.05 91.95) (layer "F.SilkS") (width 0.1) (fill none) (tstamp ab62a94c-b232-4afa-93a7-3e46bd5d4304))
  (fp_rect (start 3.95 27.95) (end -3.95 20.05) (layer "F.SilkS") (width 0.1) (fill none) (tstamp abeaddd4-74c7-4356-bd71-dd8f79c4916b))
  (fp_rect (start 3.95 11.95) (end -3.95 4.05) (layer "F.SilkS") (width 0.1) (fill none) (tstamp b039a9dd-a414-484a-9117-9dd1d6534f11))
  (fp_rect (start 43.95 84.05) (end 36.05 91.95) (layer "F.SilkS") (width 0.1) (fill none) (tstamp b2de9758-8e7b-4f30-b8b0-07d77338ef5d))
  (fp_rect (start 3.95 43.95) (end -3.95 36.05) (layer "F.SilkS") (width 0.1) (fill none) (tstamp c054fe86-ca89-44d6-9d8b-1bcdba07e898))
  (fp_rect (start 76.05 3.95) (end 83.95 -3.95) (layer "F.SilkS") (width 0.1) (fill none) (tstamp ce3822d7-5eda-4bab-8a7b-fa6af602b68e))
  (fp_rect (start 20.05 3.95) (end 27.95 -3.95) (layer "F.SilkS") (width 0.1) (fill none) (tstamp dbbfe297-dcf5-484e-a794-65f48174909c))
  (fp_rect (start 84.05 44.05) (end 91.95 51.95) (layer "F.SilkS") (width 0.1) (fill none) (tstamp f79adb32-69f3-44e0-941b-abd787e88f3d))
  (fp_rect (start 60.05 3.95) (end 67.95 -3.95) (layer "F.SilkS") (width 0.1) (fill none) (tstamp fb597f7c-3c05-4be3-9d20-9011651d9b69))
  (fp_rect (start 84.05 20.05) (end 91.95 27.95) (layer "F.SilkS") (width 0.1) (fill none) (tstamp fd358013-d72d-452a-a603-b8fabd93eb69))
  (fp_rect (start 4.05 3.95) (end 11.95 -3.95) (layer "F.SilkS") (width 0.1) (fill none) (tstamp fe3a393e-0e0e-49bd-8d49-a4cf8fb97ac2))
  (fp_arc (start 91.95 88) (mid 90.793072 90.793072) (end 88 91.95) (layer "F.SilkS") (width 0.1) (tstamp 35edcfd1-cab4-4c89-916a-cf0d2b5ccb8d))
  (fp_arc (start 0 91.95) (mid -2.793072 90.793072) (end -3.95 88) (layer "F.SilkS") (width 0.1) (tstamp 96b258a9-546d-4105-861a-d9fe4df5cd46))
  (fp_arc (start 88 -3.95) (mid 90.793072 -2.793072) (end 91.95 0) (layer "F.SilkS") (width 0.1) (tstamp aaa82f95-ee0a-480e-9d2a-340f7a964440))
  (fp_arc (start -3.95 0) (mid -2.793072 -2.793072) (end 0 -3.95) (layer "F.SilkS") (width 0.1) (tstamp cad1ff2c-5981-4113-83f8-3a3963a3b373))
  (fp_line (start 91.9 84.1) (end 91.9 88) (layer "F.CrtYd") (width 0.12) (tstamp 1972ea26-f597-4617-a17a-37364ad2adb4))
  (fp_line (start 3.9 91.9) (end 0 91.9) (layer "F.CrtYd") (width 0.12) (tstamp 198f31c5-afa2-4c7b-a0fd-2d9ba928cabd))
  (fp_line (start 84.1 -3.9) (end 0 -3.9) (layer "F.CrtYd") (width 0.12) (tstamp 453ea2ce-7784-4bbd-8590-c318374e5e55))
  (fp_line (start 84.1 3.9) (end 84.1 84.1) (layer "F.CrtYd") (width 0.12) (tstamp 4d76cb5b-1d3c-4bfa-a4c9-44e170968644))
  (fp_line (start 91.9 84.1) (end 91.9 0) (layer "F.CrtYd") (width 0.12) (tstamp 56a9ffc6-d79f-45e9-b913-83d8187be5e1))
  (fp_line (start 3.9 91.9) (end 88 91.9) (layer "F.CrtYd") (width 0.12) (tstamp 697a62cd-123a-48a5-acd7-cef1b90c7539))
  (fp_line (start 84.1 84.1) (end 3.9 84.1) (layer "F.CrtYd") (width 0.12) (tstamp 78ca2f29-eab8-4799-8b9d-d760b4fdedc4))
  (fp_line (start 84.1 -3.9) (end 88 -3.9) (layer "F.CrtYd") (width 0.12) (tstamp 8a52e5c8-ee9b-4bd4-85c2-010a63f24ec2))
  (fp_line (start -3.9 3.9) (end -3.9 0) (layer "F.CrtYd") (width 0.12) (tstamp 9a5d995c-b943-425a-8d4b-318d0daa2988))
  (fp_line (start -3.9 3.9) (end -3.9 88) (layer "F.CrtYd") (width 0.12) (tstamp c407b035-3f48-443d-9d7b-06f0805112db))
  (fp_line (start 3.9 3.9) (end 84.1 3.9) (layer "F.CrtYd") (width 0.12) (tstamp fe65b0ae-a8b1-43a2-acef-c482942e7aca))
  (fp_line (start 3.9 84.1) (end 3.9 3.9) (layer "F.CrtYd") (width 0.12) (tstamp febfac8a-a3ec-45c8-852d-cc8e6cf7647c))
  (fp_arc (start 0 91.9) (mid -2.757716 90.757716) (end -3.9 88) (layer "F.CrtYd") (width 0.12) (tstamp 19733a94-b233-4a8f-9d5e-2d1ebacc6962))
  (fp_arc (start 91.9 88) (mid 90.757716 90.757716) (end 88 91.9) (layer "F.CrtYd") (width 0.12) (tstamp 211911ec-82ba-4f2e-8d61-1f782c7e7db9))
  (fp_arc (start -3.9 0) (mid -2.757716 -2.757716) (end 0 -3.9) (layer "F.CrtYd") (width 0.12) (tstamp 942a41db-a4ac-492a-80cc-3fbf6c782f0c))
  (fp_arc (start 88 -3.9) (mid 90.757716 -2.757716) (end 91.9 0) (layer "F.CrtYd") (width 0.12) (tstamp e93487a1-9a5f-43e7-816d-c306b7083287))
  (pad "" np_thru_hole circle (at 88 40) (size 4.875 4.875) (drill 4.875) (layers F&B.Cu *.Mask) (tstamp 04e0c19c-87a2-497e-a20b-f8a1a2a7af28))
  (pad "" np_thru_hole circle (at 72 0 90) (size 4.875 4.875) (drill 4.875) (layers F&B.Cu *.Mask) (tstamp 064937c9-89b3-4a35-abde-a76204749e2f))
  (pad "" np_thru_hole circle (at 56 88 270) (size 4.875 4.875) (drill 4.875) (layers F&B.Cu *.Mask) (tstamp 0695cf6b-b5a1-407e-8e27-956dbed42e65))
  (pad "" np_thru_hole circle (at 16 0 90) (size 4.875 4.875) (drill 4.875) (layers F&B.Cu *.Mask) (tstamp 0aa2a7f2-fdc2-4768-a972-8e33325b7d3f))
  (pad "" np_thru_hole circle (at 88 0) (size 4.875 4.875) (drill 4.875) (layers F&B.Cu *.Mask) (tstamp 0f2bd996-0225-4942-be9f-1a8a504491a7))
  (pad "" np_thru_hole circle (at 88 24) (size 4.875 4.875) (drill 4.875) (layers F&B.Cu *.Mask) (tstamp 1370617f-43ff-4ff4-ad69-98d1f9219eb2))
  (pad "" np_thru_hole circle (at 0 56 180) (size 4.875 4.875) (drill 4.875) (layers F&B.Cu *.Mask) (tstamp 1c65281d-10cd-4139-bad2-5c3c9366a560))
  (pad "" np_thru_hole circle (at 32 88 270) (size 4.875 4.875) (drill 4.875) (layers F&B.Cu *.Mask) (tstamp 1d364618-7f01-42cd-8a6e-7c42316e8b0b))
  (pad "" np_thru_hole circle (at 8 88 270) (size 4.875 4.875) (drill 4.875) (layers F&B.Cu *.Mask) (tstamp 2662011c-e31e-4f39-8ce4-21e4fe5f0d60))
  (pad "" np_thru_hole circle (at 0 0 90) (size 5.875 5.875) (drill 4.875) (layers F&B.Cu *.Mask) (tstamp 27a50011-3384-4b5a-841f-d6860a52bf73))
  (pad "" np_thru_hole circle (at 48 88 270) (size 4.875 4.875) (drill 4.875) (layers F&B.Cu *.Mask) (tstamp 329a435e-4ffe-49be-8ee1-61c1b37d8433))
  (pad "" np_thru_hole circle (at 0 16 180) (size 4.875 4.875) (drill 4.875) (layers F&B.Cu *.Mask) (tstamp 32c8bdb2-1986-4d2a-90a2-a44768e5ab7c))
  (pad "" np_thru_hole circle (at 88 32) (size 4.875 4.875) (drill 4.875) (layers F&B.Cu *.Mask) (tstamp 3a9d9788-65ab-4f1c-a42a-90ae091c19f0))
  (pad "" np_thru_hole circle (at 88 48) (size 4.875 4.875) (drill 4.875) (layers F&B.Cu *.Mask) (tstamp 3d3d59ee-5091-47a0-90d2-fba1c7986430))
  (pad "" np_thru_hole circle (at 88 8) (size 4.875 4.875) (drill 4.875) (layers F&B.Cu *.Mask) (tstamp 3f87e967-1094-4909-ac28-ded02497c023))
  (pad "" np_thru_hole circle (at 64 88 270) (size 4.875 4.875) (drill 4.875) (layers F&B.Cu *.Mask) (tstamp 4738687c-3d76-454d-8259-ac33d8eb56be))
  (pad "" np_thru_hole circle (at 72 88 270) (size 4.875 4.875) (drill 4.875) (layers F&B.Cu *.Mask) (tstamp 4c4628c2-8bfc-4057-bc09-0cd8da105a6d))
  (pad "" np_thru_hole circle (at 88 72) (size 4.875 4.875) (drill 4.875) (layers F&B.Cu *.Mask) (tstamp 4f0949ef-4427-470b-bc90-b20faf1e08a7))
  (pad "" np_thru_hole circle (at 0 8 180) (size 4.875 4.875) (drill 4.875) (layers F&B.Cu *.Mask) (tstamp 53d0957e-1f67-41ad-9371-06ebc294a1c2))
  (pad "" np_thru_hole circle (at 88 16) (size 4.875 4.875) (drill 4.875) (layers F&B.Cu *.Mask) (tstamp 5ff4240b-385e-4dc6-af97-a1ae2f36d6e9))
  (pad "" np_thru_hole circle (at 0 64 180) (size 4.875 4.875) (drill 4.875) (layers F&B.Cu *.Mask) (tstamp 6125a570-6eb6-4c20-8f8f-75a2c95fcf2e))
  (pad "" np_thru_hole circle (at 64 0 90) (size 4.875 4.875) (drill 4.875) (layers F&B.Cu *.Mask) (tstamp 66dc18a5-17db-46b9-8f6c-00be7e77912c))
  (pad "" np_thru_hole circle (at 0 40 180) (size 4.875 4.875) (drill 4.875) (layers F&B.Cu *.Mask) (tstamp 6ed8ba2c-9ae1-4ed8-8535-73352fd0229d))
  (pad "" np_thru_hole circle (at 16 88 270) (size 4.875 4.875) (drill 4.875) (layers F&B.Cu *.Mask) (tstamp 72f6ed07-ed79-433a-926d-88eecf106c87))
  (pad "" np_thru_hole circle (at 48 0 90) (size 4.875 4.875) (drill 4.875) (layers F&B.Cu *.Mask) (tstamp 737322b4-b535-4648-8d8e-a908ddc2760b))
  (pad "" np_thru_hole circle (at 24 0 90) (size 4.875 4.875) (drill 4.875) (layers F&B.Cu *.Mask) (tstamp 75d01879-2883-4b01-9db7-36b9a18cec12))
  (pad "" np_thru_hole circle (at 24 88 270) (size 4.875 4.875) (drill 4.875) (layers F&B.Cu *.Mask) (tstamp 7cafb8bb-6185-49ac-934a-c83532baec06))
  (pad "" np_thru_hole circle (at 32 0 90) (size 4.875 4.875) (drill 4.875) (layers F&B.Cu *.Mask) (tstamp 7dd8439a-dac8-44e0-89c1-5b7a4bf4610a))
  (pad "" np_thru_hole circle (at 8 0 90) (size 4.875 4.875) (drill 4.875) (layers F&B.Cu *.Mask) (tstamp 7e97c932-68e6-4638-bb82-70d58491afe7))
  (pad "" np_thru_hole circle (at 0 88 180) (size 4.875 4.875) (drill 4.875) (layers F&B.Cu *.Mask) (tstamp 842bdc7b-f9e3-461b-a481-2e94b609f501))
  (pad "" np_thru_hole circle (at 56 0 90) (size 4.875 4.875) (drill 4.875) (layers F&B.Cu *.Mask) (tstamp 8c6620ce-cdff-45d5-b3c3-bba95dde7487))
  (pad "" np_thru_hole circle (at 0 48 180) (size 4.875 4.875) (drill 4.875) (layers F&B.Cu *.Mask) (tstamp 94f53dce-8901-452b-9961-a5c5f3c0f023))
  (pad "" np_thru_hole circle (at 88 56) (size 4.875 4.875) (drill 4.875) (layers F&B.Cu *.Mask) (tstamp a012a2ed-933c-4c5c-b002-17bb7a2879c4))
  (pad "" np_thru_hole circle (at 40 0 90) (size 4.875 4.875) (drill 4.875) (layers F&B.Cu *.Mask) (tstamp a08926b0-6a2a-43c2-9325-94bdf42b6749))
  (pad "" np_thru_hole circle (at 0 80 180) (size 4.875 4.875) (drill 4.875) (layers F&B.Cu *.Mask) (tstamp aee8906d-71d8-44e5-ad75-4790612a7c24))
  (pad "" np_thru_hole circle (at 88 80) (size 4.875 4.875) (drill 4.875) (layers F&B.Cu *.Mask) (tstamp b368a69e-54ee-4441-bb18-33535f6f558e))
  (pad "" np_thru_hole circle (at 40 88 270) (size 4.875 4.875) (drill 4.875) (layers F&B.Cu *.Mask) (tstamp bc0a115a-03ce-49c6-aaf8-ae4e775dfe9b))
  (pad "" np_thru_hole circle (at 0 24 180) (size 4.875 4.875) (drill 4.875) (layers F&B.Cu *.Mask) (tstamp be2d7ed5-207f-4229-a63b-69d1758f63c6))
  (pad "" np_thru_hole circle (at 88 88 270) (size 4.875 4.875) (drill 4.875) (layers F&B.Cu *.Mask) (tstamp c6a04ad7-0e8a-482f-baa4-7a13bc53e9b6))
  (pad "" np_thru_hole circle (at 0 32 180) (size 4.875 4.875) (drill 4.875) (layers F&B.Cu *.Mask) (tstamp cd964c44-9a33-4e46-9e63-7513f4261d36))
  (pad "" np_thru_hole circle (at 0 72 180) (size 4.875 4.875) (drill 4.875) (layers F&B.Cu *.Mask) (tstamp d7169a1f-f247-4fed-87a9-df3a9edd740f))
  (pad "" np_thru_hole circle (at 80 0 90) (size 4.875 4.875) (drill 4.875) (layers F&B.Cu *.Mask) (tstamp e71dc27f-c7ed-4567-85e9-6ffe886059f3))
  (pad "" np_thru_hole circle (at 88 64) (size 4.875 4.875) (drill 4.875) (layers F&B.Cu *.Mask) (tstamp ff06af15-8eaf-4198-910e-bc3ed2fb6c07))
  (pad "" np_thru_hole circle (at 80 88 270) (size 4.875 4.875) (drill 4.875) (layers F&B.Cu *.Mask) (tstamp ff8903a1-4161-4cbf-9973-cd0b91792059))
)
