(footprint "LegoHole_16-32u_4875-rev11" (version 20221018) (generator pcbnew)
  (layer "F.Cu")
  (descr "Mounting Hole 4.9mm, no annular")
  (tags "mounting hole 4.9mm, no annular")
  (property "Sheetfile" "m65.kicad_sch")
  (property "Sheetname" "")
  (property "ki_description" "Mounting Hole without connection")
  (property "ki_keywords" "mounting hole")
  (attr exclude_from_pos_files)
  (fp_text reference "H1" (at 2.794 3.048) (layer "F.SilkS") hide
      (effects (font (size 1 1) (thickness 0.15)))
    (tstamp 8ac7c3ca-2802-43e1-ad36-72fdbbddd3c9)
  )
  (fp_text value "MountingHole" (at 2.54 -5.08) (layer "F.Fab") hide
      (effects (font (size 1 1) (thickness 0.15)))
    (tstamp aeea99e6-afa1-46df-b8f0-321ca79a7e89)
  )
  (fp_text user "${REFERENCE}" (at -0.3 24 180) (layer "F.Fab")
      (effects (font (size 1 1) (thickness 0.15)))
    (tstamp 0316a57f-7ac1-4949-bc57-af7fc5a98f2b)
  )
  (fp_text user "${REFERENCE}" (at -0.3 64 180) (layer "F.Fab")
      (effects (font (size 1 1) (thickness 0.15)))
    (tstamp 07d6e83a-975a-48e0-88e9-0b5ca1b0979f)
  )
  (fp_text user "${REFERENCE}" (at 103.7 120 180) (layer "F.Fab")
      (effects (font (size 1 1) (thickness 0.15)))
    (tstamp 08513e46-e5fb-4f1b-add3-de6ee8f1bdd1)
  )
  (fp_text user "${REFERENCE}" (at 248.3 72) (layer "F.Fab")
      (effects (font (size 1 1) (thickness 0.15)))
    (tstamp 0d1e6f0a-83c6-425a-b7da-d3193b1defba)
  )
  (fp_text user "${REFERENCE}" (at 56.3 0) (layer "F.Fab")
      (effects (font (size 1 1) (thickness 0.15)))
    (tstamp 0d7314eb-0851-478e-b888-679d9524cbea)
  )
  (fp_text user "${REFERENCE}" (at 216.3 0) (layer "F.Fab")
      (effects (font (size 1 1) (thickness 0.15)))
    (tstamp 0e31d0bf-44a3-4e43-a700-55e86ad42e88)
  )
  (fp_text user "${REFERENCE}" (at 232.3 0) (layer "F.Fab")
      (effects (font (size 1 1) (thickness 0.15)))
    (tstamp 0f164b63-f188-4643-add1-e1a03c5fdc39)
  )
  (fp_text user "${REFERENCE}" (at 248.3 88) (layer "F.Fab")
      (effects (font (size 1 1) (thickness 0.15)))
    (tstamp 1a2cf147-8122-402b-9955-8cf3db0d71e9)
  )
  (fp_text user "${REFERENCE}" (at 160.3 0) (layer "F.Fab")
      (effects (font (size 1 1) (thickness 0.15)))
    (tstamp 1f5119e5-823f-487e-9f2e-1ce80d69e187)
  )
  (fp_text user "${REFERENCE}" (at 127.7 120 180) (layer "F.Fab")
      (effects (font (size 1 1) (thickness 0.15)))
    (tstamp 1f86d64e-f691-4e06-b41c-80d008691377)
  )
  (fp_text user "${REFERENCE}" (at 191.7 120 180) (layer "F.Fab")
      (effects (font (size 1 1) (thickness 0.15)))
    (tstamp 20f037d6-4224-47b7-b32d-52a54adb0cb9)
  )
  (fp_text user "${REFERENCE}" (at 224.3 0) (layer "F.Fab")
      (effects (font (size 1 1) (thickness 0.15)))
    (tstamp 261a9784-7207-4e49-a886-9e35dea5eb16)
  )
  (fp_text user "${REFERENCE}" (at 248.3 8) (layer "F.Fab")
      (effects (font (size 1 1) (thickness 0.15)))
    (tstamp 26deeb1a-0667-42a6-ade5-f4b6691c76ff)
  )
  (fp_text user "${REFERENCE}" (at 111.7 120 180) (layer "F.Fab")
      (effects (font (size 1 1) (thickness 0.15)))
    (tstamp 2b6f17ed-4ca4-4443-99b0-099602aa4b27)
  )
  (fp_text user "${REFERENCE}" (at 183.7 120 180) (layer "F.Fab")
      (effects (font (size 1 1) (thickness 0.15)))
    (tstamp 30c64686-9e68-4811-a69d-fc43575f3805)
  )
  (fp_text user "${REFERENCE}" (at 47.7 120 180) (layer "F.Fab")
      (effects (font (size 1 1) (thickness 0.15)))
    (tstamp 31a67d67-430f-4045-af2b-461dc4e1b3a9)
  )
  (fp_text user "${REFERENCE}" (at -0.3 120 180) (layer "F.Fab")
      (effects (font (size 1 1) (thickness 0.15)))
    (tstamp 322c66bd-db00-4f01-85d0-865e2ddacbb4)
  )
  (fp_text user "${REFERENCE}" (at 144.3 0) (layer "F.Fab")
      (effects (font (size 1 1) (thickness 0.15)))
    (tstamp 3318cd33-c093-4e07-8405-6175beb7593b)
  )
  (fp_text user "${REFERENCE}" (at 40.3 0) (layer "F.Fab")
      (effects (font (size 1 1) (thickness 0.15)))
    (tstamp 35388b12-4e99-47e5-858f-3011c712f9b3)
  )
  (fp_text user "${REFERENCE}" (at 248.3 40) (layer "F.Fab")
      (effects (font (size 1 1) (thickness 0.15)))
    (tstamp 3d3231aa-2ca8-4d48-9a4f-a995daee9562)
  )
  (fp_text user "${REFERENCE}" (at 248.3 24) (layer "F.Fab")
      (effects (font (size 1 1) (thickness 0.15)))
    (tstamp 40ed6fc6-98ae-4f6f-95ee-8c516b918b82)
  )
  (fp_text user "${REFERENCE}" (at 63.7 120 180) (layer "F.Fab")
      (effects (font (size 1 1) (thickness 0.15)))
    (tstamp 415f7c85-9345-45f7-b5bc-6ef89ca8a23b)
  )
  (fp_text user "${REFERENCE}" (at 248.3 96) (layer "F.Fab")
      (effects (font (size 1 1) (thickness 0.15)))
    (tstamp 42e588d7-e60c-47ed-bc00-c86e3a5ec4bf)
  )
  (fp_text user "${REFERENCE}" (at 128.3 0) (layer "F.Fab")
      (effects (font (size 1 1) (thickness 0.15)))
    (tstamp 474888de-e597-48b4-b67a-b49ee9627b2a)
  )
  (fp_text user "${REFERENCE}" (at 168.3 0) (layer "F.Fab")
      (effects (font (size 1 1) (thickness 0.15)))
    (tstamp 498b9d36-d4b2-4cc4-bcbb-0b7922b98c29)
  )
  (fp_text user "${REFERENCE}" (at 112.3 0) (layer "F.Fab")
      (effects (font (size 1 1) (thickness 0.15)))
    (tstamp 4d409a01-7899-48b0-8e27-69e99f3622b2)
  )
  (fp_text user "${REFERENCE}" (at 64.3 0) (layer "F.Fab")
      (effects (font (size 1 1) (thickness 0.15)))
    (tstamp 4e336d2d-c2e4-4c01-8a18-35d5d4ffd63b)
  )
  (fp_text user "${REFERENCE}" (at -0.3 8 180) (layer "F.Fab")
      (effects (font (size 1 1) (thickness 0.15)))
    (tstamp 4ee259dd-4237-4a4f-b59b-9b87401a5b56)
  )
  (fp_text user "${REFERENCE}" (at 199.7 120 180) (layer "F.Fab")
      (effects (font (size 1 1) (thickness 0.15)))
    (tstamp 4fef6276-fb37-4f9d-88c9-9773158387d4)
  )
  (fp_text user "${REFERENCE}" (at 167.7 120 180) (layer "F.Fab")
      (effects (font (size 1 1) (thickness 0.15)))
    (tstamp 51ba042c-9a28-49fd-8ea1-8ed8cc4282d6)
  )
  (fp_text user "${REFERENCE}" (at 71.7 120 180) (layer "F.Fab")
      (effects (font (size 1 1) (thickness 0.15)))
    (tstamp 549d9db4-b32f-48d6-b182-851ef2fd8342)
  )
  (fp_text user "${REFERENCE}" (at 80.3 0) (layer "F.Fab")
      (effects (font (size 1 1) (thickness 0.15)))
    (tstamp 56f79b5f-3627-455d-89fd-aa9ad0539c2a)
  )
  (fp_text user "${REFERENCE}" (at -0.3 72 180) (layer "F.Fab")
      (effects (font (size 1 1) (thickness 0.15)))
    (tstamp 588e1bbb-5e82-49d4-8919-deddfe41497d)
  )
  (fp_text user "${REFERENCE}" (at 248.3 64) (layer "F.Fab")
      (effects (font (size 1 1) (thickness 0.15)))
    (tstamp 5f3d120b-f0ab-4276-b06d-bf9dbec04a08)
  )
  (fp_text user "${REFERENCE}" (at -0.3 112 180) (layer "F.Fab")
      (effects (font (size 1 1) (thickness 0.15)))
    (tstamp 6734a882-a918-4099-8a28-2a6db9f7c30d)
  )
  (fp_text user "${REFERENCE}" (at 72.3 0) (layer "F.Fab")
      (effects (font (size 1 1) (thickness 0.15)))
    (tstamp 68de3c66-677d-4714-92c1-66774bc28d1d)
  )
  (fp_text user "${REFERENCE}" (at -0.3 88 180) (layer "F.Fab")
      (effects (font (size 1 1) (thickness 0.15)))
    (tstamp 69c4d1b1-b9f8-402e-83e8-78703f79c7fc)
  )
  (fp_text user "${REFERENCE}" (at 24.3 0) (layer "F.Fab")
      (effects (font (size 1 1) (thickness 0.15)))
    (tstamp 6a5d9bae-2b36-45e7-b256-1a20691e35c9)
  )
  (fp_text user "${REFERENCE}" (at 248.3 0) (layer "F.Fab")
      (effects (font (size 1 1) (thickness 0.15)))
    (tstamp 6bce6e58-5a46-4176-8672-159f35e0a272)
  )
  (fp_text user "${REFERENCE}" (at 175.7 120 180) (layer "F.Fab")
      (effects (font (size 1 1) (thickness 0.15)))
    (tstamp 6c38574a-6c7f-496d-8d3e-c4e74f887369)
  )
  (fp_text user "${REFERENCE}" (at -0.3 16 180) (layer "F.Fab")
      (effects (font (size 1 1) (thickness 0.15)))
    (tstamp 6ce25931-cfae-4792-bafc-548799dda6ab)
  )
  (fp_text user "${REFERENCE}" (at 184.3 0) (layer "F.Fab")
      (effects (font (size 1 1) (thickness 0.15)))
    (tstamp 6f6733b5-18bd-4ccf-9d1a-ea5b9666bb64)
  )
  (fp_text user "${REFERENCE}" (at 16.3 0) (layer "F.Fab")
      (effects (font (size 1 1) (thickness 0.15)))
    (tstamp 742d8b70-15c6-4088-b863-1699058616b3)
  )
  (fp_text user "${REFERENCE}" (at 88.3 0) (layer "F.Fab")
      (effects (font (size 1 1) (thickness 0.15)))
    (tstamp 74c223b9-3025-46f3-9115-7dcb18c41adb)
  )
  (fp_text user "${REFERENCE}" (at 208.3 0) (layer "F.Fab")
      (effects (font (size 1 1) (thickness 0.15)))
    (tstamp 7718ca69-60f5-4714-9b28-19ae1425e52e)
  )
  (fp_text user "${REFERENCE}" (at 248.3 104) (layer "F.Fab")
      (effects (font (size 1 1) (thickness 0.15)))
    (tstamp 7757f7c6-f96a-47de-82ca-cc7fdf902fbc)
  )
  (fp_text user "${REFERENCE}" (at 8.3 0) (layer "F.Fab")
      (effects (font (size 1 1) (thickness 0.15)))
    (tstamp 7b9996a4-e26f-4ab9-b7f7-8646b6bac3c1)
  )
  (fp_text user "${REFERENCE}" (at -0.3 32 180) (layer "F.Fab")
      (effects (font (size 1 1) (thickness 0.15)))
    (tstamp 7bb29c41-8bcc-4ff2-a518-3538fe69ec95)
  )
  (fp_text user "${REFERENCE}" (at -0.3 40 180) (layer "F.Fab")
      (effects (font (size 1 1) (thickness 0.15)))
    (tstamp 7d3c891e-e101-4d11-a0aa-8ad9e7c0dc5e)
  )
  (fp_text user "${REFERENCE}" (at 192.3 0) (layer "F.Fab")
      (effects (font (size 1 1) (thickness 0.15)))
    (tstamp 7e9fc0ab-7c22-43a7-9965-e284fa39d406)
  )
  (fp_text user "${REFERENCE}" (at 248.3 112) (layer "F.Fab")
      (effects (font (size 1 1) (thickness 0.15)))
    (tstamp 7fcdeda3-0398-4d02-8615-4f3028a818ba)
  )
  (fp_text user "${REFERENCE}" (at 79.7 120 180) (layer "F.Fab")
      (effects (font (size 1 1) (thickness 0.15)))
    (tstamp 896ab6b7-a809-4c2b-b08f-40e5f9c53043)
  )
  (fp_text user "${REFERENCE}" (at 31.7 120 180) (layer "F.Fab")
      (effects (font (size 1 1) (thickness 0.15)))
    (tstamp 8cfc14c9-7e9b-41ef-ab9b-37a5aef037d6)
  )
  (fp_text user "${REFERENCE}" (at 23.7 120 180) (layer "F.Fab")
      (effects (font (size 1 1) (thickness 0.15)))
    (tstamp 93db6b4b-443c-4384-aaf9-abcdece79980)
  )
  (fp_text user "${REFERENCE}" (at 15.7 120 180) (layer "F.Fab")
      (effects (font (size 1 1) (thickness 0.15)))
    (tstamp 97990a4c-19c9-48c2-a509-c345ff9b3f91)
  )
  (fp_text user "${REFERENCE}" (at 0 -0.3 90) (layer "F.Fab")
      (effects (font (size 1 1) (thickness 0.15)))
    (tstamp 9817545d-b2cd-4df7-a57e-957a06edd328)
  )
  (fp_text user "${REFERENCE}" (at 159.7 120 180) (layer "F.Fab")
      (effects (font (size 1 1) (thickness 0.15)))
    (tstamp 981afd93-ff0d-4a7d-ada7-eba3b98e6e04)
  )
  (fp_text user "${REFERENCE}" (at -0.3 80 180) (layer "F.Fab")
      (effects (font (size 1 1) (thickness 0.15)))
    (tstamp 9a0bb03e-b0cc-4c8a-b162-bdef7efca942)
  )
  (fp_text user "${REFERENCE}" (at 176.3 0) (layer "F.Fab")
      (effects (font (size 1 1) (thickness 0.15)))
    (tstamp 9efb6874-7ab2-4210-b087-81482521b41c)
  )
  (fp_text user "${REFERENCE}" (at 152.3 0) (layer "F.Fab")
      (effects (font (size 1 1) (thickness 0.15)))
    (tstamp 9fffbc1d-17d5-4c93-8eda-1c87c15696d4)
  )
  (fp_text user "${REFERENCE}" (at 215.7 120 180) (layer "F.Fab")
      (effects (font (size 1 1) (thickness 0.15)))
    (tstamp a0e0bfa1-22bf-432b-bc95-d5f04c595521)
  )
  (fp_text user "${REFERENCE}" (at -0.3 104 180) (layer "F.Fab")
      (effects (font (size 1 1) (thickness 0.15)))
    (tstamp a23b437b-ebe0-44b3-8c48-9698a4ae7bf1)
  )
  (fp_text user "${REFERENCE}" (at 248.3 80) (layer "F.Fab")
      (effects (font (size 1 1) (thickness 0.15)))
    (tstamp a260aa19-1517-421b-81ab-97ccdc3f9c2d)
  )
  (fp_text user "${REFERENCE}" (at 223.7 120 180) (layer "F.Fab")
      (effects (font (size 1 1) (thickness 0.15)))
    (tstamp a509e002-b13a-4539-9a9f-21066aae0995)
  )
  (fp_text user "${REFERENCE}" (at -0.3 96 180) (layer "F.Fab")
      (effects (font (size 1 1) (thickness 0.15)))
    (tstamp a76ab515-a1fc-4923-ab6c-b2cbaa473e81)
  )
  (fp_text user "${REFERENCE}" (at 119.7 120 180) (layer "F.Fab")
      (effects (font (size 1 1) (thickness 0.15)))
    (tstamp aa7db057-31b0-44e8-bf6d-6a580a69b320)
  )
  (fp_text user "${REFERENCE}" (at 55.7 120 180) (layer "F.Fab")
      (effects (font (size 1 1) (thickness 0.15)))
    (tstamp b0751520-2ec1-4d3d-bbaa-9bed4adf34d8)
  )
  (fp_text user "${REFERENCE}" (at 248.3 32) (layer "F.Fab")
      (effects (font (size 1 1) (thickness 0.15)))
    (tstamp b2a928df-1ce8-4792-bc43-61cdce9d5427)
  )
  (fp_text user "${REFERENCE}" (at 231.7 120 180) (layer "F.Fab")
      (effects (font (size 1 1) (thickness 0.15)))
    (tstamp b38037b0-2176-4589-a4d6-435f7aba1b91)
  )
  (fp_text user "${REFERENCE}" (at 248.3 56) (layer "F.Fab")
      (effects (font (size 1 1) (thickness 0.15)))
    (tstamp b3a5ba4d-a64d-4a39-845b-e122b0c51e30)
  )
  (fp_text user "${REFERENCE}" (at 96.3 0) (layer "F.Fab")
      (effects (font (size 1 1) (thickness 0.15)))
    (tstamp b8377334-4d3d-4833-a559-d6661e18ad92)
  )
  (fp_text user "${REFERENCE}" (at 143.7 120 180) (layer "F.Fab")
      (effects (font (size 1 1) (thickness 0.15)))
    (tstamp b959916b-1fdb-4283-ad19-5620f9608f7b)
  )
  (fp_text user "${REFERENCE}" (at 135.7 120 180) (layer "F.Fab")
      (effects (font (size 1 1) (thickness 0.15)))
    (tstamp b9f0c300-7f15-4658-9efa-e101f55b0a90)
  )
  (fp_text user "${REFERENCE}" (at -0.3 56 180) (layer "F.Fab")
      (effects (font (size 1 1) (thickness 0.15)))
    (tstamp be395813-f213-44d3-b264-c175646c5d83)
  )
  (fp_text user "${REFERENCE}" (at 48.3 0) (layer "F.Fab")
      (effects (font (size 1 1) (thickness 0.15)))
    (tstamp c99637ba-ad63-4d03-9e1a-db18ccd27386)
  )
  (fp_text user "${REFERENCE}" (at 95.7 120 180) (layer "F.Fab")
      (effects (font (size 1 1) (thickness 0.15)))
    (tstamp ca04c931-bc37-48f9-a179-85b1de8aae09)
  )
  (fp_text user "${REFERENCE}" (at -0.3 48 180) (layer "F.Fab")
      (effects (font (size 1 1) (thickness 0.15)))
    (tstamp ce4921ce-5f0d-4d57-93c1-10418184d938)
  )
  (fp_text user "${REFERENCE}" (at 240.3 0) (layer "F.Fab")
      (effects (font (size 1 1) (thickness 0.15)))
    (tstamp d1871f3e-f9fa-49bf-87da-4f5e2cdac181)
  )
  (fp_text user "${REFERENCE}" (at 87.7 120 180) (layer "F.Fab")
      (effects (font (size 1 1) (thickness 0.15)))
    (tstamp d6364286-0381-4c28-a1b9-1988a18df965)
  )
  (fp_text user "${REFERENCE}" (at 120.3 0) (layer "F.Fab")
      (effects (font (size 1 1) (thickness 0.15)))
    (tstamp da375a1f-96ac-4573-9b3c-01499759135b)
  )
  (fp_text user "${REFERENCE}" (at 248 120.3 270) (layer "F.Fab")
      (effects (font (size 1 1) (thickness 0.15)))
    (tstamp ddb5924f-4cb5-4688-9ffd-83df1c6d59a4)
  )
  (fp_text user "${REFERENCE}" (at 248.3 48) (layer "F.Fab")
      (effects (font (size 1 1) (thickness 0.15)))
    (tstamp e1d5008c-5ef7-44e8-98b4-e0f33d9dfbd9)
  )
  (fp_text user "${REFERENCE}" (at 200.3 0) (layer "F.Fab")
      (effects (font (size 1 1) (thickness 0.15)))
    (tstamp e35b205c-9d9e-4398-971a-5d7a07cee6e8)
  )
  (fp_text user "${REFERENCE}" (at 7.7 120 180) (layer "F.Fab")
      (effects (font (size 1 1) (thickness 0.15)))
    (tstamp e7455821-ab3f-41b1-9b79-c7997c5e171e)
  )
  (fp_text user "${REFERENCE}" (at 248.3 16) (layer "F.Fab")
      (effects (font (size 1 1) (thickness 0.15)))
    (tstamp e7ca3292-09d1-4efa-b9e8-eb0a15341e66)
  )
  (fp_text user "${REFERENCE}" (at 39.7 120 180) (layer "F.Fab")
      (effects (font (size 1 1) (thickness 0.15)))
    (tstamp ef97bdd1-c6aa-45d0-9b74-f5481d72ec69)
  )
  (fp_text user "${REFERENCE}" (at 104.3 0) (layer "F.Fab")
      (effects (font (size 1 1) (thickness 0.15)))
    (tstamp f06071a9-b9ff-4b8e-8078-08b5f9ef355d)
  )
  (fp_text user "${REFERENCE}" (at 136.3 0) (layer "F.Fab")
      (effects (font (size 1 1) (thickness 0.15)))
    (tstamp f2e89177-ac27-4233-9796-583929b43105)
  )
  (fp_text user "${REFERENCE}" (at 239.7 120 180) (layer "F.Fab")
      (effects (font (size 1 1) (thickness 0.15)))
    (tstamp f40509ef-ea70-431f-971e-9c28274c4c6b)
  )
  (fp_text user "${REFERENCE}" (at 207.7 120 180) (layer "F.Fab")
      (effects (font (size 1 1) (thickness 0.15)))
    (tstamp f41b846a-a9aa-469a-b30f-b5a7608e358f)
  )
  (fp_text user "${REFERENCE}" (at 32.3 0) (layer "F.Fab")
      (effects (font (size 1 1) (thickness 0.15)))
    (tstamp fe0f31bc-8848-4f7d-94ca-6bd159583c63)
  )
  (fp_text user "${REFERENCE}" (at 151.7 120 180) (layer "F.Fab")
      (effects (font (size 1 1) (thickness 0.15)))
    (tstamp ffecff62-29d7-42f1-bfc7-076b9e6272ec)
  )
  (fp_line (start -3.95 0) (end -3.95 3.95)
    (stroke (width 0.1) (type solid)) (layer "F.SilkS") (tstamp 50961875-6ffe-48b3-9b04-0e439df181bb))
  (fp_line (start -3.95 3.95) (end 3.95 3.95)
    (stroke (width 0.1) (type solid)) (layer "F.SilkS") (tstamp f07bba3c-ebd9-4eb1-a447-8ac22527b40f))
  (fp_line (start -3.95 120) (end -3.95 116.05)
    (stroke (width 0.1) (type solid)) (layer "F.SilkS") (tstamp 99da716e-8462-4c9f-a77b-4ded6e3d8cb0))
  (fp_line (start 0 -3.95) (end 3.95 -3.95)
    (stroke (width 0.1) (type solid)) (layer "F.SilkS") (tstamp 73d02d90-4b1c-4292-9e91-1654ea2a9e91))
  (fp_line (start 0 123.95) (end 3.95 123.95)
    (stroke (width 0.1) (type solid)) (layer "F.SilkS") (tstamp 485cca9f-b3e7-4e17-afe9-2d73f40456e5))
  (fp_line (start 3.95 3.95) (end 3.95 -3.95)
    (stroke (width 0.1) (type solid)) (layer "F.SilkS") (tstamp a5aa3687-b4c9-4491-984c-6e1dc2768cfe))
  (fp_line (start 3.95 116.05) (end -3.95 116.05)
    (stroke (width 0.1) (type solid)) (layer "F.SilkS") (tstamp bfd4108e-286b-42ad-accb-0a1768477eee))
  (fp_line (start 3.95 123.95) (end 3.95 116.05)
    (stroke (width 0.1) (type solid)) (layer "F.SilkS") (tstamp 58520f2a-58ee-4401-969d-13aba73f7986))
  (fp_line (start 244.05 -3.95) (end 244.05 3.95)
    (stroke (width 0.1) (type solid)) (layer "F.SilkS") (tstamp 7c513430-98dc-4828-9111-186cc8f42096))
  (fp_line (start 244.05 3.95) (end 251.95 3.95)
    (stroke (width 0.1) (type solid)) (layer "F.SilkS") (tstamp 8e5b3b11-7a2f-4351-885e-2c6e230992ba))
  (fp_line (start 244.05 116.05) (end 244.05 123.95)
    (stroke (width 0.1) (type solid)) (layer "F.SilkS") (tstamp 3f34a600-5312-48b4-ba69-2ec191d7c797))
  (fp_line (start 248 -3.95) (end 244.05 -3.95)
    (stroke (width 0.1) (type solid)) (layer "F.SilkS") (tstamp ffb11b88-9d9d-4079-a665-08eb0ae9b32c))
  (fp_line (start 248 123.95) (end 244.05 123.95)
    (stroke (width 0.1) (type solid)) (layer "F.SilkS") (tstamp 0a5bca3f-36f9-421d-ba2b-eee78499885f))
  (fp_line (start 251.95 0) (end 251.95 3.95)
    (stroke (width 0.1) (type solid)) (layer "F.SilkS") (tstamp a62b208f-f75e-4708-958f-faf3c9e2ac94))
  (fp_line (start 251.95 116.05) (end 244.05 116.05)
    (stroke (width 0.1) (type solid)) (layer "F.SilkS") (tstamp d621de32-4759-40bf-87a5-b8e01e5a9570))
  (fp_line (start 251.95 120) (end 251.95 116.05)
    (stroke (width 0.1) (type solid)) (layer "F.SilkS") (tstamp 814d7917-7fae-4521-856e-636de42f230e))
  (fp_rect (start 3.95 11.95) (end -3.95 4.05)
    (stroke (width 0.1) (type solid)) (fill none) (layer "F.SilkS") (tstamp c75b98c0-9851-4e9f-b551-86a444cd8fda))
  (fp_rect (start 3.95 19.95) (end -3.95 12.05)
    (stroke (width 0.1) (type solid)) (fill none) (layer "F.SilkS") (tstamp ec99b087-74ab-49a8-8fd6-0ad4c828795e))
  (fp_rect (start 3.95 27.95) (end -3.95 20.05)
    (stroke (width 0.1) (type solid)) (fill none) (layer "F.SilkS") (tstamp 7bb0c241-8a74-4272-b4f5-83a573d84c95))
  (fp_rect (start 3.95 35.95) (end -3.95 28.05)
    (stroke (width 0.1) (type solid)) (fill none) (layer "F.SilkS") (tstamp ce575d2a-dda7-457e-b684-c5b34e374a86))
  (fp_rect (start 3.95 43.95) (end -3.95 36.05)
    (stroke (width 0.1) (type solid)) (fill none) (layer "F.SilkS") (tstamp 23e57cc6-5a99-4273-b9ca-9cef28e5f4f3))
  (fp_rect (start 3.95 51.95) (end -3.95 44.05)
    (stroke (width 0.1) (type solid)) (fill none) (layer "F.SilkS") (tstamp 43cbd71b-78db-4cb2-bc64-5774654c0486))
  (fp_rect (start 3.95 59.95) (end -3.95 52.05)
    (stroke (width 0.1) (type solid)) (fill none) (layer "F.SilkS") (tstamp 5bdae7a4-116e-4548-bfbe-87fbbac54445))
  (fp_rect (start 3.95 67.95) (end -3.95 60.05)
    (stroke (width 0.1) (type solid)) (fill none) (layer "F.SilkS") (tstamp 8c1645a3-4720-4ddb-a831-2bb4e4a25d5c))
  (fp_rect (start 3.95 75.95) (end -3.95 68.05)
    (stroke (width 0.1) (type solid)) (fill none) (layer "F.SilkS") (tstamp a2917f08-0678-4e42-a8f1-f10578852fc2))
  (fp_rect (start 3.95 83.95) (end -3.95 76.05)
    (stroke (width 0.1) (type solid)) (fill none) (layer "F.SilkS") (tstamp ec272233-cf7e-4dd3-b335-a23617f77037))
  (fp_rect (start 3.95 91.95) (end -3.95 84.05)
    (stroke (width 0.1) (type solid)) (fill none) (layer "F.SilkS") (tstamp cbdad38f-8e4a-4a24-858a-91280b63823a))
  (fp_rect (start 3.95 99.95) (end -3.95 92.05)
    (stroke (width 0.1) (type solid)) (fill none) (layer "F.SilkS") (tstamp 6992e4fc-2289-4ad4-88a3-cfa1a71d6bbe))
  (fp_rect (start 3.95 107.95) (end -3.95 100.05)
    (stroke (width 0.1) (type solid)) (fill none) (layer "F.SilkS") (tstamp 7a2a2e0f-d13a-4216-93cd-d1f35905f52f))
  (fp_rect (start 3.95 115.95) (end -3.95 108.05)
    (stroke (width 0.1) (type solid)) (fill none) (layer "F.SilkS") (tstamp 445428a4-bc27-4c5b-a48d-af6e69ba1680))
  (fp_rect (start 4.05 -3.95) (end 11.95 3.95)
    (stroke (width 0.1) (type solid)) (fill none) (layer "F.SilkS") (tstamp 79e7d167-93d5-4fce-bebe-e03a164e9440))
  (fp_rect (start 11.95 123.95) (end 4.05 116.05)
    (stroke (width 0.1) (type solid)) (fill none) (layer "F.SilkS") (tstamp c1ba824d-41fb-4cb2-9c93-81a740a2027e))
  (fp_rect (start 12.05 -3.95) (end 19.95 3.95)
    (stroke (width 0.1) (type solid)) (fill none) (layer "F.SilkS") (tstamp f4566ca3-ae44-4083-bb75-0e8f3a88d1d7))
  (fp_rect (start 19.95 123.95) (end 12.05 116.05)
    (stroke (width 0.1) (type solid)) (fill none) (layer "F.SilkS") (tstamp 445eefaa-b345-4408-942b-90c7844c43e8))
  (fp_rect (start 20.05 -3.95) (end 27.95 3.95)
    (stroke (width 0.1) (type solid)) (fill none) (layer "F.SilkS") (tstamp 247a4b0e-65a0-42ac-a940-907a4af16fea))
  (fp_rect (start 27.95 123.95) (end 20.05 116.05)
    (stroke (width 0.1) (type solid)) (fill none) (layer "F.SilkS") (tstamp 27d7c248-9901-4be5-acdf-0f5749b17bdb))
  (fp_rect (start 28.05 -3.95) (end 35.95 3.95)
    (stroke (width 0.1) (type solid)) (fill none) (layer "F.SilkS") (tstamp 2dc2794b-8458-4cae-a575-ce947a04bcfd))
  (fp_rect (start 35.95 123.95) (end 28.05 116.05)
    (stroke (width 0.1) (type solid)) (fill none) (layer "F.SilkS") (tstamp dfc3d3a7-39b2-4445-be29-cb3636cd41dd))
  (fp_rect (start 36.05 -3.95) (end 43.95 3.95)
    (stroke (width 0.1) (type solid)) (fill none) (layer "F.SilkS") (tstamp c0bfb048-5ded-4205-bfe5-2d36d1e052fd))
  (fp_rect (start 43.95 123.95) (end 36.05 116.05)
    (stroke (width 0.1) (type solid)) (fill none) (layer "F.SilkS") (tstamp c6c9ab9f-8bf9-49ae-b2c3-10a9d79c6582))
  (fp_rect (start 44.05 -3.95) (end 51.95 3.95)
    (stroke (width 0.1) (type solid)) (fill none) (layer "F.SilkS") (tstamp 004b8419-87fb-406d-a72d-4a4ce806312f))
  (fp_rect (start 51.95 123.95) (end 44.05 116.05)
    (stroke (width 0.1) (type solid)) (fill none) (layer "F.SilkS") (tstamp c0231cd4-4cc4-49f4-96f8-537cd75eb68d))
  (fp_rect (start 52.05 -3.95) (end 59.95 3.95)
    (stroke (width 0.1) (type solid)) (fill none) (layer "F.SilkS") (tstamp bd0d5a34-19ff-4d41-b154-86a659765dbd))
  (fp_rect (start 59.95 123.95) (end 52.05 116.05)
    (stroke (width 0.1) (type solid)) (fill none) (layer "F.SilkS") (tstamp 8c8bebcd-e9dc-43a8-ab12-3d40e6d001c3))
  (fp_rect (start 60.05 -3.95) (end 67.95 3.95)
    (stroke (width 0.1) (type solid)) (fill none) (layer "F.SilkS") (tstamp c1c426ed-a811-4eed-b132-78940443c18a))
  (fp_rect (start 67.95 123.95) (end 60.05 116.05)
    (stroke (width 0.1) (type solid)) (fill none) (layer "F.SilkS") (tstamp 3fd8bd4d-9d04-455b-870c-9654959d1662))
  (fp_rect (start 68.05 -3.95) (end 75.95 3.95)
    (stroke (width 0.1) (type solid)) (fill none) (layer "F.SilkS") (tstamp fa5e1432-db74-4bf4-b1e5-4aa597074cac))
  (fp_rect (start 75.95 123.95) (end 68.05 116.05)
    (stroke (width 0.1) (type solid)) (fill none) (layer "F.SilkS") (tstamp 68d1d436-2b66-4d19-9c7f-e2cb4a07198b))
  (fp_rect (start 76.05 -3.95) (end 83.95 3.95)
    (stroke (width 0.1) (type solid)) (fill none) (layer "F.SilkS") (tstamp b0be00f8-c261-4e97-ba3f-75e6269fabdb))
  (fp_rect (start 83.95 123.95) (end 76.05 116.05)
    (stroke (width 0.1) (type solid)) (fill none) (layer "F.SilkS") (tstamp f21b6948-d246-47f6-a105-495a25d073f5))
  (fp_rect (start 84.05 -3.95) (end 91.95 3.95)
    (stroke (width 0.1) (type solid)) (fill none) (layer "F.SilkS") (tstamp 345762d7-13d8-4638-bf81-a7cfe095c77b))
  (fp_rect (start 91.95 123.95) (end 84.05 116.05)
    (stroke (width 0.1) (type solid)) (fill none) (layer "F.SilkS") (tstamp cc279f45-4b20-434e-959d-eefb3563cc5a))
  (fp_rect (start 92.05 -3.95) (end 99.95 3.95)
    (stroke (width 0.1) (type solid)) (fill none) (layer "F.SilkS") (tstamp 82e62a48-5b07-4d9d-be27-c4f64dc76e32))
  (fp_rect (start 99.95 123.95) (end 92.05 116.05)
    (stroke (width 0.1) (type solid)) (fill none) (layer "F.SilkS") (tstamp 070a3bf6-217c-4e19-8329-335dd66ed33f))
  (fp_rect (start 100.05 -3.95) (end 107.95 3.95)
    (stroke (width 0.1) (type solid)) (fill none) (layer "F.SilkS") (tstamp 6bb15d29-d6f0-4936-8799-cd401fc3ad5f))
  (fp_rect (start 107.95 123.95) (end 100.05 116.05)
    (stroke (width 0.1) (type solid)) (fill none) (layer "F.SilkS") (tstamp ce567d5c-881e-4886-8cce-276242a7bf82))
  (fp_rect (start 108.05 -3.95) (end 115.95 3.95)
    (stroke (width 0.1) (type solid)) (fill none) (layer "F.SilkS") (tstamp 422f219c-4f3c-4d5d-a407-c39c3201e1d6))
  (fp_rect (start 115.95 123.95) (end 108.05 116.05)
    (stroke (width 0.1) (type solid)) (fill none) (layer "F.SilkS") (tstamp 0f015e46-e05f-432d-bcba-4b4cb837c071))
  (fp_rect (start 116.05 -3.95) (end 123.95 3.95)
    (stroke (width 0.1) (type solid)) (fill none) (layer "F.SilkS") (tstamp 8dfbda1f-2890-4767-bbbb-fd7ce699caa8))
  (fp_rect (start 123.95 123.95) (end 116.05 116.05)
    (stroke (width 0.1) (type solid)) (fill none) (layer "F.SilkS") (tstamp fcb02908-8a16-4a5d-9f3b-68ae7875a303))
  (fp_rect (start 124.05 -3.95) (end 131.95 3.95)
    (stroke (width 0.1) (type solid)) (fill none) (layer "F.SilkS") (tstamp 4f49f56d-f668-4bf8-b26e-b799fe9f6e8a))
  (fp_rect (start 131.95 123.95) (end 124.05 116.05)
    (stroke (width 0.1) (type solid)) (fill none) (layer "F.SilkS") (tstamp f9994f47-895f-4e26-ad87-3adf350c7d7f))
  (fp_rect (start 132.05 -3.95) (end 139.95 3.95)
    (stroke (width 0.1) (type solid)) (fill none) (layer "F.SilkS") (tstamp 65dd2083-7d3d-4749-bacd-f2b3e1074bd1))
  (fp_rect (start 139.95 123.95) (end 132.05 116.05)
    (stroke (width 0.1) (type solid)) (fill none) (layer "F.SilkS") (tstamp f97ce33d-bf7a-4db1-a5ee-172750fd78dc))
  (fp_rect (start 140.05 -3.95) (end 147.95 3.95)
    (stroke (width 0.1) (type solid)) (fill none) (layer "F.SilkS") (tstamp 81a863ad-c7b6-4948-b94c-442f4684c942))
  (fp_rect (start 147.95 123.95) (end 140.05 116.05)
    (stroke (width 0.1) (type solid)) (fill none) (layer "F.SilkS") (tstamp 5dc8707e-fb55-4676-a9ed-4543a09ea03d))
  (fp_rect (start 148.05 -3.95) (end 155.95 3.95)
    (stroke (width 0.1) (type solid)) (fill none) (layer "F.SilkS") (tstamp 1e2f0ddb-33f5-468f-a855-bdaa3163085f))
  (fp_rect (start 155.95 123.95) (end 148.05 116.05)
    (stroke (width 0.1) (type solid)) (fill none) (layer "F.SilkS") (tstamp 0f8ef9ab-9740-40bc-9c8c-e0a48a87561f))
  (fp_rect (start 156.05 -3.95) (end 163.95 3.95)
    (stroke (width 0.1) (type solid)) (fill none) (layer "F.SilkS") (tstamp d1e276b2-7893-4792-9796-5ec57d960fb4))
  (fp_rect (start 163.95 123.95) (end 156.05 116.05)
    (stroke (width 0.1) (type solid)) (fill none) (layer "F.SilkS") (tstamp 1457d148-9929-465b-9b24-7421b9748e84))
  (fp_rect (start 164.05 -3.95) (end 171.95 3.95)
    (stroke (width 0.1) (type solid)) (fill none) (layer "F.SilkS") (tstamp 09368367-f47f-4da0-b565-ee18af386c27))
  (fp_rect (start 171.95 123.95) (end 164.05 116.05)
    (stroke (width 0.1) (type solid)) (fill none) (layer "F.SilkS") (tstamp 80769138-c87a-48d8-8530-f67a60af71c5))
  (fp_rect (start 172.05 -3.95) (end 179.95 3.95)
    (stroke (width 0.1) (type solid)) (fill none) (layer "F.SilkS") (tstamp 84a4e48a-d624-431a-b054-4126dcdbeb63))
  (fp_rect (start 179.95 123.95) (end 172.05 116.05)
    (stroke (width 0.1) (type solid)) (fill none) (layer "F.SilkS") (tstamp ec27ac70-9385-4bc7-95e0-a8618c2b3a83))
  (fp_rect (start 180.05 -3.95) (end 187.95 3.95)
    (stroke (width 0.1) (type solid)) (fill none) (layer "F.SilkS") (tstamp e31ddc36-ee16-4678-a5fc-7905808859ad))
  (fp_rect (start 187.95 123.95) (end 180.05 116.05)
    (stroke (width 0.1) (type solid)) (fill none) (layer "F.SilkS") (tstamp 812570e6-5076-46dd-9a66-835cb2f1a467))
  (fp_rect (start 188.05 -3.95) (end 195.95 3.95)
    (stroke (width 0.1) (type solid)) (fill none) (layer "F.SilkS") (tstamp 449265fb-e833-438d-91ae-7ad9aab9373f))
  (fp_rect (start 195.95 123.95) (end 188.05 116.05)
    (stroke (width 0.1) (type solid)) (fill none) (layer "F.SilkS") (tstamp 4b0de986-bc6d-4796-83a6-8eeabae0aa6f))
  (fp_rect (start 196.05 -3.95) (end 203.95 3.95)
    (stroke (width 0.1) (type solid)) (fill none) (layer "F.SilkS") (tstamp 994443d7-8064-477a-8da6-423cb4ccaff1))
  (fp_rect (start 203.95 123.95) (end 196.05 116.05)
    (stroke (width 0.1) (type solid)) (fill none) (layer "F.SilkS") (tstamp f3e4f4ea-4fbc-42e6-b4e2-f29379574992))
  (fp_rect (start 204.05 -3.95) (end 211.95 3.95)
    (stroke (width 0.1) (type solid)) (fill none) (layer "F.SilkS") (tstamp 69855db7-cbf3-42fc-931c-740f7e85054d))
  (fp_rect (start 211.95 123.95) (end 204.05 116.05)
    (stroke (width 0.1) (type solid)) (fill none) (layer "F.SilkS") (tstamp d6d23418-e9ef-4335-a4ba-3a565a812647))
  (fp_rect (start 212.05 -3.95) (end 219.95 3.95)
    (stroke (width 0.1) (type solid)) (fill none) (layer "F.SilkS") (tstamp c8f846f3-2cb5-4bc1-b902-e36b3c4f6fb0))
  (fp_rect (start 219.95 123.95) (end 212.05 116.05)
    (stroke (width 0.1) (type solid)) (fill none) (layer "F.SilkS") (tstamp 6ccdfccb-aaff-4240-84a8-352ef0b0f75f))
  (fp_rect (start 220.05 -3.95) (end 227.95 3.95)
    (stroke (width 0.1) (type solid)) (fill none) (layer "F.SilkS") (tstamp 2c4b9fcf-063c-41d8-a703-eeab796f90fe))
  (fp_rect (start 227.95 123.95) (end 220.05 116.05)
    (stroke (width 0.1) (type solid)) (fill none) (layer "F.SilkS") (tstamp 4c28c89f-b87e-4089-9866-b28fd461702d))
  (fp_rect (start 228.05 -3.95) (end 235.95 3.95)
    (stroke (width 0.1) (type solid)) (fill none) (layer "F.SilkS") (tstamp cdc30533-337e-41bb-8c66-70d89adaab64))
  (fp_rect (start 235.95 123.95) (end 228.05 116.05)
    (stroke (width 0.1) (type solid)) (fill none) (layer "F.SilkS") (tstamp 897f4beb-ccef-4ce2-a860-4b20b15345cd))
  (fp_rect (start 236.05 -3.95) (end 243.95 3.95)
    (stroke (width 0.1) (type solid)) (fill none) (layer "F.SilkS") (tstamp 24b2def0-e78c-4ef6-bf2a-d3bcac8fd8f5))
  (fp_rect (start 243.95 123.95) (end 236.05 116.05)
    (stroke (width 0.1) (type solid)) (fill none) (layer "F.SilkS") (tstamp b90b9d29-d11e-4d16-8491-128680a4effc))
  (fp_rect (start 244.05 4.05) (end 251.95 11.95)
    (stroke (width 0.1) (type solid)) (fill none) (layer "F.SilkS") (tstamp 5287a4b5-7bb4-4dd3-a9a5-47b9ca1ded13))
  (fp_rect (start 244.05 12.05) (end 251.95 19.95)
    (stroke (width 0.1) (type solid)) (fill none) (layer "F.SilkS") (tstamp eebc2325-3b32-43cc-8d1d-7c3fd673322f))
  (fp_rect (start 244.05 20.05) (end 251.95 27.95)
    (stroke (width 0.1) (type solid)) (fill none) (layer "F.SilkS") (tstamp d0d32bed-51e9-4e0d-a940-39c44d7edceb))
  (fp_rect (start 244.05 28.05) (end 251.95 35.95)
    (stroke (width 0.1) (type solid)) (fill none) (layer "F.SilkS") (tstamp c9b07eac-b837-4253-a3ff-964386d5e03e))
  (fp_rect (start 244.05 36.05) (end 251.95 43.95)
    (stroke (width 0.1) (type solid)) (fill none) (layer "F.SilkS") (tstamp 7d6261d2-5b13-4510-975d-2e6aae9c1a77))
  (fp_rect (start 244.05 44.05) (end 251.95 51.95)
    (stroke (width 0.1) (type solid)) (fill none) (layer "F.SilkS") (tstamp 570e9bd1-8c61-43a6-a4d6-076347b7f76e))
  (fp_rect (start 244.05 52.05) (end 251.95 59.95)
    (stroke (width 0.1) (type solid)) (fill none) (layer "F.SilkS") (tstamp 29647b9a-2763-498b-b3d7-dd89399a8b2c))
  (fp_rect (start 244.05 60.05) (end 251.95 67.95)
    (stroke (width 0.1) (type solid)) (fill none) (layer "F.SilkS") (tstamp 35cba9bc-5050-4fbe-b111-53abf635f4eb))
  (fp_rect (start 244.05 68.05) (end 251.95 75.95)
    (stroke (width 0.1) (type solid)) (fill none) (layer "F.SilkS") (tstamp f9962eac-4a73-477c-b715-58d4db6c0a8a))
  (fp_rect (start 244.05 76.05) (end 251.95 83.95)
    (stroke (width 0.1) (type solid)) (fill none) (layer "F.SilkS") (tstamp 71c28a0b-31a9-4929-a522-2c7324c2ce67))
  (fp_rect (start 244.05 84.05) (end 251.95 91.95)
    (stroke (width 0.1) (type solid)) (fill none) (layer "F.SilkS") (tstamp 9cb7c5d6-44d2-4b77-81a4-e7888f275d2e))
  (fp_rect (start 244.05 92.05) (end 251.95 99.95)
    (stroke (width 0.1) (type solid)) (fill none) (layer "F.SilkS") (tstamp 4f778c78-5a27-4f38-ba8e-058ae0751cac))
  (fp_rect (start 244.05 100.05) (end 251.95 107.95)
    (stroke (width 0.1) (type solid)) (fill none) (layer "F.SilkS") (tstamp 9d4a1ad1-5609-4299-b90d-660d3caf7838))
  (fp_rect (start 244.05 108.05) (end 251.95 115.95)
    (stroke (width 0.1) (type solid)) (fill none) (layer "F.SilkS") (tstamp bc2d2815-e931-4755-ac30-ea57938b3419))
  (fp_arc (start -3.95 0) (mid -2.793072 -2.793072) (end 0 -3.95)
    (stroke (width 0.1) (type solid)) (layer "F.SilkS") (tstamp c14022fd-4d2e-4d83-9c92-ac91f68213ae))
  (fp_arc (start 0 123.95) (mid -2.793072 122.793072) (end -3.95 120)
    (stroke (width 0.1) (type solid)) (layer "F.SilkS") (tstamp 67e551b2-1db6-4fb1-8151-ec371253e4e3))
  (fp_arc (start 248 -3.95) (mid 250.793072 -2.793072) (end 251.95 0)
    (stroke (width 0.1) (type solid)) (layer "F.SilkS") (tstamp 3ae3d906-626b-4fda-845d-be25d039224c))
  (fp_arc (start 251.95 120) (mid 250.793072 122.793072) (end 248 123.95)
    (stroke (width 0.1) (type solid)) (layer "F.SilkS") (tstamp f338d573-b134-4b8d-9972-5e4d28e790c1))
  (fp_line (start -3.9 3.88) (end -3.9 0)
    (stroke (width 0.12) (type solid)) (layer "F.CrtYd") (tstamp bbc2d9dd-692e-4933-b560-41f90f895df3))
  (fp_line (start -3.9 3.88) (end -3.9 120)
    (stroke (width 0.12) (type solid)) (layer "F.CrtYd") (tstamp 376163ea-dcfc-401a-8f50-8fe74165ef20))
  (fp_line (start 3.9 3.9) (end 244.1 3.9)
    (stroke (width 0.12) (type solid)) (layer "F.CrtYd") (tstamp 66e1576d-99f7-4eab-93c0-9a2448751a10))
  (fp_line (start 3.9 116.1) (end 3.9 3.9)
    (stroke (width 0.12) (type solid)) (layer "F.CrtYd") (tstamp c264c79e-6232-420d-bfae-4a0c15ebc414))
  (fp_line (start 3.9 123.9) (end 0 123.9)
    (stroke (width 0.12) (type solid)) (layer "F.CrtYd") (tstamp 2fb7ec34-70a7-4755-88e1-3152582b0c4d))
  (fp_line (start 3.9 123.9) (end 248 123.9)
    (stroke (width 0.12) (type solid)) (layer "F.CrtYd") (tstamp 55e5dcf3-d5b2-4640-8350-05ae4a75e7b7))
  (fp_line (start 244.1 -3.9) (end 0 -3.9)
    (stroke (width 0.12) (type solid)) (layer "F.CrtYd") (tstamp 0779d19a-bd40-4403-8513-70a74f52b9e9))
  (fp_line (start 244.1 -3.9) (end 248 -3.9)
    (stroke (width 0.12) (type solid)) (layer "F.CrtYd") (tstamp 2d648628-23af-4b61-89f4-8a3752cb9ce7))
  (fp_line (start 244.1 3.9) (end 244.1 116.1)
    (stroke (width 0.12) (type solid)) (layer "F.CrtYd") (tstamp 9cea5cca-893b-4973-af43-5231129fb62c))
  (fp_line (start 244.1 116.1) (end 3.9 116.1)
    (stroke (width 0.12) (type solid)) (layer "F.CrtYd") (tstamp 9f27e5ba-55e1-4ebf-acd4-ee9c2f628564))
  (fp_line (start 251.9 116.1) (end 251.9 0)
    (stroke (width 0.12) (type solid)) (layer "F.CrtYd") (tstamp 2fe78652-4d1c-4e03-a1e5-276ad92b7238))
  (fp_line (start 251.9 116.1) (end 251.9 120)
    (stroke (width 0.12) (type solid)) (layer "F.CrtYd") (tstamp e3f747cf-2a65-4beb-9d28-6458c8e730ca))
  (fp_arc (start -3.9 0) (mid -2.757716 -2.757716) (end 0 -3.9)
    (stroke (width 0.12) (type solid)) (layer "F.CrtYd") (tstamp 7f4b6677-73bd-444c-bf82-85056c57ef8d))
  (fp_arc (start 0 123.9) (mid -2.757716 122.757716) (end -3.9 120)
    (stroke (width 0.12) (type solid)) (layer "F.CrtYd") (tstamp 8022b022-f2c9-4f12-997b-3d2b29e54c1f))
  (fp_arc (start 248 -3.9) (mid 250.757716 -2.757716) (end 251.9 0)
    (stroke (width 0.12) (type solid)) (layer "F.CrtYd") (tstamp ff0e5d5e-6ae4-472d-92bc-a36519ab9f65))
  (fp_arc (start 251.9 120) (mid 250.757716 122.757716) (end 248 123.9)
    (stroke (width 0.12) (type solid)) (layer "F.CrtYd") (tstamp 1479f5b7-2652-4ce7-964b-6ff08b8d7b6e))
  (pad "" np_thru_hole circle (at 0 0 90) (size 4.875 4.875) (drill 4.875) (layers "F&B.Cu" "*.Mask") (tstamp c28adbe8-e537-459b-81b6-fe3e6f186b4b))
  (pad "" np_thru_hole circle (at 0 8 180) (size 4.875 4.875) (drill 4.875) (layers "F&B.Cu" "*.Mask") (tstamp c4c31901-8f60-45f6-b942-758e8a6552bf))
  (pad "" np_thru_hole circle (at 0 16 180) (size 4.875 4.875) (drill 4.875) (layers "F&B.Cu" "*.Mask") (tstamp 956797eb-cf97-44d2-8e29-7459bafa8e96))
  (pad "" np_thru_hole circle (at 0 24 180) (size 4.875 4.875) (drill 4.875) (layers "F&B.Cu" "*.Mask") (tstamp e5959a91-14a3-487c-9d49-00d8c6077235))
  (pad "" np_thru_hole circle (at 0 32 180) (size 4.875 4.875) (drill 4.875) (layers "F&B.Cu" "*.Mask") (tstamp 300d45a6-8d4f-434d-a8e3-95f658bcb8c6))
  (pad "" np_thru_hole circle (at 0 40 180) (size 4.875 4.875) (drill 4.875) (layers "F&B.Cu" "*.Mask") (tstamp 7a0e2dc3-70fa-4727-b667-f974b4589b43))
  (pad "" np_thru_hole circle (at 0 48 180) (size 4.875 4.875) (drill 4.875) (layers "F&B.Cu" "*.Mask") (tstamp b046be26-6782-43e1-ab34-b4d51153edf8))
  (pad "" np_thru_hole circle (at 0 56 180) (size 4.875 4.875) (drill 4.875) (layers "F&B.Cu" "*.Mask") (tstamp fca4df2f-b5d8-4cbc-b133-99469d3c806b))
  (pad "" np_thru_hole circle (at 0 64 180) (size 4.875 4.875) (drill 4.875) (layers "F&B.Cu" "*.Mask") (tstamp e2589cc7-32dd-4d8e-aabe-5f13059afad0))
  (pad "" np_thru_hole circle (at 0 72 180) (size 4.875 4.875) (drill 4.875) (layers "F&B.Cu" "*.Mask") (tstamp e049c1a2-a38c-465e-8002-aed2def9755b))
  (pad "" np_thru_hole circle (at 0 80 180) (size 4.875 4.875) (drill 4.875) (layers "F&B.Cu" "*.Mask") (tstamp 2c99b37c-1997-48b8-8c69-b05b484e5935))
  (pad "" np_thru_hole circle (at 0 88 180) (size 4.875 4.875) (drill 4.875) (layers "F&B.Cu" "*.Mask") (tstamp 5de832ed-1a50-4854-ad67-0ccb43cb0190))
  (pad "" np_thru_hole circle (at 0 96 180) (size 4.875 4.875) (drill 4.875) (layers "F&B.Cu" "*.Mask") (tstamp e3f3d473-aa78-4bcd-965a-bb4428a29ceb))
  (pad "" np_thru_hole circle (at 0 104 180) (size 4.875 4.875) (drill 4.875) (layers "F&B.Cu" "*.Mask") (tstamp f3dfb491-0ed1-4384-9b08-5d43592da412))
  (pad "" np_thru_hole circle (at 0 112 180) (size 4.875 4.875) (drill 4.875) (layers "F&B.Cu" "*.Mask") (tstamp c2006f61-b801-41c4-bc6d-debba282f6b9))
  (pad "" np_thru_hole circle (at 0 120 180) (size 4.875 4.875) (drill 4.875) (layers "F&B.Cu" "*.Mask") (tstamp 7a48ead3-a4cd-4d3c-b1a9-612f6794c56c))
  (pad "" np_thru_hole circle (at 8 0) (size 4.875 4.875) (drill 4.875) (layers "F&B.Cu" "*.Mask") (tstamp cdddfac2-f09e-4acc-986f-0fd6b539ce3f))
  (pad "" np_thru_hole circle (at 8 120 180) (size 4.875 4.875) (drill 4.875) (layers "F&B.Cu" "*.Mask") (tstamp 7a879948-7c7a-4039-b244-3dfca3d8b259))
  (pad "" np_thru_hole circle (at 16 0) (size 4.875 4.875) (drill 4.875) (layers "F&B.Cu" "*.Mask") (tstamp 2f28334a-c95a-4eb2-a219-74954dffa9b2))
  (pad "" np_thru_hole circle (at 16 120 180) (size 4.875 4.875) (drill 4.875) (layers "F&B.Cu" "*.Mask") (tstamp 56ba71e6-a263-4394-a715-db420ced2bfb))
  (pad "" np_thru_hole circle (at 24 0) (size 4.875 4.875) (drill 4.875) (layers "F&B.Cu" "*.Mask") (tstamp 6542c630-70cb-489a-8e87-63d884c954c0))
  (pad "" np_thru_hole circle (at 24 120 180) (size 4.875 4.875) (drill 4.875) (layers "F&B.Cu" "*.Mask") (tstamp c4001780-55ad-4738-8eed-d616a71e912c))
  (pad "" np_thru_hole circle (at 32 0) (size 4.875 4.875) (drill 4.875) (layers "F&B.Cu" "*.Mask") (tstamp 24c6211f-fa69-41e2-b92f-53594f9537e2))
  (pad "" np_thru_hole circle (at 32 120 180) (size 4.875 4.875) (drill 4.875) (layers "F&B.Cu" "*.Mask") (tstamp 93275af4-a53d-4f76-9eed-1b7531359be9))
  (pad "" np_thru_hole circle (at 40 0) (size 4.875 4.875) (drill 4.875) (layers "F&B.Cu" "*.Mask") (tstamp e304fc1d-6078-4c6e-bcca-ba10202a5096))
  (pad "" np_thru_hole circle (at 40 120 180) (size 4.875 4.875) (drill 4.875) (layers "F&B.Cu" "*.Mask") (tstamp faff9840-672e-461e-97a2-147bcc131f07))
  (pad "" np_thru_hole circle (at 48 0) (size 4.875 4.875) (drill 4.875) (layers "F&B.Cu" "*.Mask") (tstamp 91818797-7c7a-4979-ae59-cde47ff5f3eb))
  (pad "" np_thru_hole circle (at 48 120 180) (size 4.875 4.875) (drill 4.875) (layers "F&B.Cu" "*.Mask") (tstamp c72fc138-bad1-40a6-b659-69b03eefa2b9))
  (pad "" np_thru_hole circle (at 56 0) (size 4.875 4.875) (drill 4.875) (layers "F&B.Cu" "*.Mask") (tstamp e7ddd1d5-88e1-4baf-ae27-40a24fba4931))
  (pad "" np_thru_hole circle (at 56 120 180) (size 4.875 4.875) (drill 4.875) (layers "F&B.Cu" "*.Mask") (tstamp b2b2048c-e22f-4a7e-85dc-610905b19641))
  (pad "" np_thru_hole circle (at 64 0) (size 4.875 4.875) (drill 4.875) (layers "F&B.Cu" "*.Mask") (tstamp bbd49c8f-feb9-4d5a-a2ae-7cd46c4129f4))
  (pad "" np_thru_hole circle (at 64 120 180) (size 4.875 4.875) (drill 4.875) (layers "F&B.Cu" "*.Mask") (tstamp 718f64b7-5222-421e-bac1-b63796b7dc79))
  (pad "" np_thru_hole circle (at 72 0) (size 4.875 4.875) (drill 4.875) (layers "F&B.Cu" "*.Mask") (tstamp 9c90e9eb-5a84-44dc-8c10-1d4a0bd0c34e))
  (pad "" np_thru_hole circle (at 72 120 180) (size 4.875 4.875) (drill 4.875) (layers "F&B.Cu" "*.Mask") (tstamp 08d4dbb9-e31d-44df-bc00-348d9fb16054))
  (pad "" np_thru_hole circle (at 80 0) (size 4.875 4.875) (drill 4.875) (layers "F&B.Cu" "*.Mask") (tstamp a269f527-2007-491c-8dcf-264ec69050fb))
  (pad "" np_thru_hole circle (at 80 120 180) (size 4.875 4.875) (drill 4.875) (layers "F&B.Cu" "*.Mask") (tstamp a68039e3-c470-4045-94dd-d04a7499c55c))
  (pad "" np_thru_hole circle (at 88 0) (size 4.875 4.875) (drill 4.875) (layers "F&B.Cu" "*.Mask") (tstamp f57aad44-c424-4f70-880d-dc4a88a79de5))
  (pad "" np_thru_hole circle (at 88 120 180) (size 4.875 4.875) (drill 4.875) (layers "F&B.Cu" "*.Mask") (tstamp 28f4a184-f3af-4337-83e1-adf8962e4271))
  (pad "" np_thru_hole circle (at 96 0) (size 4.875 4.875) (drill 4.875) (layers "F&B.Cu" "*.Mask") (tstamp 50434993-66e0-4ad4-8d8a-c946573effa5))
  (pad "" np_thru_hole circle (at 96 120 180) (size 4.875 4.875) (drill 4.875) (layers "F&B.Cu" "*.Mask") (tstamp 687b51c0-ab1f-436e-b589-71799afde4d9))
  (pad "" np_thru_hole circle (at 104 0) (size 4.875 4.875) (drill 4.875) (layers "F&B.Cu" "*.Mask") (tstamp d17081a8-9b42-46eb-83b7-fc94284408c6))
  (pad "" np_thru_hole circle (at 104 120 180) (size 4.875 4.875) (drill 4.875) (layers "F&B.Cu" "*.Mask") (tstamp 16c51843-7cc4-482c-a172-c38040700b5e))
  (pad "" np_thru_hole circle (at 112 0) (size 4.875 4.875) (drill 4.875) (layers "F&B.Cu" "*.Mask") (tstamp 87d18d89-fb9b-4a01-a6ce-8305830f6c86))
  (pad "" np_thru_hole circle (at 112 120 180) (size 4.875 4.875) (drill 4.875) (layers "F&B.Cu" "*.Mask") (tstamp 9fac7988-b21c-4e78-b2dc-8e01ccbfa6ce))
  (pad "" np_thru_hole circle (at 120 0) (size 4.875 4.875) (drill 4.875) (layers "F&B.Cu" "*.Mask") (tstamp 6e0bc54e-90de-45a7-84f1-46839aa1ad62))
  (pad "" np_thru_hole circle (at 120 120 180) (size 4.875 4.875) (drill 4.875) (layers "F&B.Cu" "*.Mask") (tstamp c774a8e0-b640-4e86-80d5-a0d081bb4d92))
  (pad "" np_thru_hole circle (at 128 0) (size 4.875 4.875) (drill 4.875) (layers "F&B.Cu" "*.Mask") (tstamp 0422ac9a-4741-4469-9384-8e775639e688))
  (pad "" np_thru_hole circle (at 128 120 180) (size 4.875 4.875) (drill 4.875) (layers "F&B.Cu" "*.Mask") (tstamp c87e15b8-2bb6-465f-b9b7-50d6bf358bb2))
  (pad "" np_thru_hole circle (at 136 0) (size 4.875 4.875) (drill 4.875) (layers "F&B.Cu" "*.Mask") (tstamp dcde16cd-d155-4ce2-9b5b-c6751f3d4af7))
  (pad "" np_thru_hole circle (at 136 120 180) (size 4.875 4.875) (drill 4.875) (layers "F&B.Cu" "*.Mask") (tstamp 08d99f89-b158-45e8-a73a-8249eaffecfa))
  (pad "" np_thru_hole circle (at 144 0) (size 4.875 4.875) (drill 4.875) (layers "F&B.Cu" "*.Mask") (tstamp e4396270-64d9-4382-9398-844d745f48d0))
  (pad "" np_thru_hole circle (at 144 120 180) (size 4.875 4.875) (drill 4.875) (layers "F&B.Cu" "*.Mask") (tstamp a20bdcfc-5475-422f-b7cd-44a60eed55ca))
  (pad "" np_thru_hole circle (at 152 0) (size 4.875 4.875) (drill 4.875) (layers "F&B.Cu" "*.Mask") (tstamp 813297f1-fb05-4ece-8fd1-ac6be7b56a0e))
  (pad "" np_thru_hole circle (at 152 120 180) (size 4.875 4.875) (drill 4.875) (layers "F&B.Cu" "*.Mask") (tstamp fbabaca6-8cb8-43d0-8bbe-3c9ab48090bb))
  (pad "" np_thru_hole circle (at 160 0) (size 4.875 4.875) (drill 4.875) (layers "F&B.Cu" "*.Mask") (tstamp c67e12f1-1141-43f0-a87d-320dc226f8c6))
  (pad "" np_thru_hole circle (at 160 120 180) (size 4.875 4.875) (drill 4.875) (layers "F&B.Cu" "*.Mask") (tstamp f57cfbe1-07c8-44ee-a3b7-86abd4228d90))
  (pad "" np_thru_hole circle (at 168 0) (size 4.875 4.875) (drill 4.875) (layers "F&B.Cu" "*.Mask") (tstamp 8e690a0b-358e-4081-b32a-d59725f4b1d8))
  (pad "" np_thru_hole circle (at 168 120 180) (size 5.875 5.875) (drill 4.875) (layers "F&B.Cu" "*.Mask") (tstamp 902688cb-6fe1-4e25-90ce-534ebdee9a4c))
  (pad "" np_thru_hole circle (at 176 0) (size 4.875 4.875) (drill 4.875) (layers "F&B.Cu" "*.Mask") (tstamp ef9a2d9f-a6b2-438c-8c48-3331b81c97aa))
  (pad "" np_thru_hole circle (at 176 120 180) (size 5.875 5.875) (drill 4.875) (layers "F&B.Cu" "*.Mask") (tstamp e38723da-d826-42c6-bfeb-54e18e255224))
  (pad "" np_thru_hole circle (at 184 0) (size 4.875 4.875) (drill 4.875) (layers "F&B.Cu" "*.Mask") (tstamp ce93024c-a844-48a9-ac8f-aa4303552862))
  (pad "" np_thru_hole circle (at 184 120 180) (size 5.875 5.875) (drill 4.875) (layers "F&B.Cu" "*.Mask") (tstamp 93304dfa-18bd-4f5c-8911-a32d2ee26905))
  (pad "" np_thru_hole circle (at 192 0) (size 4.875 4.875) (drill 4.875) (layers "F&B.Cu" "*.Mask") (tstamp 20fb876e-da93-4907-9a91-ee0c46e7bf5f))
  (pad "" np_thru_hole circle (at 192 120 180) (size 5.875 5.875) (drill 4.875) (layers "F&B.Cu" "*.Mask") (tstamp b2b0718a-87a3-46bf-b31c-4595487b1477))
  (pad "" np_thru_hole circle (at 200 0) (size 4.875 4.875) (drill 4.875) (layers "F&B.Cu" "*.Mask") (tstamp 9af5117d-6221-46c6-8c5c-1547b34dfa43))
  (pad "" np_thru_hole circle (at 200 120 180) (size 5.875 5.875) (drill 4.875) (layers "F&B.Cu" "*.Mask") (tstamp d4472721-f9d5-4d11-a320-7e821c246844))
  (pad "" np_thru_hole circle (at 208 0) (size 4.875 4.875) (drill 4.875) (layers "F&B.Cu" "*.Mask") (tstamp aeaace36-026e-4627-82f4-4e36361abd2f))
  (pad "" np_thru_hole circle (at 208 120 180) (size 5.875 5.875) (drill 4.875) (layers "F&B.Cu" "*.Mask") (tstamp 6cbe8be1-f46a-41f6-a3cd-03f7648b7224))
  (pad "" np_thru_hole circle (at 216 0) (size 4.875 4.875) (drill 4.875) (layers "F&B.Cu" "*.Mask") (tstamp 253f1589-5fb1-428c-bbf7-a3b0dd902b2e))
  (pad "" np_thru_hole circle (at 216 120 180) (size 4.875 4.875) (drill 4.875) (layers "F&B.Cu" "*.Mask") (tstamp f580fe73-261c-4747-91be-91df8c929ad9))
  (pad "" np_thru_hole circle (at 224 0) (size 5.875 5.875) (drill 4.875) (layers "F&B.Cu" "*.Mask") (tstamp 174551c8-cb5e-4c33-9d30-56056adedd5e))
  (pad "" np_thru_hole circle (at 224 120 180) (size 4.875 4.875) (drill 4.875) (layers "F&B.Cu" "*.Mask") (tstamp 40a0c269-87c3-4b13-98db-4bdc51039035))
  (pad "" np_thru_hole circle (at 232 0) (size 4.875 4.875) (drill 4.875) (layers "F&B.Cu" "*.Mask") (tstamp bfe202be-4880-48d1-8bde-7b0f64321e48))
  (pad "" np_thru_hole circle (at 232 120 180) (size 5.875 5.875) (drill 4.875) (layers "F&B.Cu" "*.Mask") (tstamp 4e805cc1-bed9-4f9c-a62b-635d4bd6decb))
  (pad "" np_thru_hole circle (at 240 0) (size 5.875 5.875) (drill 4.875) (layers "F&B.Cu" "*.Mask") (tstamp 0b53f887-05e4-4473-b3dc-9780384c0a35))
  (pad "" np_thru_hole circle (at 240 120 180) (size 5.875 5.875) (drill 4.875) (layers "F&B.Cu" "*.Mask") (tstamp dae39445-3a25-4fea-b8df-5fa71d6b3217))
  (pad "" np_thru_hole circle (at 248 0) (size 5.875 5.875) (drill 4.875) (layers "F&B.Cu" "*.Mask") (tstamp 8a0063fb-af8a-49da-ba36-bd052fddedeb))
  (pad "" np_thru_hole circle (at 248 8) (size 4.875 4.875) (drill 4.875) (layers "F&B.Cu" "*.Mask") (tstamp d34e59e5-448b-4813-9452-ae9c9d679387))
  (pad "" np_thru_hole circle (at 248 16) (size 4.875 4.875) (drill 4.875) (layers "F&B.Cu" "*.Mask") (tstamp 63aaa9f7-1a99-42e1-a079-981c6ac1936f))
  (pad "" np_thru_hole circle (at 248 24) (size 4.875 4.875) (drill 4.875) (layers "F&B.Cu" "*.Mask") (tstamp 1593bd67-61d3-41e8-9fe1-ab45fa60458e))
  (pad "" np_thru_hole circle (at 248 32) (size 4.875 4.875) (drill 4.875) (layers "F&B.Cu" "*.Mask") (tstamp 0e072739-e9eb-4c8f-99fa-683c17ef3141))
  (pad "" np_thru_hole circle (at 248 40) (size 4.875 4.875) (drill 4.875) (layers "F&B.Cu" "*.Mask") (tstamp 6bd5fc3c-5b9c-43ec-8f9a-237449c1e6e8))
  (pad "" np_thru_hole circle (at 248 48) (size 4.875 4.875) (drill 4.875) (layers "F&B.Cu" "*.Mask") (tstamp 6411988e-b5bd-4858-bfa3-d46833c7651a))
  (pad "" np_thru_hole circle (at 248 56) (size 4.875 4.875) (drill 4.875) (layers "F&B.Cu" "*.Mask") (tstamp 2ec623e1-ba3f-485a-b461-b8415a368f30))
  (pad "" np_thru_hole circle (at 248 64) (size 4.875 4.875) (drill 4.875) (layers "F&B.Cu" "*.Mask") (tstamp 56216c02-3f0c-43c5-b119-56ff41e8746e))
  (pad "" np_thru_hole circle (at 248 72) (size 4.875 4.875) (drill 4.875) (layers "F&B.Cu" "*.Mask") (tstamp ebad1b2d-c6a8-46bd-b128-12346935efb2))
  (pad "" np_thru_hole circle (at 248 80) (size 4.875 4.875) (drill 4.875) (layers "F&B.Cu" "*.Mask") (tstamp 7c0ddd68-a616-42ff-a314-50c870c5924b))
  (pad "" np_thru_hole circle (at 248 88) (size 4.875 4.875) (drill 4.875) (layers "F&B.Cu" "*.Mask") (tstamp c01fae78-9ffe-4413-a9ec-5957ed657145))
  (pad "" np_thru_hole circle (at 248 96) (size 4.875 4.875) (drill 4.875) (layers "F&B.Cu" "*.Mask") (tstamp 5748c687-c677-49cb-bf32-2f243f7771a1))
  (pad "" np_thru_hole circle (at 248 104) (size 4.875 4.875) (drill 4.875) (layers "F&B.Cu" "*.Mask") (tstamp 8846086c-d5bb-4c72-9b9e-c615edd7885a))
  (pad "" np_thru_hole circle (at 248 112) (size 4.875 4.875) (drill 4.875) (layers "F&B.Cu" "*.Mask") (tstamp 61c19179-d0d1-4f0a-a9ff-46aec995f610))
  (pad "" np_thru_hole circle (at 248 120 270) (size 5.875 5.875) (drill 4.875) (layers "F&B.Cu" "*.Mask") (tstamp b00b5c59-0516-4d05-8ca4-8afe109ee831))
)
