(footprint "LegoHole_1u_4875_corner" (version 20211014) (generator pcbnew)
  (layer "F.Cu")
  (tedit 61D86E9B)
  (descr "Mounting Hole 4.9mm, no annular")
  (tags "mounting hole 4.9mm, no annular")
  (property "Sheetfile" "m65.kicad_sch")
  (property "Sheetname" "")
  (attr exclude_from_pos_files exclude_from_bom)
  (fp_text reference "H?" (at 2.794 3.048) (layer "F.SilkS") hide
    (effects (font (size 1 1) (thickness 0.15)))
    (tstamp 48093584-e6d1-41cf-8ecd-fd4b2710fe7a)
  )
  (fp_text value "MountingHole" (at 0 5) (layer "F.Fab") hide
    (effects (font (size 1 1) (thickness 0.15)))
    (tstamp 7c65f2ea-b53e-42ce-89d6-b9f96fa43a98)
  )
  (fp_text user "${REFERENCE}" (at 0.3 0) (layer "F.Fab")
    (effects (font (size 1 1) (thickness 0.15)))
    (tstamp 423dca81-438a-4a92-a502-8495bed4f42e)
  )
  (fp_line (start 0 -3.95) (end -3.95 -3.95) (layer "F.SilkS") (width 0.1) (tstamp 002f72d7-90ce-49f1-bbb2-4888f8098ed2))
  (fp_line (start -3.95 -3.95) (end -3.95 3.95) (layer "F.SilkS") (width 0.1) (tstamp 2d15ee66-a51a-453b-9c18-9f8ba83b0fb6))
  (fp_line (start -3.95 3.95) (end 3.95 3.95) (layer "F.SilkS") (width 0.1) (tstamp a0851c38-694d-4775-bffe-7990bb5349bf))
  (fp_line (start 3.95 0) (end 3.95 3.95) (layer "F.SilkS") (width 0.1) (tstamp fc484a8e-a865-46ab-8d76-aee50748776e))
  (fp_arc (start 0 -3.95) (mid 2.793072 -2.793072) (end 3.95 0) (layer "F.SilkS") (width 0.1) (tstamp 53567dd1-2125-40ab-9ba3-c98c0bfeb32c))
  (fp_line (start 3.9 3.9) (end -3.9 3.9) (layer "F.CrtYd") (width 0.12) (tstamp 2bfbe40e-e229-46b2-9db2-0a7fe6870338))
  (fp_line (start -3.9 -3.9) (end 0 -3.9) (layer "F.CrtYd") (width 0.12) (tstamp 45c0d54c-511d-43aa-b3b9-0411af0c88d1))
  (fp_line (start -3.9 -3.9) (end -3.9 3.9) (layer "F.CrtYd") (width 0.12) (tstamp 4625ce41-79ec-4541-bacd-a0ecc308f98c))
  (fp_line (start 3.9 3.9) (end 3.9 0) (layer "F.CrtYd") (width 0.12) (tstamp 6ba6f75a-983f-4f6e-8247-164fa6c6cf39))
  (fp_arc (start 0 -3.9) (mid 2.757716 -2.757716) (end 3.9 0) (layer "F.CrtYd") (width 0.12) (tstamp 5fa4dc6d-a2f5-4a69-80bd-73962d63abe4))
  (pad "" np_thru_hole circle (at 0 0) (size 4.875 4.875) (drill 4.875) (layers F&B.Cu *.Mask) (tstamp 74e62f8f-ca0c-4f3c-9f65-19e16a1e775d))
)
