(footprint "LegoHole_15u_4875" (version 20211014) (generator pcbnew)
  (layer "F.Cu")
  (tedit 61D86E9B)
  (descr "Mounting Hole 4.9mm, no annular")
  (tags "mounting hole 4.9mm, no annular")
  (property "Sheetfile" "m65.kicad_sch")
  (property "Sheetname" "")
  (attr exclude_from_pos_files exclude_from_bom)
  (fp_text reference "H?" (at 2.794 3.048) (layer "F.SilkS") hide
    (effects (font (size 1 1) (thickness 0.15)))
    (tstamp 48093584-e6d1-41cf-8ecd-fd4b2710fe7a)
  )
  (fp_text value "MountingHole" (at -5.08 2.54 90) (layer "F.Fab") hide
    (effects (font (size 1 1) (thickness 0.15)))
    (tstamp 7c65f2ea-b53e-42ce-89d6-b9f96fa43a98)
  )
  (fp_text user "${REFERENCE}" (at 0.3 8) (layer "F.Fab")
    (effects (font (size 1 1) (thickness 0.15)))
    (tstamp 004fb985-7c81-4b88-adba-108a453c35f2)
  )
  (fp_text user "${REFERENCE}" (at 0.3 96) (layer "F.Fab")
    (effects (font (size 1 1) (thickness 0.15)))
    (tstamp 1870b4d0-a876-410f-98cf-78b6ba00d9d1)
  )
  (fp_text user "${REFERENCE}" (at 0.3 40) (layer "F.Fab")
    (effects (font (size 1 1) (thickness 0.15)))
    (tstamp 2433c99d-b6df-4334-8580-786fdb5e8290)
  )
  (fp_text user "${REFERENCE}" (at 0.3 80) (layer "F.Fab")
    (effects (font (size 1 1) (thickness 0.15)))
    (tstamp 3019a3b3-ff0f-4f9c-8a2e-be6c7c1ed3dc)
  )
  (fp_text user "${REFERENCE}" (at 0.3 48) (layer "F.Fab")
    (effects (font (size 1 1) (thickness 0.15)))
    (tstamp 3a7cf5a0-379e-45b3-9fe2-fb57aea0b4c9)
  )
  (fp_text user "${REFERENCE}" (at 0.3 0) (layer "F.Fab")
    (effects (font (size 1 1) (thickness 0.15)))
    (tstamp 423dca81-438a-4a92-a502-8495bed4f42e)
  )
  (fp_text user "${REFERENCE}" (at 0.3 64) (layer "F.Fab")
    (effects (font (size 1 1) (thickness 0.15)))
    (tstamp 4657149b-faa9-40f7-8846-481089b84540)
  )
  (fp_text user "${REFERENCE}" (at 0.3 16) (layer "F.Fab")
    (effects (font (size 1 1) (thickness 0.15)))
    (tstamp 5553eac0-d63d-4af0-8579-44a819aa8bfe)
  )
  (fp_text user "${REFERENCE}" (at 0.3 -8) (layer "F.Fab")
    (effects (font (size 1 1) (thickness 0.15)))
    (tstamp 5f59f45b-10cd-42a1-a2ac-05037084b608)
  )
  (fp_text user "${REFERENCE}" (at 0.3 32) (layer "F.Fab")
    (effects (font (size 1 1) (thickness 0.15)))
    (tstamp b95336f5-cf25-4695-848c-63446dd3dca0)
  )
  (fp_text user "${REFERENCE}" (at 0.3 88) (layer "F.Fab")
    (effects (font (size 1 1) (thickness 0.15)))
    (tstamp bdcc005f-adc8-4471-ab1d-d1e29c186407)
  )
  (fp_text user "${REFERENCE}" (at 0.3 56) (layer "F.Fab")
    (effects (font (size 1 1) (thickness 0.15)))
    (tstamp c7958f39-b1f2-491d-8dcd-9f5eb2aab5b2)
  )
  (fp_text user "${REFERENCE}" (at 0.3 104) (layer "F.Fab")
    (effects (font (size 1 1) (thickness 0.15)))
    (tstamp dd6ae4e8-341c-4706-bccc-32a4bd950499)
  )
  (fp_text user "${REFERENCE}" (at 0.3 24) (layer "F.Fab")
    (effects (font (size 1 1) (thickness 0.15)))
    (tstamp e1211b41-bc0c-431f-b7fc-adbf9cd5b34d)
  )
  (fp_text user "${REFERENCE}" (at 0.3 72) (layer "F.Fab")
    (effects (font (size 1 1) (thickness 0.15)))
    (tstamp e8a02546-da9f-4af9-8327-47e1523a23b2)
  )
  (fp_line (start -3.95 -4.05) (end 3.95 -4.05) (layer "F.SilkS") (width 0.1) (tstamp 1fddcea8-86c6-4e04-a33f-85988e20cc59))
  (fp_line (start 0 -11.95) (end -3.95 -11.95) (layer "F.SilkS") (width 0.1) (tstamp 5dbcbe3c-4dd0-4822-b4db-2f9610f49598))
  (fp_line (start 3.95 -8) (end 3.95 -4.05) (layer "F.SilkS") (width 0.1) (tstamp 806bd032-2eb0-43f9-b051-28abdb2ce0c5))
  (fp_line (start -3.95 -11.95) (end -3.95 -4.05) (layer "F.SilkS") (width 0.1) (tstamp eb8196d0-98b5-4a7e-8bed-aa2b73bf8dc9))
  (fp_rect (start -3.95 92.05) (end 3.95 99.95) (layer "F.SilkS") (width 0.1) (fill none) (tstamp 142e7025-6c69-4100-bd05-24f0dd512c4d))
  (fp_rect (start -3.95 44.05) (end 3.95 51.95) (layer "F.SilkS") (width 0.1) (fill none) (tstamp 143e85bd-770a-46cb-8b61-0d4e786ab378))
  (fp_rect (start -3.95 68.05) (end 3.95 75.95) (layer "F.SilkS") (width 0.1) (fill none) (tstamp 1a69516b-612f-4730-8a9e-aaaa4170e572))
  (fp_rect (start -3.95 28.05) (end 3.95 35.95) (layer "F.SilkS") (width 0.1) (fill none) (tstamp 1d23ff33-f393-4aae-ac44-65f211f63c25))
  (fp_rect (start -3.95 36.05) (end 3.95 43.95) (layer "F.SilkS") (width 0.1) (fill none) (tstamp 3cbf0422-9221-464f-8c09-ef005b88ff34))
  (fp_rect (start -3.95 4.05) (end 3.95 11.95) (layer "F.SilkS") (width 0.1) (fill none) (tstamp 3d919d57-760d-44ff-820b-0c13c7d5d88a))
  (fp_rect (start -3.95 20.05) (end 3.95 27.95) (layer "F.SilkS") (width 0.1) (fill none) (tstamp 40a65b78-71b6-4775-a5c2-96a92efb0eb6))
  (fp_rect (start -3.95 100.05) (end 3.95 107.95) (layer "F.SilkS") (width 0.1) (fill none) (tstamp 45d3f647-bee3-432a-8da6-c93bae3abf31))
  (fp_rect (start -3.95 52.05) (end 3.95 59.95) (layer "F.SilkS") (width 0.1) (fill none) (tstamp 45f5d813-39db-44bc-9082-4d364c1a14b1))
  (fp_rect (start -3.95 -3.95) (end 3.95 3.95) (layer "F.SilkS") (width 0.1) (fill none) (tstamp a3d29f22-0e01-4390-a292-bea1307b00b2))
  (fp_rect (start -3.95 12.05) (end 3.95 19.95) (layer "F.SilkS") (width 0.1) (fill none) (tstamp c33d7a33-1c61-40b2-ad15-ed51f1244423))
  (fp_rect (start -3.95 76.05) (end 3.95 83.95) (layer "F.SilkS") (width 0.1) (fill none) (tstamp ed4e1d49-67d9-4868-8d02-680ec3b4a83a))
  (fp_rect (start -3.95 60.05) (end 3.95 67.95) (layer "F.SilkS") (width 0.1) (fill none) (tstamp f5bcf5ac-5b98-46c4-9393-5731f2e3e05a))
  (fp_rect (start -3.95 84.05) (end 3.95 91.95) (layer "F.SilkS") (width 0.1) (fill none) (tstamp fe21f163-0910-4159-8d2a-74cf81cbf3a9))
  (fp_arc (start 0 -11.95) (mid 2.793072 -10.793072) (end 3.95 -8) (layer "F.SilkS") (width 0.1) (tstamp 26013d8f-9a2c-4bf9-af1f-37cc51987213))
  (fp_line (start 3.9 107.9) (end 3.9 -8) (layer "F.CrtYd") (width 0.12) (tstamp 8c31ddd8-03ae-4b6a-b020-f48f083cb39d))
  (fp_line (start -3.9 107.9) (end 3.9 107.9) (layer "F.CrtYd") (width 0.12) (tstamp c2e9c3ee-e6d8-4b44-9031-70406f1650e6))
  (fp_line (start -3.9 -11.9) (end -3.9 107.9) (layer "F.CrtYd") (width 0.12) (tstamp f43aa4a8-d8a7-49b3-bb79-1475102a9c23))
  (fp_line (start -3.9 -11.9) (end 0 -11.9) (layer "F.CrtYd") (width 0.12) (tstamp fe2acced-633b-4452-94b5-e659d3a428ac))
  (fp_arc (start 0 -11.9) (mid 2.757716 -10.757716) (end 3.9 -8) (layer "F.CrtYd") (width 0.12) (tstamp c74975a5-eb38-424f-910c-3df7d02ad100))
  (pad "" np_thru_hole circle (at 0 8) (size 4.875 4.875) (drill 4.875) (layers F&B.Cu *.Mask) (tstamp 019a8c19-d740-4519-a77e-a8d4a5782e83))
  (pad "" np_thru_hole circle (at 0 104) (size 4.875 4.875) (drill 4.875) (layers F&B.Cu *.Mask) (tstamp 064789b4-40d6-4fa4-b2e6-b9bc82759f6e))
  (pad "" np_thru_hole circle (at 0 -8) (size 4.875 4.875) (drill 4.875) (layers F&B.Cu *.Mask) (tstamp 13e92e26-715c-464e-987e-32e6f43ee2cf))
  (pad "" np_thru_hole circle (at 0 88) (size 4.875 4.875) (drill 4.875) (layers F&B.Cu *.Mask) (tstamp 1d0fa4f5-21ca-4cd1-b940-b048837d17b8))
  (pad "" np_thru_hole circle (at 0 80) (size 4.875 4.875) (drill 4.875) (layers F&B.Cu *.Mask) (tstamp 1d3faad3-0fbf-4368-8a04-c1d4dee33eba))
  (pad "" np_thru_hole circle (at 0 24) (size 4.875 4.875) (drill 4.875) (layers F&B.Cu *.Mask) (tstamp 360eaeeb-ae26-4cf6-b8d7-a19e930026f4))
  (pad "" np_thru_hole circle (at 0 0) (size 4.875 4.875) (drill 4.875) (layers F&B.Cu *.Mask) (tstamp 74e62f8f-ca0c-4f3c-9f65-19e16a1e775d))
  (pad "" np_thru_hole circle (at 0 32) (size 4.875 4.875) (drill 4.875) (layers F&B.Cu *.Mask) (tstamp 7fab8ca2-220c-4cb3-a00f-f3d95faec0ea))
  (pad "" np_thru_hole circle (at 0 64) (size 4.875 4.875) (drill 4.875) (layers F&B.Cu *.Mask) (tstamp a1146acd-238f-4ac6-be18-87292cce5af4))
  (pad "" np_thru_hole circle (at 0 48) (size 4.875 4.875) (drill 4.875) (layers F&B.Cu *.Mask) (tstamp a21e003a-9a16-4c42-b6f2-91bd5295b1b6))
  (pad "" np_thru_hole circle (at 0 56) (size 4.875 4.875) (drill 4.875) (layers F&B.Cu *.Mask) (tstamp b29c7f98-81ba-44fc-be5a-6135ff050dc7))
  (pad "" np_thru_hole circle (at 0 72) (size 4.875 4.875) (drill 4.875) (layers F&B.Cu *.Mask) (tstamp ba7371a1-70a3-43d6-874d-d977bc9aa578))
  (pad "" np_thru_hole circle (at 0 40) (size 4.875 4.875) (drill 4.875) (layers F&B.Cu *.Mask) (tstamp c812bb1d-24e6-4eee-a43f-9d26d99c36c7))
  (pad "" np_thru_hole circle (at 0 96) (size 4.875 4.875) (drill 4.875) (layers F&B.Cu *.Mask) (tstamp e0eb63d1-b574-4df7-b273-da8dbffc84ab))
  (pad "" np_thru_hole circle (at 0 16) (size 4.875 4.875) (drill 4.875) (layers F&B.Cu *.Mask) (tstamp e73056ad-b070-421d-9a17-0de5bf6fb160))
)
