(module "SHDR16W66P0X254_1X16_4554X483X693P" (layer F.Cu)
  (descr "HEADER 1X16")
  (tags "Integrated Circuit")
  (fp_text reference IC** (at 0 0) (layer F.SilkS)
    (effects (font (size 1.27 1.27) (thickness 0.254)))
  )
  (fp_text user %R (at 0 0) (layer F.Fab)
    (effects (font (size 1.27 1.27) (thickness 0.254)))
  )
  (fp_text value "SHDR16W66P0X254_1X16_4554X483X693P" (at 0 0) (layer F.SilkS) hide
    (effects (font (size 1.27 1.27) (thickness 0.254)))
  )
  (fp_line (start -3.93 2.12) (end -3.93 -3.21) (layer F.CrtYd) (width 0.05))
  (fp_line (start -3.93 -3.21) (end 42.11 -3.21) (layer F.CrtYd) (width 0.05))
  (fp_line (start 42.11 -3.21) (end 42.11 2.12) (layer F.CrtYd) (width 0.05))
  (fp_line (start 42.11 2.12) (end -3.93 2.12) (layer F.CrtYd) (width 0.05))
  (fp_line (start -3.68 1.87) (end -3.68 -2.96) (layer F.Fab) (width 0.1))
  (fp_line (start -3.68 -2.96) (end 41.86 -2.96) (layer F.Fab) (width 0.1))
  (fp_line (start 41.86 -2.96) (end 41.86 1.87) (layer F.Fab) (width 0.1))
  (fp_line (start 41.86 1.87) (end -3.68 1.87) (layer F.Fab) (width 0.1))
  (fp_line (start 0 1.87) (end 41.86 1.87) (layer F.SilkS) (width 0.2))
  (fp_line (start 41.86 1.87) (end 41.86 -2.96) (layer F.SilkS) (width 0.2))
  (fp_line (start 41.86 -2.96) (end -3.68 -2.96) (layer F.SilkS) (width 0.2))
  (fp_line (start -3.68 -2.96) (end -3.68 0) (layer F.SilkS) (width 0.2))
  (pad 1 thru_hole rect (at 0 0) (size 1.725 1.725) (drill 1.15) (layers *.Cu *.Mask))
  (pad 2 thru_hole circle (at 2.54 0) (size 1.725 1.725) (drill 1.15) (layers *.Cu *.Mask))
  (pad 3 thru_hole circle (at 5.08 0) (size 1.725 1.725) (drill 1.15) (layers *.Cu *.Mask))
  (pad 4 thru_hole circle (at 7.62 0) (size 1.725 1.725) (drill 1.15) (layers *.Cu *.Mask))
  (pad 5 thru_hole circle (at 10.16 0) (size 1.725 1.725) (drill 1.15) (layers *.Cu *.Mask))
  (pad 6 thru_hole circle (at 12.7 0) (size 1.725 1.725) (drill 1.15) (layers *.Cu *.Mask))
  (pad 7 thru_hole circle (at 15.24 0) (size 1.725 1.725) (drill 1.15) (layers *.Cu *.Mask))
  (pad 8 thru_hole circle (at 17.78 0) (size 1.725 1.725) (drill 1.15) (layers *.Cu *.Mask))
  (pad 9 thru_hole circle (at 20.32 0) (size 1.725 1.725) (drill 1.15) (layers *.Cu *.Mask))
  (pad 10 thru_hole circle (at 22.86 0) (size 1.725 1.725) (drill 1.15) (layers *.Cu *.Mask))
  (pad 11 thru_hole circle (at 25.4 0) (size 1.725 1.725) (drill 1.15) (layers *.Cu *.Mask))
  (pad 12 thru_hole circle (at 27.94 0) (size 1.725 1.725) (drill 1.15) (layers *.Cu *.Mask))
  (pad 13 thru_hole circle (at 30.48 0) (size 1.725 1.725) (drill 1.15) (layers *.Cu *.Mask))
  (pad 14 thru_hole circle (at 33.02 0) (size 1.725 1.725) (drill 1.15) (layers *.Cu *.Mask))
  (pad 15 thru_hole circle (at 35.56 0) (size 1.725 1.725) (drill 1.15) (layers *.Cu *.Mask))
  (pad 16 thru_hole circle (at 38.1 0) (size 1.725 1.725) (drill 1.15) (layers *.Cu *.Mask))
  (model 6-520315-6.stp
    (at (xyz 0.751574809157 0.029133858643179 0.26771654294232))
    (scale (xyz 1 1 1))
    (rotate (xyz 0 0 0))
  )
)
