(footprint "R_10k" (version 20211014) (generator pcbnew)
  (layer "F.Cu")
  (tedit 61D96B08)
  (descr "Resistor, Axial_DIN0207 series, Axial, Horizontal, pin pitch=7.62mm, 0.25W = 1/4W, length*diameter=6.3*2.5mm^2, http://cdn-reichelt.de/documents/datenblatt/B400/1_4W%23YAG.pdf")
  (tags "Resistor Axial_DIN0207 series Axial Horizontal pin pitch 7.62mm 0.25W = 1/4W length 6.3mm diameter 2.5mm")
  (property "Sheetfile" "m65.kicad_sch")
  (property "Sheetname" "")
  (attr through_hole)
  (fp_text reference "R*" (at 3.81 -2.37) (layer "F.SilkS")
    (effects (font (size 1 1) (thickness 0.15)))
    (tstamp eb8dd6ee-92d5-4e4a-a52b-d4bca3d74eec)
  )
  (fp_text value "10kΩ" (at 6.225 2.35) (layer "F.SilkS")
    (effects (font (size 1 1) (thickness 0.15)))
    (tstamp 2fc727a1-ec81-47ac-a10d-f19fac44bdc1)
  )
  (fp_text user "${REFERENCE}" (at -2.35 0.075) (layer "B.SilkS")
    (effects (font (size 1 1) (thickness 0.15)) (justify mirror))
    (tstamp a418c87e-bcff-4bdb-aa0a-5e50988165e1)
  )
  (fp_text user "${VALUE}" (at 3.925 0.1) (layer "B.SilkS")
    (effects (font (size 1 1) (thickness 0.15)) (justify mirror))
    (tstamp c3c17bda-5afa-4898-9c2b-0860b7953e43)
  )
  (fp_text user "${REFERENCE}" (at 3.81 0) (layer "F.Fab")
    (effects (font (size 1 1) (thickness 0.15)))
    (tstamp 83d3a76a-7641-4a2f-b9cf-05755d1ca251)
  )
  (fp_line (start 0.54 1.04) (end 0.54 1.37) (layer "F.SilkS") (width 0.12) (tstamp 53a6e721-de6a-4932-a8a2-3981683fdfe9))
  (fp_line (start 0.54 -1.04) (end 0.54 -1.37) (layer "F.SilkS") (width 0.12) (tstamp 76ab09bc-ba3a-40a2-9aa0-cc651d4cd521))
  (fp_line (start 0.54 1.37) (end 7.08 1.37) (layer "F.SilkS") (width 0.12) (tstamp 80c49738-9c57-468d-8c66-d689b90578e8))
  (fp_line (start 7.08 1.37) (end 7.08 1.04) (layer "F.SilkS") (width 0.12) (tstamp 85c1c7fe-c5a2-4768-a24d-d0d4e31516b7))
  (fp_line (start 0.54 -1.37) (end 7.08 -1.37) (layer "F.SilkS") (width 0.12) (tstamp 9613a055-3839-48ad-82b7-abf795883c36))
  (fp_line (start 7.08 -1.37) (end 7.08 -1.04) (layer "F.SilkS") (width 0.12) (tstamp a797571b-c48b-4cc0-9722-a9d0778173a6))
  (fp_line (start -1.05 -1.5) (end -1.05 1.5) (layer "F.CrtYd") (width 0.05) (tstamp 141e52b1-0979-4a0b-8d96-c5d6ec1e19be))
  (fp_line (start 8.67 1.5) (end 8.67 -1.5) (layer "F.CrtYd") (width 0.05) (tstamp 30856079-954d-4209-96ee-90bd6187a7be))
  (fp_line (start -1.05 1.5) (end 8.67 1.5) (layer "F.CrtYd") (width 0.05) (tstamp ab8c7ff8-e06c-422b-b116-3dc30da3b3f0))
  (fp_line (start 8.67 -1.5) (end -1.05 -1.5) (layer "F.CrtYd") (width 0.05) (tstamp cbb15f99-25ff-4aa2-ad74-d5bab78c25ff))
  (fp_line (start 0.66 -1.25) (end 0.66 1.25) (layer "F.Fab") (width 0.1) (tstamp 04c0f500-47b0-4a0b-bfcc-e318150ed8ca))
  (fp_line (start 0.66 1.25) (end 6.96 1.25) (layer "F.Fab") (width 0.1) (tstamp 169c9d17-110b-4c3b-b53f-722f145c0857))
  (fp_line (start 6.96 1.25) (end 6.96 -1.25) (layer "F.Fab") (width 0.1) (tstamp 32f132ff-80c0-4615-8075-f789076e3197))
  (fp_line (start 7.62 0) (end 6.96 0) (layer "F.Fab") (width 0.1) (tstamp c2c8eb7e-4eea-4397-942e-898a8c7bc181))
  (fp_line (start 6.96 -1.25) (end 0.66 -1.25) (layer "F.Fab") (width 0.1) (tstamp e5d46bef-f282-4fcc-8ce6-3136738d0a09))
  (fp_line (start 0 0) (end 0.66 0) (layer "F.Fab") (width 0.1) (tstamp e97c08c8-0da9-44a3-bb99-f752a9582f83))
  (pad "1" thru_hole circle (at 0 0) (size 1.6 1.6) (drill 0.8) (layers *.Cu *.Mask) (tstamp 6f59484a-19b1-492e-aab0-589ef2fe1a7e))
  (pad "2" thru_hole oval (at 7.62 0) (size 1.6 1.6) (drill 0.8) (layers *.Cu *.Mask) (tstamp f4bffb85-e23a-49af-a199-0d4c4011350b))
  (model "/home/drFaustroll/playground/keyboard/m65/m65-pcb/packages3d/resistors/R103.wrl"
    (offset (xyz 3.75 0 0))
    (scale (xyz 1 1 1))
    (rotate (xyz 0 0 0))
  )
)
