(footprint "RotaryEncoder_Alps_EC11E_Vertical_H20mm"
	(version 20240108)
	(generator "pcbnew")
	(generator_version "8.0")
	(layer "F.Cu")
	(descr "Alps rotary encoder, EC12E... without switch (pins are dummy), vertical shaft, http://www.alps.com/prod/info/E/HTML/Encoder/Incremental/EC11/EC11E15204A3.html")
	(tags "rotary encoder")
	(property "Reference" "SW?"
		(at 9.01 0.04 -90)
		(layer "F.SilkS")
		(uuid "8ca966d4-c762-440a-a950-a1472c06f5d9")
		(effects
			(font
				(size 1 1)
				(thickness 0.15)
			)
		)
	)
	(property "Value" "Rotary_Encoder"
		(at 7.5 10.4 180)
		(layer "F.Fab")
		(hide yes)
		(uuid "7f8d920c-fb22-451c-af13-528b17e1b3d3")
		(effects
			(font
				(size 1 1)
				(thickness 0.15)
			)
		)
	)
	(property "Footprint" ""
		(at 0 0 0)
		(unlocked yes)
		(layer "F.Fab")
		(hide yes)
		(uuid "4a4d9ee5-3a21-4e4e-86e2-256c6bdd6583")
		(effects
			(font
				(size 1.27 1.27)
			)
		)
	)
	(property "Datasheet" ""
		(at 0 0 0)
		(unlocked yes)
		(layer "F.Fab")
		(hide yes)
		(uuid "30192e95-e6f7-45d6-b579-29cf9b6dccd6")
		(effects
			(font
				(size 1.27 1.27)
			)
		)
	)
	(property "Description" ""
		(at 0 0 0)
		(unlocked yes)
		(layer "F.Fab")
		(hide yes)
		(uuid "20dcd6a3-ba01-4fa6-9dd0-1eccd8ab5656")
		(effects
			(font
				(size 1.27 1.27)
			)
		)
	)
	(attr through_hole)
	(fp_rect
		(start -6.08 -5.77)
		(end 6.11 5.87)
		(stroke
			(width 0.12)
			(type solid)
		)
		(fill none)
		(layer "B.SilkS")
		(uuid "9f52dad6-8a62-444a-b5c4-d0f1f83c6cf5")
	)
	(fp_line
		(start -7.8 -4.1)
		(end -7.2 -4.1)
		(stroke
			(width 0.12)
			(type solid)
		)
		(layer "F.SilkS")
		(uuid "363a3797-c9f0-4011-9c28-5b6fcde50111")
	)
	(fp_line
		(start -7.5 -3.8)
		(end -7.8 -4.1)
		(stroke
			(width 0.12)
			(type solid)
		)
		(layer "F.SilkS")
		(uuid "d36bfbd4-d469-4b19-9149-1d1e294c636b")
	)
	(fp_line
		(start -7.2 -4.1)
		(end -7.5 -3.8)
		(stroke
			(width 0.12)
			(type solid)
		)
		(layer "F.SilkS")
		(uuid "f74c1147-0f6c-4852-95d4-43a254720c79")
	)
	(fp_line
		(start -6.1 -5.8)
		(end -6.1 5.9)
		(stroke
			(width 0.12)
			(type solid)
		)
		(layer "F.SilkS")
		(uuid "df607777-e0aa-430b-91e1-ca5304355939")
	)
	(fp_line
		(start -2 -5.8)
		(end -6.1 -5.8)
		(stroke
			(width 0.12)
			(type solid)
		)
		(layer "F.SilkS")
		(uuid "44bdb432-3315-4ea3-a110-09cfda5b937f")
	)
	(fp_line
		(start -2 5.9)
		(end -6.1 5.9)
		(stroke
			(width 0.12)
			(type solid)
		)
		(layer "F.SilkS")
		(uuid "d3743ed7-4c9c-4d31-b539-3bbf56050409")
	)
	(fp_line
		(start -0.5 0)
		(end 0.5 0)
		(stroke
			(width 0.12)
			(type solid)
		)
		(layer "F.SilkS")
		(uuid "8d5fad35-6dbd-450d-9dd9-c74c0d9caf4f")
	)
	(fp_line
		(start 0 -0.5)
		(end 0 0.5)
		(stroke
			(width 0.12)
			(type solid)
		)
		(layer "F.SilkS")
		(uuid "edbf6a98-4343-4cbf-907c-65ad17bc4805")
	)
	(fp_line
		(start 2 -5.9)
		(end 6.1 -5.9)
		(stroke
			(width 0.12)
			(type solid)
		)
		(layer "F.SilkS")
		(uuid "35a8d4cc-4bbc-49c6-8023-e7b98daa01b6")
	)
	(fp_line
		(start 6.1 -5.9)
		(end 6.1 -3.3)
		(stroke
			(width 0.12)
			(type solid)
		)
		(layer "F.SilkS")
		(uuid "fb12a6eb-e197-436e-985f-2b5a0d2b2711")
	)
	(fp_line
		(start 6.1 -1.3)
		(end 6.1 1.3)
		(stroke
			(width 0.12)
			(type solid)
		)
		(layer "F.SilkS")
		(uuid "3a4a57e1-b585-4938-941e-dbf75ba575c5")
	)
	(fp_line
		(start 6.1 3.3)
		(end 6.1 5.9)
		(stroke
			(width 0.12)
			(type solid)
		)
		(layer "F.SilkS")
		(uuid "81fbc598-7e3b-4e0f-81b9-a850c73127f2")
	)
	(fp_line
		(start 6.1 5.9)
		(end 2 5.9)
		(stroke
			(width 0.12)
			(type solid)
		)
		(layer "F.SilkS")
		(uuid "e03e61ca-23ea-46be-bad8-66ee27ce7be6")
	)
	(fp_circle
		(center 0 0)
		(end 3 0)
		(stroke
			(width 0.12)
			(type solid)
		)
		(fill none)
		(layer "F.SilkS")
		(uuid "f31cbe1f-a0c2-4b31-9201-0bf1f9088e78")
	)
	(fp_line
		(start -8.75 -6.85)
		(end -8.75 6.85)
		(stroke
			(width 0.05)
			(type solid)
		)
		(layer "F.CrtYd")
		(uuid "57b66c7e-962a-49b2-96fa-a27415f5cd50")
	)
	(fp_line
		(start -8.75 -6.85)
		(end 8 -6.85)
		(stroke
			(width 0.05)
			(type solid)
		)
		(layer "F.CrtYd")
		(uuid "3dcbf7e5-a780-40f8-9400-d5022a84b1cf")
	)
	(fp_line
		(start 8 6.85)
		(end -8.75 6.85)
		(stroke
			(width 0.05)
			(type solid)
		)
		(layer "F.CrtYd")
		(uuid "d77abb4e-9728-498d-9f77-c50ed71d858d")
	)
	(fp_line
		(start 8 6.85)
		(end 8 -6.85)
		(stroke
			(width 0.05)
			(type solid)
		)
		(layer "F.CrtYd")
		(uuid "7c3d73da-34fb-4fca-9cd8-57a55c78d834")
	)
	(fp_line
		(start -6 -4.7)
		(end -5 -5.8)
		(stroke
			(width 0.12)
			(type solid)
		)
		(layer "F.Fab")
		(uuid "a38dd7a0-2b9e-476c-b632-2907dd07a88d")
	)
	(fp_line
		(start -6 5.8)
		(end -6 -4.7)
		(stroke
			(width 0.12)
			(type solid)
		)
		(layer "F.Fab")
		(uuid "3a219f63-a938-472a-a309-90297373c1b9")
	)
	(fp_line
		(start -5 -5.8)
		(end 6 -5.8)
		(stroke
			(width 0.12)
			(type solid)
		)
		(layer "F.Fab")
		(uuid "b5253622-275c-488c-850c-108e624348e3")
	)
	(fp_line
		(start -3 0)
		(end 3 0)
		(stroke
			(width 0.12)
			(type solid)
		)
		(layer "F.Fab")
		(uuid "cf631920-d354-41ab-a93e-b83d0380f454")
	)
	(fp_line
		(start 0 -3)
		(end 0 3)
		(stroke
			(width 0.12)
			(type solid)
		)
		(layer "F.Fab")
		(uuid "4abe7c7b-24cc-41e9-b296-fdeac624ad3c")
	)
	(fp_line
		(start 6 -5.8)
		(end 6 5.8)
		(stroke
			(width 0.12)
			(type solid)
		)
		(layer "F.Fab")
		(uuid "4bcc5ae1-145e-46d7-92d5-d611a1d6baf6")
	)
	(fp_line
		(start 6 5.8)
		(end -6 5.8)
		(stroke
			(width 0.12)
			(type solid)
		)
		(layer "F.Fab")
		(uuid "4375774b-2b03-4e7b-8d7e-6daba59b99ac")
	)
	(fp_circle
		(center 0 0)
		(end 3 0)
		(stroke
			(width 0.12)
			(type solid)
		)
		(fill none)
		(layer "F.Fab")
		(uuid "ddffe3de-ff82-462e-846a-d76b238948c4")
	)
	(fp_text user "B"
		(at -7.5 4.375 0)
		(unlocked yes)
		(layer "B.SilkS")
		(uuid "12ba3272-c8a2-46bc-b62f-e692a8705dbc")
		(effects
			(font
				(size 1 1)
				(thickness 0.15)
			)
			(justify mirror)
		)
	)
	(fp_text user "${REFERENCE}"
		(at -4.96 0.1 -90)
		(layer "B.SilkS")
		(uuid "4f40c0de-6a9a-4731-ae3d-a8ca1b531afe")
		(effects
			(font
				(size 1 1)
				(thickness 0.15)
			)
			(justify mirror)
		)
	)
	(fp_text user "A"
		(at -7.5 -4.775 0)
		(unlocked yes)
		(layer "B.SilkS")
		(uuid "5a03eb11-0ab0-48f5-b863-cff7e86d26d8")
		(effects
			(font
				(size 1 1)
				(thickness 0.15)
			)
			(justify mirror)
		)
	)
	(fp_text user "${VALUE}"
		(at 5 -7.5 180)
		(layer "B.SilkS")
		(uuid "64c9c874-b57b-4f69-87e0-158fcec54e52")
		(effects
			(font
				(size 1 1)
				(thickness 0.15)
			)
			(justify mirror)
		)
	)
	(fp_text user "C"
		(at 7.5 -3.5 0)
		(unlocked yes)
		(layer "B.SilkS")
		(uuid "66bf1c10-e56b-4886-a556-b4c020ece3d1")
		(effects
			(font
				(size 1 1)
				(thickness 0.1)
			)
			(justify left bottom mirror)
		)
	)
	(fp_text user "R"
		(at 7.5 4.6 0)
		(unlocked yes)
		(layer "B.SilkS")
		(uuid "be71b954-ab1a-491b-b5a0-7070255688af")
		(effects
			(font
				(size 1 1)
				(thickness 0.1)
			)
			(justify left bottom mirror)
		)
	)
	(fp_text user "R"
		(at 6.45 4.63 0)
		(unlocked yes)
		(layer "F.SilkS")
		(uuid "1fe3eed9-a3d5-4115-9172-01f195eea5b5")
		(effects
			(font
				(size 1 1)
				(thickness 0.1)
			)
			(justify left bottom)
		)
	)
	(fp_text user "A"
		(at -7.5 -4.786 0)
		(unlocked yes)
		(layer "F.SilkS")
		(uuid "22535919-a00d-4859-88bb-638b3b3c67c6")
		(effects
			(font
				(size 1 1)
				(thickness 0.15)
			)
		)
	)
	(fp_text user "B"
		(at -7.5 4.358 0)
		(unlocked yes)
		(layer "F.SilkS")
		(uuid "65f5705c-b69a-4db9-a811-6b2b569610bc")
		(effects
			(font
				(size 1 1)
				(thickness 0.15)
			)
		)
	)
	(fp_text user "C"
		(at 6.5 -3.5 0)
		(unlocked yes)
		(layer "F.SilkS")
		(uuid "d95401d1-0875-4f85-aa3f-de0eb4862551")
		(effects
			(font
				(size 1 1)
				(thickness 0.1)
			)
			(justify left bottom)
		)
	)
	(fp_text user "${VALUE}"
		(at 5 -7.5 180)
		(layer "F.SilkS")
		(uuid "e1d06a21-6404-4294-ba03-dfcaacc9da64")
		(effects
			(font
				(size 1 1)
				(thickness 0.15)
			)
		)
	)
	(fp_text user "${REFERENCE}"
		(at 7.62 10.16 180)
		(layer "F.Fab")
		(hide yes)
		(uuid "53657ecb-eb18-424c-957c-7a8a38b84780")
		(effects
			(font
				(size 1 1)
				(thickness 0.15)
			)
		)
	)
	(pad "" thru_hole rect
		(at 0 -5.6)
		(size 3.2 2)
		(drill oval 2.8 1.5)
		(layers "*.Cu" "*.Mask")
		(remove_unused_layers no)
		(uuid "c08db16e-bbb7-4f02-9681-9df69e1be7d2")
	)
	(pad "" thru_hole rect
		(at 0 5.6)
		(size 3.2 2)
		(drill oval 2.8 1.5)
		(layers "*.Cu" "*.Mask")
		(remove_unused_layers no)
		(uuid "84c2ef8b-e7c5-4b1d-b4b8-a2afa75822dd")
	)
	(pad "A" thru_hole circle
		(at -7.5 -2.5)
		(size 2 2)
		(drill 1)
		(layers "*.Cu" "*.Mask")
		(remove_unused_layers no)
		(uuid "2c2c8d09-d28a-4c9d-abde-31c75b2fa5e0")
	)
	(pad "B" thru_hole circle
		(at -7.5 2.5)
		(size 2 2)
		(drill 1)
		(layers "*.Cu" "*.Mask")
		(remove_unused_layers no)
		(uuid "2d145cb5-1be0-477e-992b-b0e3ad13d954")
	)
	(pad "C" thru_hole roundrect
		(at -7.5 0)
		(size 2 2)
		(drill 1)
		(layers "*.Cu" "*.Mask")
		(remove_unused_layers no)
		(roundrect_rratio 0.25)
		(uuid "d80a4652-e7ed-4566-92f6-76a18cabb7d6")
	)
	(pad "S1" thru_hole circle
		(at 7 -2.5)
		(size 1.6 1.6)
		(drill 1)
		(layers "*.Cu" "*.Mask")
		(remove_unused_layers no)
		(uuid "c348a482-59e1-4a04-9d23-870f8d01839e")
	)
	(pad "S2" thru_hole circle
		(at 7 2.5)
		(size 1.5 1.5)
		(drill 1)
		(layers "*.Cu" "*.Mask")
		(remove_unused_layers no)
		(uuid "8d903c52-75f4-4ac9-baf0-065753b8eb4b")
	)
	(model "/home/drFaustroll/playground/keyboard/m65/m65-pcb/packages3d/EncoderKnob.step"
		(offset
			(xyz 0 0 14.5)
		)
		(scale
			(xyz 0.7 0.9 0.7)
		)
		(rotate
			(xyz -90 0 0)
		)
	)
	(model "/home/drFaustroll/playground/keyboard/m65/m65-pcb/packages3d/EC11E-nonSW.STEP"
		(offset
			(xyz 0 0 0)
		)
		(scale
			(xyz 1 1 1)
		)
		(rotate
			(xyz 0 0 90)
		)
	)
)