(footprint "RP2040-Zero-cut" (version 20221018) (generator pcbnew)
  (layer "F.Cu")
  (attr smd)
  (fp_text reference "REF**" (at 1.512823 -2.736845 unlocked) (layer "F.SilkS")
      (effects (font (size 1 1) (thickness 0.15)))
    (tstamp 4c9fdea7-ba0c-45cc-8f66-240980c37d5c)
  )
  (fp_text value "RP2040-Zero" (at 0.53 -7.52 unlocked) (layer "F.Fab")
      (effects (font (size 1 1) (thickness 0.15)))
    (tstamp c58960d9-4cac-4036-ad2e-1aef26946dae)
  )
  (fp_text user "gp1" (at 11.32 -8.25 -315 unlocked) (layer "B.SilkS")
      (effects (font (size 0.7 0.7) (thickness 0.1)) (justify left bottom mirror))
    (tstamp 0494040a-ccab-4c7b-88be-379be011b93f)
  )
  (fp_text user "gp27" (at -9.53 1.77 -315 unlocked) (layer "B.SilkS")
      (effects (font (size 0.7 0.7) (thickness 0.1)) (justify left bottom mirror))
    (tstamp 17643185-cb17-4b75-9d7e-b9d4592cfae6)
  )
  (fp_text user "gnd" (at -9.66 -7.65 unlocked) (layer "B.SilkS")
      (effects (font (size 0.7 0.7) (thickness 0.1)) (justify left bottom mirror))
    (tstamp 2220b6c4-6057-4f3c-b7c4-64636f978576)
  )
  (fp_text user "gp2" (at 11.42 -5.78 -315 unlocked) (layer "B.SilkS")
      (effects (font (size 0.7 0.7) (thickness 0.1)) (justify left bottom mirror))
    (tstamp 29e72015-18b3-4bec-9c5b-474e9d27339b)
  )
  (fp_text user "3V3" (at -9.63 -5.09 unlocked) (layer "B.SilkS")
      (effects (font (size 0.7 0.7) (thickness 0.1)) (justify left bottom mirror))
    (tstamp 3328f84b-ed00-43b4-bcc0-4c5a9caa0dd6)
  )
  (fp_text user "gp22" (at -2.699999 0.53 unlocked) (layer "B.SilkS")
      (effects (font (size 0.7 0.7) (thickness 0.1)) (justify left bottom mirror))
    (tstamp 34d99d21-4e7e-4760-8e3f-cdcaf30ff6cc)
  )
  (fp_text user "gp28" (at -9.61 -0.73 -315 unlocked) (layer "B.SilkS")
      (effects (font (size 0.7 0.7) (thickness 0.1)) (justify left bottom mirror))
    (tstamp 38a1a30c-2db4-42da-bf9b-d13d5903c86f)
  )
  (fp_text user "gp18" (at -2.699999 5.62 unlocked) (layer "B.SilkS")
      (effects (font (size 0.7 0.7) (thickness 0.1)) (justify left bottom mirror))
    (tstamp 483dea37-63f7-4a87-8b6a-fe8041e51826)
  )
  (fp_text user "gp8" (at 11.25 9.52 -315 unlocked) (layer "B.SilkS")
      (effects (font (size 0.7 0.7) (thickness 0.1)) (justify left bottom mirror))
    (tstamp 4c7c9f30-f919-49c1-80c3-c23ccd285700)
  )
  (fp_text user "gp9" (at 5.58 12.42 -270 unlocked) (layer "B.SilkS")
      (effects (font (size 0.7 0.7) (thickness 0.1)) (justify left bottom mirror))
    (tstamp 52c31de5-f3e2-4c13-a581-625401c1abf0)
  )
  (fp_text user "gp21" (at -2.699999 1.73 unlocked) (layer "B.SilkS")
      (effects (font (size 0.7 0.7) (thickness 0.1)) (justify left bottom mirror))
    (tstamp 55f24a24-5f60-486f-ac78-f6bcf780242f)
  )
  (fp_text user "gp3" (at 11.39 -3.22 -315 unlocked) (layer "B.SilkS")
      (effects (font (size 0.7 0.7) (thickness 0.1)) (justify left bottom mirror))
    (tstamp 561e7147-596d-4c5b-b89c-c3c0d12f9d48)
  )
  (fp_text user "5V" (at -9.56 -10.15 unlocked) (layer "B.SilkS")
      (effects (font (size 0.7 0.7) (thickness 0.1)) (justify left bottom mirror))
    (tstamp 5745eae9-8bfd-4df6-b38d-1e14e6d8c321)
  )
  (fp_text user "gp7" (at 11.46 6.98 -315 unlocked) (layer "B.SilkS")
      (effects (font (size 0.7 0.7) (thickness 0.1)) (justify left bottom mirror))
    (tstamp 58d2e34d-98a8-40c2-a622-e5eba76bd98f)
  )
  (fp_text user "gp14" (at -9.53 9.38 -315 unlocked) (layer "B.SilkS")
      (effects (font (size 0.7 0.7) (thickness 0.1)) (justify left bottom mirror))
    (tstamp 5a081033-585e-4bdd-af5d-b20169d0b635)
  )
  (fp_text user "gp19" (at -2.699999 4.24 unlocked) (layer "B.SilkS")
      (effects (font (size 0.7 0.7) (thickness 0.1)) (justify left bottom mirror))
    (tstamp 5bafa437-8cfa-4ffb-bb01-3fc6ae4620f9)
  )
  (fp_text user "gp17" (at -5.83 7.19 90 unlocked) (layer "B.SilkS")
      (effects (font (size 0.7 0.7) (thickness 0.1)) (justify left bottom mirror))
    (tstamp 6f676270-7c27-4051-a26b-d3d34131dd33)
  )
  (fp_text user "gp12" (at -2.11 12.42 -270 unlocked) (layer "B.SilkS")
      (effects (font (size 0.7 0.7) (thickness 0.1)) (justify left bottom mirror))
    (tstamp 71ae9d87-4a24-4266-9375-78539f68f05e)
  )
  (fp_text user "gp0" (at 11.42 -10.73 -315 unlocked) (layer "B.SilkS")
      (effects (font (size 0.7 0.7) (thickness 0.1)) (justify left bottom mirror))
    (tstamp 73cb5f45-06d1-4138-93bf-c3b3571a35ad)
  )
  (fp_text user "gp5" (at 11.48 1.8 -315 unlocked) (layer "B.SilkS")
      (effects (font (size 0.7 0.7) (thickness 0.1)) (justify left bottom mirror))
    (tstamp 77c1a681-392a-455f-8288-f96655d3cd18)
  )
  (fp_text user "gp24" (at -2.699999 -2.01 unlocked) (layer "B.SilkS")
      (effects (font (size 0.7 0.7) (thickness 0.1)) (justify left bottom mirror))
    (tstamp 7ae9dbe9-abb5-480f-88d2-6153949b7d7a)
  )
  (fp_text user "gp20" (at -2.699999 3.07 unlocked) (layer "B.SilkS")
      (effects (font (size 0.7 0.7) (thickness 0.1)) (justify left bottom mirror))
    (tstamp 7c528572-021a-44a6-960d-3e2597ea818a)
  )
  (fp_text user "gp6" (at 11.38 4.29 -315 unlocked) (layer "B.SilkS")
      (effects (font (size 0.7 0.7) (thickness 0.1)) (justify left bottom mirror))
    (tstamp 9365cfc0-27af-4c49-ae7b-ab151e5a4fe6)
  )
  (fp_text user "gp11" (at 0.44 12.42 -270 unlocked) (layer "B.SilkS")
      (effects (font (size 0.7 0.7) (thickness 0.1)) (justify left bottom mirror))
    (tstamp af8ec8ce-7c0d-4ea9-ae49-f14a10903106)
  )
  (fp_text user "gp4" (at 11.42 -0.79 -315 unlocked) (layer "B.SilkS")
      (effects (font (size 0.7 0.7) (thickness 0.1)) (justify left bottom mirror))
    (tstamp b925ccc2-0e46-4717-8dcc-0da86b0ab43c)
  )
  (fp_text user "gp10" (at 3.01 12.42 -270 unlocked) (layer "B.SilkS")
      (effects (font (size 0.7 0.7) (thickness 0.1)) (justify left bottom mirror))
    (tstamp bbe9c31a-84ad-4b73-80dc-72982b13afc8)
  )
  (fp_text user "gp25" (at -2.699999 -3.23 unlocked) (layer "B.SilkS")
      (effects (font (size 0.7 0.7) (thickness 0.1)) (justify left bottom mirror))
    (tstamp c092fe2b-1cc0-42e2-87b6-fc56543a415c)
  )
  (fp_text user "gp29" (at -9.58 -3.31 -315 unlocked) (layer "B.SilkS")
      (effects (font (size 0.7 0.7) (thickness 0.1)) (justify left bottom mirror))
    (tstamp c3cc260d-542f-47e1-a1d6-fcbf454c1ae0)
  )
  (fp_text user "gp26" (at -9.63 4.22 -315 unlocked) (layer "B.SilkS")
      (effects (font (size 0.7 0.7) (thickness 0.1)) (justify left bottom mirror))
    (tstamp dc3e5dde-8b1a-4bf8-a908-f610cedff9a4)
  )
  (fp_text user "gp15" (at -9.53 6.98 -315 unlocked) (layer "B.SilkS")
      (effects (font (size 0.7 0.7) (thickness 0.1)) (justify left bottom mirror))
    (tstamp decb63c1-9e61-4663-b811-239157edd4f6)
  )
  (fp_text user "gnd" (at -5.69 -7.52 90 unlocked) (layer "B.SilkS")
      (effects (font (size 0.7 0.7) (thickness 0.1)) (justify left bottom mirror))
    (tstamp e3ee7f42-3ab0-41b6-84b5-9a1425028c0e)
  )
  (fp_text user "gp13" (at -4.64 12.42 -270 unlocked) (layer "B.SilkS")
      (effects (font (size 0.7 0.7) (thickness 0.1)) (justify left bottom mirror))
    (tstamp f7a39597-aba4-4c0e-acc3-0e772af43ffb)
  )
  (fp_text user "gp23" (at -2.699999 -0.75 unlocked) (layer "B.SilkS")
      (effects (font (size 0.7 0.7) (thickness 0.1)) (justify left bottom mirror))
    (tstamp fe01e744-1ce7-419a-9a7c-f6baae3a45c3)
  )
  (fp_text user "gp2" (at 9.63 -5.08 315 unlocked) (layer "F.SilkS")
      (effects (font (size 0.7 0.7) (thickness 0.1)) (justify left bottom))
    (tstamp 0b8e1da5-9b97-45ff-9e47-7d991057f9ae)
  )
  (fp_text user "gp20" (at -5.48 3.04 unlocked) (layer "F.SilkS")
      (effects (font (size 0.7 0.7) (thickness 0.1)) (justify left bottom))
    (tstamp 0beccb42-bb09-4e57-964d-a8776c57f5e1)
  )
  (fp_text user "gp8" (at 9.63 10.16 315 unlocked) (layer "F.SilkS")
      (effects (font (size 0.7 0.7) (thickness 0.1)) (justify left bottom))
    (tstamp 0d5245d8-7181-4fd1-bf9b-b15ed95d42aa)
  )
  (fp_text user "gp12" (at -2.54 12.45 270 unlocked) (layer "F.SilkS")
      (effects (font (size 0.7 0.7) (thickness 0.1)) (justify left bottom))
    (tstamp 17b13f46-5a75-40a2-9eda-b7c1e9d8c1b3)
  )
  (fp_text user "gp6" (at 9.63 5.08 315 unlocked) (layer "F.SilkS")
      (effects (font (size 0.7 0.7) (thickness 0.1)) (justify left bottom))
    (tstamp 296febb1-ad30-4722-a1af-48696dc1a3b7)
  )
  (fp_text user "gp23" (at -5.48 -0.62 unlocked) (layer "F.SilkS")
      (effects (font (size 0.7 0.7) (thickness 0.1)) (justify left bottom))
    (tstamp 2f871b4c-74fc-485e-9778-e0c7a22f8e83)
  )
  (fp_text user "gp15" (at -12 6.95 315 unlocked) (layer "F.SilkS")
      (effects (font (size 0.7 0.7) (thickness 0.1)) (justify left bottom))
    (tstamp 35b49de2-6ed5-4b5b-b122-2090e399eef3)
  )
  (fp_text user "gp28" (at -12 -0.67 315 unlocked) (layer "F.SilkS")
      (effects (font (size 0.7 0.7) (thickness 0.1)) (justify left bottom))
    (tstamp 36e9ace9-ba80-4ea6-a0f9-6a292c002594)
  )
  (fp_text user "gp24" (at -5.48 -1.91 unlocked) (layer "F.SilkS")
      (effects (font (size 0.7 0.7) (thickness 0.1)) (justify left bottom))
    (tstamp 411ea20d-f276-4cfc-ab10-6c38d560cfba)
  )
  (fp_text user "gp27" (at -12 1.87 315 unlocked) (layer "F.SilkS")
      (effects (font (size 0.7 0.7) (thickness 0.1)) (justify left bottom))
    (tstamp 429abdc0-ca57-46a3-9398-1d709ef31bee)
  )
  (fp_text user "gp5" (at 9.63 2.54 315 unlocked) (layer "F.SilkS")
      (effects (font (size 0.7 0.7) (thickness 0.1)) (justify left bottom))
    (tstamp 543b16a2-6a7a-41de-9dba-1e97c720ef93)
  )
  (fp_text user "gp22" (at -5.48 0.58 unlocked) (layer "F.SilkS")
      (effects (font (size 0.7 0.7) (thickness 0.1)) (justify left bottom))
    (tstamp 55e9e4e8-29f3-40a7-843d-a8a1dc2fc8e4)
  )
  (fp_text user "gnd" (at -5.72 -5.44 90 unlocked) (layer "F.SilkS")
      (effects (font (size 0.7 0.7) (thickness 0.1)) (justify left bottom))
    (tstamp 59923ea6-fa41-4b65-a556-08cf5b2ba035)
  )
  (fp_text user "gp3" (at 9.63 -2.54 315 unlocked) (layer "F.SilkS")
      (effects (font (size 0.7 0.7) (thickness 0.1)) (justify left bottom))
    (tstamp 6571afdc-c19a-4f72-96be-b074bdc8781b)
  )
  (fp_text user "gp26" (at -12 4.41 315 unlocked) (layer "F.SilkS")
      (effects (font (size 0.7 0.7) (thickness 0.1)) (justify left bottom))
    (tstamp 68f66305-a7ee-4aff-8e4a-b40e8e0a3871)
  )
  (fp_text user "gnd" (at -11.633332 -7.62 unlocked) (layer "F.SilkS")
      (effects (font (size 0.7 0.7) (thickness 0.1)) (justify left bottom))
    (tstamp 6be94f01-a02f-458f-ab21-32e5aa605223)
  )
  (fp_text user "gp10" (at 2.54 12.45 270 unlocked) (layer "F.SilkS")
      (effects (font (size 0.7 0.7) (thickness 0.1)) (justify left bottom))
    (tstamp 74b05509-d42d-459e-979d-9be7490c1bc6)
  )
  (fp_text user "gp7" (at 9.63 7.62 315 unlocked) (layer "F.SilkS")
      (effects (font (size 0.7 0.7) (thickness 0.1)) (justify left bottom))
    (tstamp 8074bb17-4e13-4a2d-b015-616a25832cf3)
  )
  (fp_text user "gp9" (at 5.08 12.45 270 unlocked) (layer "F.SilkS")
      (effects (font (size 0.7 0.7) (thickness 0.1)) (justify left bottom))
    (tstamp 82414407-8e35-4d2d-aa86-2141494d4497)
  )
  (fp_text user "gp17" (at -5.88 9.79 90 unlocked) (layer "F.SilkS")
      (effects (font (size 0.7 0.7) (thickness 0.1)) (justify left bottom))
    (tstamp 876f7d3c-01a8-4894-aaa0-11aa21276b1e)
  )
  (fp_text user "gp19" (at -5.48 4.36 unlocked) (layer "F.SilkS")
      (effects (font (size 0.7 0.7) (thickness 0.1)) (justify left bottom))
    (tstamp 8825e6b6-2b70-4ba4-9337-4f4989e2e1a9)
  )
  (fp_text user "gp18" (at -5.48 5.6 unlocked) (layer "F.SilkS")
      (effects (font (size 0.7 0.7) (thickness 0.1)) (justify left bottom))
    (tstamp 90c38329-f923-4202-a59b-9ee96a654ece)
  )
  (fp_text user "gp11" (at 0 12.45 270 unlocked) (layer "F.SilkS")
      (effects (font (size 0.7 0.7) (thickness 0.1)) (justify left bottom))
    (tstamp 9371e63b-4324-4369-91c0-d7b3b741fec0)
  )
  (fp_text user "gp13" (at -5.08 12.45 270 unlocked) (layer "F.SilkS")
      (effects (font (size 0.7 0.7) (thickness 0.1)) (justify left bottom))
    (tstamp 93b05b1e-6eff-498f-a65f-29f4eea3549a)
  )
  (fp_text user "gp1" (at 9.63 -7.62 315 unlocked) (layer "F.SilkS")
      (effects (font (size 0.7 0.7) (thickness 0.1)) (justify left bottom))
    (tstamp 9c969c8f-42e1-41fc-ae5d-9957e59f1887)
  )
  (fp_text user "gp25" (at -5.48 -3.24 unlocked) (layer "F.SilkS")
      (effects (font (size 0.7 0.7) (thickness 0.1)) (justify left bottom))
    (tstamp ad170d21-22e1-4b81-8e88-f287326a89b8)
  )
  (fp_text user "gp4" (at 9.63 0 315 unlocked) (layer "F.SilkS")
      (effects (font (size 0.7 0.7) (thickness 0.1)) (justify left bottom))
    (tstamp bc950002-4a58-4bf4-84a6-7b1efb7f38df)
  )
  (fp_text user "gp0" (at 9.63 -10.16 315 unlocked) (layer "F.SilkS")
      (effects (font (size 0.7 0.7) (thickness 0.1)) (justify left bottom))
    (tstamp cc54d4a3-d554-4a53-bc5d-b1eb392231c5)
  )
  (fp_text user "gp21" (at -5.48 1.82 unlocked) (layer "F.SilkS")
      (effects (font (size 0.7 0.7) (thickness 0.1)) (justify left bottom))
    (tstamp cc8b570e-3f4f-4488-a75e-310f5d67c63f)
  )
  (fp_text user "gp29" (at -12 -3.21 315 unlocked) (layer "F.SilkS")
      (effects (font (size 0.7 0.7) (thickness 0.1)) (justify left bottom))
    (tstamp f1a093e3-8121-44c0-8edf-3b3428416238)
  )
  (fp_text user "5V" (at -11 -10.16 unlocked) (layer "F.SilkS")
      (effects (font (size 0.7 0.7) (thickness 0.1)) (justify left bottom))
    (tstamp f9ee996f-c0fe-42e8-8c79-fd482702a0ff)
  )
  (fp_text user "3V3" (at -11.666667 -5.08 unlocked) (layer "F.SilkS")
      (effects (font (size 0.7 0.7) (thickness 0.1)) (justify left bottom))
    (tstamp f9f06c75-babc-4a76-b068-40ba6c1f312e)
  )
  (fp_text user "gp14" (at -12 9.49 315 unlocked) (layer "F.SilkS")
      (effects (font (size 0.7 0.7) (thickness 0.1)) (justify left bottom))
    (tstamp fe7612cf-3d7c-4989-a26e-b0d15051e554)
  )
  (fp_rect (start -9 -11.75) (end 8.99 11.75)
    (stroke (width 0.05) (type default)) (fill none) (layer "B.SilkS") (tstamp 6a303211-98a3-46a5-9846-1d1763db6662))
  (fp_rect (start -9 -11.75) (end 9 11.75)
    (stroke (width 0.05) (type default)) (fill none) (layer "F.SilkS") (tstamp 2fa01f80-8d16-4f55-af5f-81e77cf2f45b))
  (fp_rect (start -5.31 -11.73) (end 6.28 8.99)
    (stroke (width 0.05) (type default)) (fill none) (layer "Edge.Cuts") (tstamp 2df9393b-7b44-4df8-93a3-ed7483dd714b))
  (fp_rect (start -9 -11.75) (end 8.99 11.75)
    (stroke (width 0.05) (type default)) (fill none) (layer "F.CrtYd") (tstamp 74f5fe9b-8b71-4a30-b0c4-78d5dae3f8d8))
  (pad "1" thru_hole circle (at 7.62 -10.16) (size 1.6 1.6) (drill 1) (layers "*.Cu" "*.Mask") (tstamp 6807c8c0-95bf-417f-a9c7-623bb495c0eb))
  (pad "1" smd rect (at 8.42 -10.16) (size 2 1.7) (layers "F.Cu" "F.Mask") (tstamp ff6b0c3b-41c7-4a26-be7e-4f54d0a3dc4f))
  (pad "2" thru_hole circle (at 7.62 -7.62) (size 1.6 1.6) (drill 1) (layers "*.Cu" "*.Mask") (tstamp 726a1c2c-dfdd-43e1-a5e2-5711bdee87f9))
  (pad "2" smd rect (at 8.42 -7.62) (size 2 1.7) (layers "F.Cu" "F.Mask") (tstamp 98183228-b0b1-43c8-b866-9902c5e8f58e))
  (pad "3" thru_hole circle (at 7.62 -5.08) (size 1.6 1.6) (drill 1) (layers "*.Cu" "*.Mask") (tstamp dacb8cf8-9522-412c-9762-614b52a64a33))
  (pad "3" smd rect (at 8.42 -5.08) (size 2 1.7) (layers "F.Cu" "F.Mask") (tstamp 90474044-5e39-498d-828a-1983789c2268))
  (pad "4" thru_hole circle (at 7.62 -2.54) (size 1.6 1.6) (drill 1) (layers "*.Cu" "*.Mask") (tstamp e20dc3b7-8b40-4cb0-b1a2-da43c42ad59c))
  (pad "4" smd rect (at 8.42 -2.54) (size 2 1.7) (layers "F.Cu" "F.Mask") (tstamp 0886a2bd-e076-4f23-9773-9f55caa291ac))
  (pad "5" thru_hole circle (at 7.62 0) (size 1.6 1.6) (drill 1) (layers "*.Cu" "*.Mask") (tstamp 231eed08-a773-46ec-bfbc-9a0c676f898e))
  (pad "5" smd rect (at 8.42 0) (size 2 1.7) (layers "F.Cu" "F.Mask") (tstamp 104a47b2-04c3-442d-b4dc-403cb24238c4))
  (pad "6" thru_hole circle (at 7.62 2.54) (size 1.6 1.6) (drill 1) (layers "*.Cu" "*.Mask") (tstamp 87be418f-16e1-4549-b472-81b6e9ac5928))
  (pad "6" smd rect (at 8.42 2.54) (size 2 1.7) (layers "F.Cu" "F.Mask") (tstamp 5e39e99b-49c7-44af-ae0f-107ff50932e9))
  (pad "7" thru_hole circle (at 7.62 5.08) (size 1.6 1.6) (drill 1) (layers "*.Cu" "*.Mask") (tstamp 6503d86c-6518-41e4-9ce7-2553662c4c6b))
  (pad "7" smd rect (at 8.42 5.08) (size 2 1.7) (layers "F.Cu" "F.Mask") (tstamp 16fd531d-87cf-4f4e-9382-3e753b2f266a))
  (pad "8" thru_hole circle (at 7.62 7.62) (size 1.6 1.6) (drill 1) (layers "*.Cu" "*.Mask") (tstamp 77c5236c-3e09-43b8-b60f-dd3cc716f90d))
  (pad "8" smd rect (at 8.42 7.62) (size 2 1.7) (layers "F.Cu" "F.Mask") (tstamp 20b00bfc-ccbf-4118-abcf-2be697c972b1))
  (pad "9" thru_hole circle (at 7.62 10.16) (size 1.6 1.6) (drill 1) (layers "*.Cu" "*.Mask") (tstamp 918506e2-4f4a-4241-b12a-e1f1ffd4148a))
  (pad "9" smd rect (at 8.42 10.16) (size 2 1.7) (layers "F.Cu" "F.Mask") (tstamp ce0daa99-f9cd-4e97-85f6-46e349439527))
  (pad "10" thru_hole circle (at 5.08 10.16) (size 1.6 1.6) (drill 1) (layers "*.Cu" "*.Mask") (tstamp fb819e52-1948-4b6e-af60-eaa2396a98f3))
  (pad "10" smd rect (at 5.08 11.18 90) (size 2 1.7) (layers "F.Cu" "F.Mask") (tstamp d316d8b4-9f8e-4997-a4fd-3a4e617bf7e5))
  (pad "11" thru_hole circle (at 2.54 10.16) (size 1.6 1.6) (drill 1) (layers "*.Cu" "*.Mask") (tstamp 8813970e-c292-4e9f-8ad6-278293247db5))
  (pad "11" smd rect (at 2.54 11.18 90) (size 2 1.7) (layers "F.Cu" "F.Mask") (tstamp 9cbc46a6-b68e-4f4b-9e1e-295aafa62984))
  (pad "12" thru_hole circle (at 0 10.16) (size 1.6 1.6) (drill 1) (layers "*.Cu" "*.Mask") (tstamp b4ce6d2a-c20a-4e13-be7c-52394777673e))
  (pad "12" smd rect (at 0 11.18 90) (size 2 1.7) (layers "F.Cu" "F.Mask") (tstamp 0b1e5997-7cd1-4f74-a1f7-9972c74a00be))
  (pad "13" thru_hole circle (at -2.54 10.16) (size 1.6 1.6) (drill 1) (layers "*.Cu" "*.Mask") (tstamp 604686d0-77c9-49dd-80bf-e67ace99e5f6))
  (pad "13" smd rect (at -2.54 11.18 90) (size 2 1.7) (layers "F.Cu" "F.Mask") (tstamp e8743a2a-90b5-4dff-bf20-6eb4544d0cb0))
  (pad "14" thru_hole circle (at -5.08 10.16) (size 1.6 1.6) (drill 1) (layers "*.Cu" "*.Mask") (tstamp 3556ba94-9a9b-4eb1-a932-161b7577cba5))
  (pad "14" smd rect (at -5.08 11.18 90) (size 2 1.7) (layers "F.Cu" "F.Mask") (tstamp d414a501-c723-4027-b3dc-dc55b30c6bfc))
  (pad "15" smd rect (at -8.42 10.16) (size 2 1.7) (layers "F.Cu" "F.Mask") (tstamp 77388caf-8d34-4a67-ba7c-128a40b6994d))
  (pad "15" thru_hole circle (at -7.62 10.16) (size 1.6 1.6) (drill 1) (layers "*.Cu" "*.Mask") (tstamp 064704c2-50d2-427a-8b88-328b44e3ab20))
  (pad "16" smd rect (at -8.42 7.62) (size 2 1.7) (layers "F.Cu" "F.Mask") (tstamp bc23f10a-5949-4037-aea0-084e3ec408e2))
  (pad "16" thru_hole circle (at -7.62 7.62) (size 1.6 1.6) (drill 1) (layers "*.Cu" "*.Mask") (tstamp 0f83bcd5-0f19-4898-b9c8-a618e3bfa227))
  (pad "17" smd rect (at -8.42 5.08) (size 2 1.7) (layers "F.Cu" "F.Mask") (tstamp e0914859-795e-41b7-b948-5f59aaf6be16))
  (pad "17" thru_hole circle (at -7.62 5.08) (size 1.6 1.6) (drill 1) (layers "*.Cu" "*.Mask") (tstamp 3714ba58-5bfc-453d-ac23-856b9d20477c))
  (pad "18" smd rect (at -8.42 2.54) (size 2 1.7) (layers "F.Cu" "F.Mask") (tstamp ec041bff-8a9c-4cb6-b71e-875f2b8c18d1))
  (pad "18" thru_hole circle (at -7.62 2.54) (size 1.6 1.6) (drill 1) (layers "*.Cu" "*.Mask") (tstamp 6fdcbe02-b9fa-4cd4-bd74-b9ba95ee57a9))
  (pad "19" smd rect (at -8.42 0) (size 2 1.7) (layers "F.Cu" "F.Mask") (tstamp dc7f285c-50f4-4255-9d31-46b0910b2447))
  (pad "19" thru_hole circle (at -7.62 0) (size 1.6 1.6) (drill 1) (layers "*.Cu" "*.Mask") (tstamp 22932aeb-0fec-4fa0-b0f6-3d556a26522e))
  (pad "20" smd rect (at -8.42 -2.54) (size 2 1.7) (layers "F.Cu" "F.Mask") (tstamp f97a16f0-9b91-44fc-93fb-1c9f0848bdba))
  (pad "20" thru_hole circle (at -7.62 -2.54) (size 1.6 1.6) (drill 1) (layers "*.Cu" "*.Mask") (tstamp eb4786eb-6192-4c73-a53e-a0ed4bc13c3e))
  (pad "21" smd rect (at -8.42 -5.08) (size 2 1.7) (layers "F.Cu" "F.Mask") (tstamp 6216fb41-70aa-430d-abea-a105e5b31634))
  (pad "21" thru_hole circle (at -7.62 -5.08) (size 1.6 1.6) (drill 1) (layers "*.Cu" "*.Mask") (tstamp 858ab188-2a84-4178-9ba2-9170cb4c4ca3))
  (pad "22" smd rect (at -8.42 -7.62) (size 2 1.7) (layers "F.Cu" "F.Mask") (tstamp 3f792d9c-1676-4368-b775-ff6d5bd3a985))
  (pad "22" thru_hole roundrect (at -7.62 -7.62) (size 1.6 1.6) (drill 1) (layers "*.Cu" "*.Mask") (roundrect_rratio 0.25) (tstamp c23683d8-2db8-4871-90ce-23a5af216a9f))
  (pad "23" smd rect (at -8.42 -10.16) (size 2 1.7) (layers "F.Cu" "F.Mask") (tstamp 04d9f6bb-aa27-4e03-8d66-7e2e5ba4ef24))
  (pad "23" thru_hole circle (at -7.62 -10.16) (size 1.6 1.6) (drill 1) (layers "*.Cu" "*.Mask") (tstamp 1796e66a-ecc7-46d7-9e9d-6a2228afc95d))
  (pad "24" thru_hole circle (at -6.096 6.674) (size 1 1) (drill 0.8) (layers "*.Cu" "*.Mask") (tstamp fdd95cf4-e79b-46d8-b742-40e9cdd043d5))
  (pad "25" thru_hole circle (at -6.096 5.404) (size 1 1) (drill 0.8) (layers "*.Cu" "*.Mask") (tstamp a4b9d7b0-a7fa-4859-b3d4-48cb184ff861))
  (pad "26" thru_hole circle (at -6.096 4.134) (size 1 1) (drill 0.8) (layers "*.Cu" "*.Mask") (tstamp d99bba11-53cb-466d-a004-723dc6b25ef9))
  (pad "27" thru_hole circle (at -6.096 2.864) (size 1 1) (drill 0.8) (layers "*.Cu" "*.Mask") (tstamp ad1a8a43-6d1a-4767-aed6-bba077dd63f9))
  (pad "28" thru_hole circle (at -6.096 1.594) (size 1 1) (drill 0.8) (layers "*.Cu" "*.Mask") (tstamp e9e88068-8ff2-49a4-8b9a-312acc863732))
  (pad "29" thru_hole circle (at -6.096 0.324) (size 1 1) (drill 0.8) (layers "*.Cu" "*.Mask") (tstamp 5f5bef74-d84a-4965-9d52-23d17685125f))
  (pad "30" thru_hole circle (at -6.096 -0.946) (size 1 1) (drill 0.8) (layers "*.Cu" "*.Mask") (tstamp 35755805-a5bc-4bb1-8491-49ad578fdacf))
  (pad "31" thru_hole circle (at -6.096 -2.216) (size 1 1) (drill 0.8) (layers "*.Cu" "*.Mask") (tstamp 73d9617f-1bcd-4db4-926f-48074ad03d60))
  (pad "32" thru_hole circle (at -6.096 -3.486) (size 1 1) (drill 0.8) (layers "*.Cu" "*.Mask") (tstamp 40162370-ebd9-4f09-aa24-8143d52c2409))
  (pad "33" thru_hole roundrect (at -6.096 -4.756) (size 1 1) (drill 0.8) (layers "*.Cu" "*.Mask") (roundrect_rratio 0.25) (tstamp 93e59111-bbcb-449a-9b20-0369171dddf8))
  (model "/home/drFaustroll/playground/keyboard/m65/m65-pcb/packages3d/mill-max-315-13-109-41-001000.STEP" hide
    (offset (xyz -6.35 -11.15 3))
    (scale (xyz 1 1 1))
    (rotate (xyz -90 0 -90))
  )
  (model "/home/drFaustroll/playground/keyboard/m65/m65-pcb/packages3d/mill-max-315-13-109-41-001000.STEP" hide
    (offset (xyz 8.85 -11.15 3))
    (scale (xyz 1 1 1))
    (rotate (xyz -90 0 -90))
  )
  (model "/home/drFaustroll/playground/keyboard/m65/m65-pcb/packages3d/mill-max-315-13-105-41-001000.STEP" hide
    (offset (xyz -6 -11.5 3))
    (scale (xyz 1 1 1))
    (rotate (xyz -90 0 0))
  )
  (model "/home/drFaustroll/playground/keyboard/m65/m65-pcb/packages3d/mill-max-335-10-109-00-160000.STEP" hide
    (offset (xyz -6.35 -11.15 4.5))
    (scale (xyz 1 1 1))
    (rotate (xyz -90 0 -90))
  )
  (model "/home/drFaustroll/playground/keyboard/m65/m65-pcb/packages3d/mill-max-335-10-109-00-160000.STEP" hide
    (offset (xyz 8.85 -11.15 4.5))
    (scale (xyz 1 1 1))
    (rotate (xyz -90 0 -90))
  )
  (model "/home/drFaustroll/playground/keyboard/m65/m65-pcb/packages3d/mill-max-335-10-105-00-160000.STEP" hide
    (offset (xyz -6 -11.5 4.5))
    (scale (xyz 1 1 1))
    (rotate (xyz -90 0 0))
  )
  (model "/home/drFaustroll/playground/keyboard/m65/m65-pcb/packages3d/mill-max-854-22-010-10-002101.STEP" hide
    (offset (xyz -7.2 -7.5 0))
    (scale (xyz 1 1 1))
    (rotate (xyz 90 0 -90))
  )
  (model "/home/drFaustroll/playground/keyboard/m65/m65-pcb/packages3d/RP2040-ZERO-WAVESHARE.STEP"
    (offset (xyz 0 0 0))
    (scale (xyz 1 1 1))
    (rotate (xyz -90 0 0))
  )
)
