(footprint "RPi_Pico_TH_reversible_min" (version 20221018) (generator pcbnew)
  (layer "F.Cu")
  (descr "Through hole straight pin header, 2x20, 2.54mm pitch, double rows")
  (tags "Through hole pin header THT 2x20 2.54mm double row")
  (attr through_hole)
  (fp_text reference "U*" (at -3.54 3.8 90) (layer "F.SilkS") hide
      (effects (font (size 1 1) (thickness 0.15)))
    (tstamp 96315415-cfed-47d2-b3dd-d782358bd0df)
  )
  (fp_text value "RPi_Pico_TH_reversible_min" (at -0.1 1.2 90) (layer "F.Fab") hide
      (effects (font (size 1 1) (thickness 0.15)))
    (tstamp 46cbe85d-ff47-428e-b187-4ebd50a66e0c)
  )
  (fp_text user "GP2" (at 15.5 -16.15 -45) (layer "B.SilkS")
      (effects (font (size 0.8 0.8) (thickness 0.15)) (justify mirror))
    (tstamp 02cea92e-7be6-4cf3-bb3b-2347f754cb43)
  )
  (fp_text user "VBUS" (at -2.4 -23.15 -45) (layer "B.SilkS")
      (effects (font (size 0.8 0.8) (thickness 0.15)) (justify mirror))
    (tstamp 06c356b3-5cf9-41d2-9f48-4f653b19b55f)
  )
  (fp_text user "GP3" (at 15.4 -13.61 -45) (layer "B.SilkS")
      (effects (font (size 0.8 0.8) (thickness 0.15)) (justify mirror))
    (tstamp 097efa00-5c3e-4046-a790-9dc88405660f)
  )
  (fp_text user "GP17" (at -2.154 22.64 -45) (layer "B.SilkS")
      (effects (font (size 0.8 0.8) (thickness 0.15)) (justify mirror))
    (tstamp 0a4f165b-22d1-4b67-8441-dab7a231a895)
  )
  (fp_text user "GP22" (at -2.154 4.86 -45) (layer "B.SilkS")
      (effects (font (size 0.8 0.8) (thickness 0.15)) (justify mirror))
    (tstamp 0c7a985d-eaeb-449f-b543-88ca249dd1b5)
  )
  (fp_text user "GP9" (at 15.4 4.17 -45) (layer "B.SilkS")
      (effects (font (size 0.8 0.8) (thickness 0.15)) (justify mirror))
    (tstamp 1229ebfa-24aa-46e8-a326-888d2d6aa3b4)
  )
  (fp_text user "GP13" (at 15.654 16.87 -45) (layer "B.SilkS")
      (effects (font (size 0.8 0.8) (thickness 0.15)) (justify mirror))
    (tstamp 126d3e0b-95de-4e0b-a8e3-f7dc0068af7b)
  )
  (fp_text user "3V3_EN" (at -2.8 -16.15 -45) (layer "B.SilkS")
      (effects (font (size 0.8 0.8) (thickness 0.15)) (justify mirror))
    (tstamp 1e134703-0c3e-42dd-af13-1d2242de172f)
  )
  (fp_text user "GP15" (at 15.654 24.49 -45) (layer "B.SilkS")
      (effects (font (size 0.8 0.8) (thickness 0.15)) (justify mirror))
    (tstamp 1f19d4cf-3c4d-45fb-9e50-07dafd715b6e)
  )
  (fp_text user "GP18" (at -2.154 17.56 -45) (layer "B.SilkS")
      (effects (font (size 0.8 0.8) (thickness 0.15)) (justify mirror))
    (tstamp 20f084dd-50bc-4e4d-a811-a62782e9e928)
  )
  (fp_text user "GND" (at 15.4 -18.69 -45) (layer "B.SilkS")
      (effects (font (size 0.8 0.8) (thickness 0.15)) (justify mirror))
    (tstamp 237f29a4-6d55-4997-9a30-6f5e7f40ff47)
  )
  (fp_text user "GND" (at 15.4 -5.99 -45) (layer "B.SilkS")
      (effects (font (size 0.8 0.8) (thickness 0.15)) (justify mirror))
    (tstamp 239ad8fc-b836-4352-882a-bf25a68df433)
  )
  (fp_text user "GP16" (at -2.154 25.18 -45) (layer "B.SilkS")
      (effects (font (size 0.8 0.8) (thickness 0.15)) (justify mirror))
    (tstamp 2a7c79fe-c46f-4321-8880-60e3437560d5)
  )
  (fp_text user "GND" (at -1.9 -18 -45) (layer "B.SilkS")
      (effects (font (size 0.8 0.8) (thickness 0.15)) (justify mirror))
    (tstamp 2dc96052-a231-4a1f-a946-7857ff633b93)
  )
  (fp_text user "GP14" (at 15.7 21.95 -45) (layer "B.SilkS")
      (effects (font (size 0.8 0.8) (thickness 0.15)) (justify mirror))
    (tstamp 37902c28-a0ec-41d3-aa21-1f1d263af668)
  )
  (fp_text user "GP26" (at -2.154 -0.22 -45) (layer "B.SilkS")
      (effects (font (size 0.8 0.8) (thickness 0.15)) (justify mirror))
    (tstamp 3bf4f438-536e-4167-8080-a12a6e836c86)
  )
  (fp_text user "GP10" (at 15.654 9.25 -45) (layer "B.SilkS")
      (effects (font (size 0.8 0.8) (thickness 0.15)) (justify mirror))
    (tstamp 4af84990-c057-4b60-86a2-3fc676751886)
  )
  (fp_text user "GP20" (at -2.154 12.48 -45) (layer "B.SilkS")
      (effects (font (size 0.8 0.8) (thickness 0.15)) (justify mirror))
    (tstamp 4c6fbf14-41ee-4033-a15f-b81bfb3b7bd4)
  )
  (fp_text user "GP28" (at -2.154 -8.094 -45) (layer "B.SilkS")
      (effects (font (size 0.8 0.8) (thickness 0.15)) (justify mirror))
    (tstamp 513e1a10-db6f-4021-ad61-c1e620b26b17)
  )
  (fp_text user "GP21" (at -2.154 9.95 -45) (layer "B.SilkS")
      (effects (font (size 0.8 0.8) (thickness 0.15)) (justify mirror))
    (tstamp 53b82d6f-0340-432d-8675-781f9b2e3662)
  )
  (fp_text user "VSYS" (at -2.3 -20.54 -45) (layer "B.SilkS")
      (effects (font (size 0.8 0.8) (thickness 0.15)) (justify mirror))
    (tstamp 595432aa-6b8e-4d22-be74-a34794486f22)
  )
  (fp_text user "RUN" (at -2.1 2.32 -45) (layer "B.SilkS")
      (effects (font (size 0.8 0.8) (thickness 0.15)) (justify mirror))
    (tstamp 59b14d1f-04d3-42d5-87d5-f48a59183384)
  )
  (fp_text user "3V3" (at -2 -12.85 -45) (layer "B.SilkS")
      (effects (font (size 0.8 0.8) (thickness 0.15)) (justify mirror))
    (tstamp 618f1fe0-393c-4590-9998-235e92b8e171)
  )
  (fp_text user "GP27" (at -2.154 -2.75 -45) (layer "B.SilkS")
      (effects (font (size 0.8 0.8) (thickness 0.15)) (justify mirror))
    (tstamp 6c3a0845-a1de-4d70-8688-a5abe2c34098)
  )
  (fp_text user "GND" (at -1.9 20.1 -45) (layer "B.SilkS")
      (effects (font (size 0.8 0.8) (thickness 0.15)) (justify mirror))
    (tstamp 6ee36011-d01b-497a-af34-373187e12ea5)
  )
  (fp_text user "ADC_VREF" (at -3.1 -11.45 -45) (layer "B.SilkS")
      (effects (font (size 0.8 0.8) (thickness 0.15)) (justify mirror))
    (tstamp 74d7a57e-315b-48b5-9660-562cb4f0e242)
  )
  (fp_text user "GP4" (at 15.4 -11.07 -45) (layer "B.SilkS")
      (effects (font (size 0.8 0.8) (thickness 0.15)) (justify mirror))
    (tstamp 81a57036-6756-4ff9-811f-a17ba8f906aa)
  )
  (fp_text user "GND" (at 15.4 6.71 -45) (layer "B.SilkS")
      (effects (font (size 0.8 0.8) (thickness 0.15)) (justify mirror))
    (tstamp 918d4d60-5693-40aa-ab70-72cfef0bb9a7)
  )
  (fp_text user "GND" (at -1.9 7.4 -45) (layer "B.SilkS")
      (effects (font (size 0.8 0.8) (thickness 0.15)) (justify mirror))
    (tstamp 9db8108c-3e88-40a0-be65-6308b8650008)
  )
  (fp_text user "GP1" (at 15.5 -21.24 -45) (layer "B.SilkS")
      (effects (font (size 0.8 0.8) (thickness 0.15)) (justify mirror))
    (tstamp a531ae3f-1e99-452e-91c6-17308acf9710)
  )
  (fp_text user "GP19" (at -2.154 15.02 -45) (layer "B.SilkS")
      (effects (font (size 0.8 0.8) (thickness 0.15)) (justify mirror))
    (tstamp ab140108-9dfb-4dd4-b735-81045a344b1a)
  )
  (fp_text user "GP6" (at 15.4 -3.45 -45) (layer "B.SilkS")
      (effects (font (size 0.8 0.8) (thickness 0.15)) (justify mirror))
    (tstamp b2e841a7-4bf3-47e2-ae16-724e70dec79a)
  )
  (fp_text user "GP8" (at 15.4 1.63 -45) (layer "B.SilkS")
      (effects (font (size 0.8 0.8) (thickness 0.15)) (justify mirror))
    (tstamp b4e4076c-f2b5-4c71-b145-7e9a760c2459)
  )
  (fp_text user "AGND" (at -2.154 -5.3 -45) (layer "B.SilkS")
      (effects (font (size 0.8 0.8) (thickness 0.15)) (justify mirror))
    (tstamp b7145fa9-b203-40e2-bad1-b5d62075dc99)
  )
  (fp_text user "GP0" (at 15.4 -23.77 -45) (layer "B.SilkS")
      (effects (font (size 0.8 0.8) (thickness 0.15)) (justify mirror))
    (tstamp c3bfee23-b572-436a-a28a-39e7c8b2a6ff)
  )
  (fp_text user "GP11" (at 15.8 11.79 -45) (layer "B.SilkS")
      (effects (font (size 0.8 0.8) (thickness 0.15)) (justify mirror))
    (tstamp ca0e7978-a73c-4641-ab6a-391f6dcae189)
  )
  (fp_text user "GP7" (at 15.3 -0.94 -45) (layer "B.SilkS")
      (effects (font (size 0.8 0.8) (thickness 0.15)) (justify mirror))
    (tstamp d3120153-6709-472c-a253-517f41348d09)
  )
  (fp_text user "GND" (at 15.4 19.41 -45) (layer "B.SilkS")
      (effects (font (size 0.8 0.8) (thickness 0.15)) (justify mirror))
    (tstamp db9c6495-6f60-4288-9375-e31d1869a630)
  )
  (fp_text user "GP12" (at 15.8 14.33 -45) (layer "B.SilkS")
      (effects (font (size 0.8 0.8) (thickness 0.15)) (justify mirror))
    (tstamp e0aee7e9-2b23-46ae-9bba-8b9f435b320f)
  )
  (fp_text user "GP5" (at 15.4 -8.53 -45) (layer "B.SilkS")
      (effects (font (size 0.8 0.8) (thickness 0.15)) (justify mirror))
    (tstamp e4b16c87-97eb-4ff9-b437-76f2585a3102)
  )
  (fp_text user "GP11" (at -13.2 11.43 45) (layer "F.SilkS")
      (effects (font (size 0.8 0.8) (thickness 0.15)))
    (tstamp 000b46d6-b833-4804-8f56-56d539f76d09)
  )
  (fp_text user "AGND" (at 4.854 -5.81 45) (layer "F.SilkS")
      (effects (font (size 0.8 0.8) (thickness 0.15)))
    (tstamp 08ec951f-e7eb-41cf-9589-697107a98e88)
  )
  (fp_text user "GND" (at 4.6 19.59 45) (layer "F.SilkS")
      (effects (font (size 0.8 0.8) (thickness 0.15)))
    (tstamp 09bbea88-8bd7-48ec-baae-1b4a9a11a40e)
  )
  (fp_text user "VBUS" (at 5.1 -23.66 45) (layer "F.SilkS")
      (effects (font (size 0.8 0.8) (thickness 0.15)))
    (tstamp 0f0f7bb5-ade7-4a81-82b4-43be6a8ad05c)
  )
  (fp_text user "GND" (at 4.6 -18.51 45) (layer "F.SilkS")
      (effects (font (size 0.8 0.8) (thickness 0.15)))
    (tstamp 0fb27e11-fde6-4a25-adbb-e9684771b369)
  )
  (fp_text user "GP13" (at -13.054 16.51 45) (layer "F.SilkS")
      (effects (font (size 0.8 0.8) (thickness 0.15)))
    (tstamp 113ffcdf-4c54-4e37-81dc-f91efa934ba7)
  )
  (fp_text user "ADC_VREF" (at 5.8 -11.96 45) (layer "F.SilkS")
      (effects (font (size 0.8 0.8) (thickness 0.15)))
    (tstamp 162e5bdd-61a8-46a3-8485-826b5d58e1a1)
  )
  (fp_text user "GP4" (at -12.8 -11.43 45) (layer "F.SilkS")
      (effects (font (size 0.8 0.8) (thickness 0.15)))
    (tstamp 1cacb878-9da4-41fc-aa80-018bc841e19a)
  )
  (fp_text user "GP7" (at -12.7 -1.3 45) (layer "F.SilkS")
      (effects (font (size 0.8 0.8) (thickness 0.15)))
    (tstamp 1de61170-5337-44c5-ba28-bd477db4bff1)
  )
  (fp_text user "GP15" (at -13.054 24.13 45) (layer "F.SilkS")
      (effects (font (size 0.8 0.8) (thickness 0.15)))
    (tstamp 2102c637-9f11-48f1-aae6-b4139dc22be2)
  )
  (fp_text user "GP17" (at 4.854 22.13 45) (layer "F.SilkS")
      (effects (font (size 0.8 0.8) (thickness 0.15)))
    (tstamp 272c2a78-b5f5-4b61-aed3-ec69e0e92729)
  )
  (fp_text user "GP26" (at 4.854 -0.73 45) (layer "F.SilkS")
      (effects (font (size 0.8 0.8) (thickness 0.15)))
    (tstamp 2b25e886-ded1-450a-ada1-ece4208052e4)
  )
  (fp_text user "3V3_EN" (at 5.5 -16.66 45) (layer "F.SilkS")
      (effects (font (size 0.8 0.8) (thickness 0.15)))
    (tstamp 2f3fba7a-cf45-4bd8-9035-07e6fa0b4732)
  )
  (fp_text user "3V3" (at 4.7 -13.36 45) (layer "F.SilkS")
      (effects (font (size 0.8 0.8) (thickness 0.15)))
    (tstamp 319c683d-aed6-4e7d-aee2-ff9871746d52)
  )
  (fp_text user "GP8" (at -12.8 1.27 45) (layer "F.SilkS")
      (effects (font (size 0.8 0.8) (thickness 0.15)))
    (tstamp 3a1a39fc-8030-4c93-9d9c-d79ba6824099)
  )
  (fp_text user "GP16" (at 4.854 24.67 45) (layer "F.SilkS")
      (effects (font (size 0.8 0.8) (thickness 0.15)))
    (tstamp 3f2a6679-91d7-4b6c-bf5c-c4d5abb2bc44)
  )
  (fp_text user "GND" (at 4.6 6.89 45) (layer "F.SilkS")
      (effects (font (size 0.8 0.8) (thickness 0.15)))
    (tstamp 41c18011-40db-4384-9ba4-c0158d0d9d6a)
  )
  (fp_text user "GND" (at -12.8 -6.35 45) (layer "F.SilkS")
      (effects (font (size 0.8 0.8) (thickness 0.15)))
    (tstamp 4346fe55-f906-453a-b81a-1c013104a598)
  )
  (fp_text user "GP28" (at 4.854 -8.604 45) (layer "F.SilkS")
      (effects (font (size 0.8 0.8) (thickness 0.15)))
    (tstamp 456c5e47-d71e-4708-b061-1e61634d8648)
  )
  (fp_text user "GP9" (at -12.8 3.81 45) (layer "F.SilkS")
      (effects (font (size 0.8 0.8) (thickness 0.15)))
    (tstamp 49b5f540-e128-4e08-bb09-f321f8e64056)
  )
  (fp_text user "GP5" (at -12.8 -8.89 45) (layer "F.SilkS")
      (effects (font (size 0.8 0.8) (thickness 0.15)))
    (tstamp 4ce9470f-5633-41bf-89ac-74a810939893)
  )
  (fp_text user "GP0" (at -12.8 -24.13 45) (layer "F.SilkS")
      (effects (font (size 0.8 0.8) (thickness 0.15)))
    (tstamp 51cc007a-3378-4ce3-909c-71e94822f8d1)
  )
  (fp_text user "GP3" (at -12.8 -13.97 45) (layer "F.SilkS")
      (effects (font (size 0.8 0.8) (thickness 0.15)))
    (tstamp 5576cd03-3bad-40c5-9316-1d286895d52a)
  )
  (fp_text user "GND" (at -12.8 19.05 45) (layer "F.SilkS")
      (effects (font (size 0.8 0.8) (thickness 0.15)))
    (tstamp 56d2bc5d-fd72-4542-ab0f-053a5fd60efa)
  )
  (fp_text user "GND" (at -12.8 -19.05 45) (layer "F.SilkS")
      (effects (font (size 0.8 0.8) (thickness 0.15)))
    (tstamp 5e6153e6-2c19-46de-9a8e-b310a2a07861)
  )
  (fp_text user "GP20" (at 4.854 11.97 45) (layer "F.SilkS")
      (effects (font (size 0.8 0.8) (thickness 0.15)))
    (tstamp 62f15a9a-9893-486e-9ad0-ea43f88fc9e7)
  )
  (fp_text user "GP19" (at 4.854 14.51 45) (layer "F.SilkS")
      (effects (font (size 0.8 0.8) (thickness 0.15)))
    (tstamp 7273dd21-e834-41d3-b279-d7de727709ca)
  )
  (fp_text user "GP2" (at -12.9 -16.51 45) (layer "F.SilkS")
      (effects (font (size 0.8 0.8) (thickness 0.15)))
    (tstamp 96ef76a5-90c3-4767-98ba-2b61887e28d3)
  )
  (fp_text user "GP18" (at 4.854 17.05 45) (layer "F.SilkS")
      (effects (font (size 0.8 0.8) (thickness 0.15)))
    (tstamp a3fab380-991d-404b-95d5-1c209b047b6e)
  )
  (fp_text user "GP6" (at -12.8 -3.81 45) (layer "F.SilkS")
      (effects (font (size 0.8 0.8) (thickness 0.15)))
    (tstamp aa23bfe3-454b-4a2b-bfe1-101c747eb84e)
  )
  (fp_text user "GP21" (at 4.854 9.44 45) (layer "F.SilkS")
      (effects (font (size 0.8 0.8) (thickness 0.15)))
    (tstamp b2b363dd-8e47-4a76-a142-e00e28334875)
  )
  (fp_text user "GP22" (at 4.854 4.35 45) (layer "F.SilkS")
      (effects (font (size 0.8 0.8) (thickness 0.15)))
    (tstamp c15b2f75-2e10-4b71-bebb-e2b872171b92)
  )
  (fp_text user "GND" (at -12.8 6.35 45) (layer "F.SilkS")
      (effects (font (size 0.8 0.8) (thickness 0.15)))
    (tstamp c512fed3-9770-476b-b048-e781b4f3cd72)
  )
  (fp_text user "GP14" (at -13.1 21.59 45) (layer "F.SilkS")
      (effects (font (size 0.8 0.8) (thickness 0.15)))
    (tstamp c7cd39db-931a-4d86-96b8-57e6b39f58f9)
  )
  (fp_text user "VSYS" (at 5 -21.05 45) (layer "F.SilkS")
      (effects (font (size 0.8 0.8) (thickness 0.15)))
    (tstamp cb1a49ef-0a06-4f40-9008-61d1d1c36198)
  )
  (fp_text user "GP12" (at -13.2 13.97 45) (layer "F.SilkS")
      (effects (font (size 0.8 0.8) (thickness 0.15)))
    (tstamp ceb12634-32ca-4cbf-9ff5-5e8b53ab18ad)
  )
  (fp_text user "GP1" (at -12.9 -21.6 45) (layer "F.SilkS")
      (effects (font (size 0.8 0.8) (thickness 0.15)))
    (tstamp db6412d3-e6c3-4bdd-abf4-a8f55d56df31)
  )
  (fp_text user "GP10" (at -13.054 8.89 45) (layer "F.SilkS")
      (effects (font (size 0.8 0.8) (thickness 0.15)))
    (tstamp dd70858b-2f9a-4b3f-9af5-ead3a9ba57e9)
  )
  (fp_text user "RUN" (at 4.8 1.81 45) (layer "F.SilkS")
      (effects (font (size 0.8 0.8) (thickness 0.15)))
    (tstamp f6a5c856-f2b5-40eb-a958-b666a0d408a0)
  )
  (fp_text user "GP27" (at 4.854 -3.26 45) (layer "F.SilkS")
      (effects (font (size 0.8 0.8) (thickness 0.15)))
    (tstamp ffa442c7-cbef-461f-8613-c211201cec06)
  )
  (fp_rect (start -7.7 -25.3) (end 12.9 26.6)
    (stroke (width 0.1) (type default)) (fill none) (layer "B.SilkS") (tstamp ad4b813c-3c19-4d13-ba74-01bbc8fa1b7b))
  (fp_rect (start -10.45 -25.3) (end 10.15 26.6)
    (stroke (width 0.1) (type default)) (fill none) (layer "F.SilkS") (tstamp f361e7e2-03c1-481f-932e-04724c9a0e57))
  (fp_line (start -11 -25.95) (end 14 -25.95)
    (stroke (width 0.12) (type solid)) (layer "B.CrtYd") (tstamp 98847a52-94bb-42f1-9dc6-f78f2b10231c))
  (fp_line (start -11 27.05) (end -11 -25.95)
    (stroke (width 0.12) (type solid)) (layer "B.CrtYd") (tstamp 0c20af61-be88-4c5b-a236-6acd2fbb828e))
  (fp_line (start 14 27.05) (end -11 27.05)
    (stroke (width 0.12) (type solid)) (layer "B.CrtYd") (tstamp 4f148c83-063e-48a6-8274-648c1df52f3f))
  (fp_line (start 14 27.05) (end 14 -25.95)
    (stroke (width 0.12) (type solid)) (layer "B.CrtYd") (tstamp 193012f1-1347-4465-b428-9b027d2e3003))
  (fp_line (start -11 -26) (end 14 -26)
    (stroke (width 0.12) (type solid)) (layer "F.CrtYd") (tstamp 9208ea78-8dde-4b3d-91e9-5755ab5efd9a))
  (fp_line (start -11 27) (end -11 -26)
    (stroke (width 0.12) (type solid)) (layer "F.CrtYd") (tstamp e86e4fae-9ca7-4857-a93c-bc6a3048f887))
  (fp_line (start 14 27) (end -11 27)
    (stroke (width 0.12) (type solid)) (layer "F.CrtYd") (tstamp 5e755161-24a5-4650-a6e3-9836bf074412))
  (fp_line (start 14 27) (end 14 -26)
    (stroke (width 0.12) (type solid)) (layer "F.CrtYd") (tstamp b3ddc861-cd7b-45c9-940e-9e1e446da8d1))
  (pad "1" thru_hole oval (at -8.89 -24.13) (size 1.7 1.7) (drill 1.02) (layers "*.Cu" "*.Mask") (tstamp 015f5586-ba76-4a98-9114-f5cd2c67134d))
  (pad "1" thru_hole oval (at 11.38 -23.1) (size 1.7 1.7) (drill 1.02) (layers "*.Cu" "*.Mask") (tstamp 7d194180-373a-421e-9bc2-18e1fe8d3003))
  (pad "2" thru_hole oval (at -8.89 -21.59) (size 1.7 1.7) (drill 1.02) (layers "*.Cu" "*.Mask") (tstamp 541721d1-074b-496e-a833-813044b3e8ca))
  (pad "2" thru_hole oval (at 11.38 -20.56) (size 1.7 1.7) (drill 1.02) (layers "*.Cu" "*.Mask") (tstamp 83d966cf-c831-40c1-ba5c-c55765f615c3))
  (pad "3" thru_hole rect (at -8.89 -19.05) (size 1.7 1.7) (drill 1.02) (layers "*.Cu" "*.Mask") (tstamp d05faa1f-5f69-41bf-86d3-2cd224432e1b))
  (pad "3" thru_hole rect (at 11.38 -18.02) (size 1.7 1.7) (drill 1.02) (layers "*.Cu" "*.Mask") (tstamp 2c70ab9d-318b-426c-a9ff-d68ca550bfec))
  (pad "4" thru_hole oval (at -8.89 -16.51) (size 1.7 1.7) (drill 1.02) (layers "*.Cu" "*.Mask") (tstamp 2f424da3-8fae-4941-bc6d-20044787372f))
  (pad "4" thru_hole oval (at 11.38 -15.48) (size 1.7 1.7) (drill 1.02) (layers "*.Cu" "*.Mask") (tstamp 91797282-7f57-40df-9202-4524a56ba960))
  (pad "5" thru_hole oval (at -8.89 -13.97) (size 1.7 1.7) (drill 1.02) (layers "*.Cu" "*.Mask") (tstamp 41485de5-6ed3-4c83-b69e-ef83ae18093c))
  (pad "5" thru_hole oval (at 11.38 -12.94) (size 1.7 1.7) (drill 1.02) (layers "*.Cu" "*.Mask") (tstamp 66801f65-75c3-4a39-92a7-063025c2002c))
  (pad "6" thru_hole oval (at -8.89 -11.43) (size 1.7 1.7) (drill 1.02) (layers "*.Cu" "*.Mask") (tstamp 3bca658b-a598-4669-a7cb-3f9b5f47bb5a))
  (pad "6" thru_hole oval (at 11.38 -10.4) (size 1.7 1.7) (drill 1.02) (layers "*.Cu" "*.Mask") (tstamp 4e9fb331-52ae-44e7-9593-0484406d91f0))
  (pad "7" thru_hole oval (at -8.89 -8.89) (size 1.7 1.7) (drill 1.02) (layers "*.Cu" "*.Mask") (tstamp bef2abc2-bf3e-4a72-ad03-f8da3cd893cb))
  (pad "7" thru_hole oval (at 11.38 -7.86) (size 1.7 1.7) (drill 1.02) (layers "*.Cu" "*.Mask") (tstamp 4bf3c8f7-f5d2-47f3-888c-b370918dc4d9))
  (pad "8" thru_hole rect (at -8.89 -6.35) (size 1.7 1.7) (drill 1.02) (layers "*.Cu" "*.Mask") (tstamp b7aa0362-7c9e-4a42-b191-ab15a38bf3c5))
  (pad "8" thru_hole rect (at 11.38 -5.32) (size 1.7 1.7) (drill 1.02) (layers "*.Cu" "*.Mask") (tstamp e2f4953d-96ad-41cf-b460-e6ffe0c7b510))
  (pad "9" thru_hole oval (at -8.89 -3.81) (size 1.7 1.7) (drill 1.02) (layers "*.Cu" "*.Mask") (tstamp dd1edfbb-5fb6-42cd-b740-fd54ab3ef1f1))
  (pad "9" thru_hole oval (at 11.38 -2.78) (size 1.7 1.7) (drill 1.02) (layers "*.Cu" "*.Mask") (tstamp 0ab4588a-d359-49fa-aae2-f2b7c6b52708))
  (pad "10" thru_hole oval (at -8.89 -1.27) (size 1.7 1.7) (drill 1.02) (layers "*.Cu" "*.Mask") (tstamp 42d3f9d6-2a47-41a8-b942-295fcb83bcd8))
  (pad "10" thru_hole oval (at 11.38 -0.24) (size 1.7 1.7) (drill 1.02) (layers "*.Cu" "*.Mask") (tstamp ffdc9aa9-7268-408b-ba3c-7e346ae32901))
  (pad "11" thru_hole oval (at -8.89 1.27) (size 1.7 1.7) (drill 1.02) (layers "*.Cu" "*.Mask") (tstamp 7bea05d4-1dec-4cd6-aa53-302dde803254))
  (pad "11" thru_hole oval (at 11.38 2.3) (size 1.7 1.7) (drill 1.02) (layers "*.Cu" "*.Mask") (tstamp e5606d81-a94e-44d6-95c5-bfcdcba104b3))
  (pad "12" thru_hole oval (at -8.89 3.81) (size 1.7 1.7) (drill 1.02) (layers "*.Cu" "*.Mask") (tstamp a5362821-c161-4c7a-a00c-40e1d7472d56))
  (pad "12" thru_hole oval (at 11.38 4.84) (size 1.7 1.7) (drill 1.02) (layers "*.Cu" "*.Mask") (tstamp 4b37536d-a7d7-49f8-838d-66f5d2697e18))
  (pad "13" thru_hole rect (at -8.89 6.35) (size 1.7 1.7) (drill 1.02) (layers "*.Cu" "*.Mask") (tstamp 1cc5480b-56b7-4379-98e2-ccafc88911a7))
  (pad "13" thru_hole rect (at 11.38 7.38) (size 1.7 1.7) (drill 1.02) (layers "*.Cu" "*.Mask") (tstamp 829fff2a-8130-44e7-9ed8-a0de37f78a15))
  (pad "14" thru_hole oval (at -8.89 8.89) (size 1.7 1.7) (drill 1.02) (layers "*.Cu" "*.Mask") (tstamp 9a8ad8bb-d9a9-4b2b-bc88-ea6fd2676d45))
  (pad "14" thru_hole oval (at 11.38 9.92) (size 1.7 1.7) (drill 1.02) (layers "*.Cu" "*.Mask") (tstamp ee03abe5-0459-4e6d-91b3-e0ce73e8d3e2))
  (pad "15" thru_hole oval (at -8.89 11.43) (size 1.7 1.7) (drill 1.02) (layers "*.Cu" "*.Mask") (tstamp 851f3d61-ba3b-4e6e-abd4-cafa4d9b64cb))
  (pad "15" thru_hole oval (at 11.38 12.46) (size 1.7 1.7) (drill 1.02) (layers "*.Cu" "*.Mask") (tstamp 1a17a41c-d25f-420e-9752-23b07373184d))
  (pad "16" thru_hole oval (at -8.89 13.97) (size 1.7 1.7) (drill 1.02) (layers "*.Cu" "*.Mask") (tstamp ca6e2466-a90a-4dab-be16-b070610e5087))
  (pad "16" thru_hole oval (at 11.38 15) (size 1.7 1.7) (drill 1.02) (layers "*.Cu" "*.Mask") (tstamp 0ca0d53c-2a25-4674-bae5-3d4af65aea4e))
  (pad "17" thru_hole oval (at -8.89 16.51) (size 1.7 1.7) (drill 1.02) (layers "*.Cu" "*.Mask") (tstamp d18f2428-546f-4066-8ffb-7653303685db))
  (pad "17" thru_hole oval (at 11.38 17.54) (size 1.7 1.7) (drill 1.02) (layers "*.Cu" "*.Mask") (tstamp 32f7d7a6-4205-4427-b8af-51e69b501507))
  (pad "18" thru_hole rect (at -8.89 19.05) (size 1.7 1.7) (drill 1.02) (layers "*.Cu" "*.Mask") (tstamp d95c6650-fcd9-4184-97fe-fde43ea5c0cd))
  (pad "18" thru_hole rect (at 11.38 20.08) (size 1.7 1.7) (drill 1.02) (layers "*.Cu" "*.Mask") (tstamp 029bc0ea-2056-4673-8caa-3ee2322a9523))
  (pad "19" thru_hole oval (at -8.89 21.59) (size 1.7 1.7) (drill 1.02) (layers "*.Cu" "*.Mask") (tstamp 12fa3c3f-3d14-451a-a6a8-884fd1b32fa7))
  (pad "19" thru_hole oval (at 11.38 22.62) (size 1.7 1.7) (drill 1.02) (layers "*.Cu" "*.Mask") (tstamp b1e32a0e-c582-407e-9a46-3d5e310a8939))
  (pad "20" thru_hole oval (at -8.89 24.13) (size 1.7 1.7) (drill 1.02) (layers "*.Cu" "*.Mask") (tstamp f4a1ab68-998b-43e3-aa33-40b58210bc99))
  (pad "20" thru_hole oval (at 11.38 25.16) (size 1.7 1.7) (drill 1.02) (layers "*.Cu" "*.Mask") (tstamp 734c2cbb-41f8-4697-a8db-5754d09f4d28))
  (pad "21" thru_hole oval (at -6.4 25.16) (size 1.7 1.7) (drill 1.02) (layers "*.Cu" "*.Mask") (tstamp b3a3048a-834a-43ee-9426-37f1ee730b28))
  (pad "21" thru_hole oval (at 8.89 24.13) (size 1.7 1.7) (drill 1.02) (layers "*.Cu" "*.Mask") (tstamp e76ec524-408a-4daa-89f6-0edfdbcfb621))
  (pad "22" thru_hole oval (at -6.4 22.62) (size 1.7 1.7) (drill 1.02) (layers "*.Cu" "*.Mask") (tstamp 39b11402-6322-4f64-9de3-37b10cbd8dec))
  (pad "22" thru_hole oval (at 8.89 21.59) (size 1.7 1.7) (drill 1.02) (layers "*.Cu" "*.Mask") (tstamp 78b44915-d68e-4488-a873-34767153ef98))
  (pad "23" thru_hole rect (at -6.4 20.08) (size 1.7 1.7) (drill 1.02) (layers "*.Cu" "*.Mask") (tstamp 3b688f78-91da-4df8-8f4a-730d9382e687))
  (pad "23" thru_hole rect (at 8.89 19.05) (size 1.7 1.7) (drill 1.02) (layers "*.Cu" "*.Mask") (tstamp 3993c707-5291-41b6-83c0-d1c09cb3833a))
  (pad "24" thru_hole oval (at -6.4 17.54) (size 1.7 1.7) (drill 1.02) (layers "*.Cu" "*.Mask") (tstamp 600379ee-42da-4712-8f26-f2f7286ed98e))
  (pad "24" thru_hole oval (at 8.89 16.51) (size 1.7 1.7) (drill 1.02) (layers "*.Cu" "*.Mask") (tstamp 17ff35b3-d658-499b-9a46-ea36063fed4e))
  (pad "25" thru_hole oval (at -6.4 15) (size 1.7 1.7) (drill 1.02) (layers "*.Cu" "*.Mask") (tstamp 8e0047d8-219c-40b0-9746-46718a0d196b))
  (pad "25" thru_hole oval (at 8.89 13.97) (size 1.7 1.7) (drill 1.02) (layers "*.Cu" "*.Mask") (tstamp d13b0eae-4711-4325-a6bb-aa8e3646e86e))
  (pad "26" thru_hole oval (at -6.4 12.46) (size 1.7 1.7) (drill 1.02) (layers "*.Cu" "*.Mask") (tstamp f08a47a0-8af7-492f-8025-8114b07a8fbe))
  (pad "26" thru_hole oval (at 8.89 11.43) (size 1.7 1.7) (drill 1.02) (layers "*.Cu" "*.Mask") (tstamp a917c6d9-225d-4c90-bf25-fe8eff8abd3f))
  (pad "27" thru_hole oval (at -6.4 9.92) (size 1.7 1.7) (drill 1.02) (layers "*.Cu" "*.Mask") (tstamp 86248faf-dd10-4790-947b-b55c46b0595a))
  (pad "27" thru_hole oval (at 8.89 8.89) (size 1.7 1.7) (drill 1.02) (layers "*.Cu" "*.Mask") (tstamp 89a3dae6-dcb5-435b-a383-656b6a19a316))
  (pad "28" thru_hole rect (at -6.4 7.38) (size 1.7 1.7) (drill 1.02) (layers "*.Cu" "*.Mask") (tstamp 016cdff8-e257-4664-9fb2-6bd5414aa59a))
  (pad "28" thru_hole rect (at 8.89 6.35) (size 1.7 1.7) (drill 1.02) (layers "*.Cu" "*.Mask") (tstamp b54cae5b-c17c-4ed7-b249-2e7d5e83609a))
  (pad "29" thru_hole oval (at -6.4 4.84) (size 1.7 1.7) (drill 1.02) (layers "*.Cu" "*.Mask") (tstamp 550b5ef8-6715-47b7-a2f0-34445282c3ca))
  (pad "29" thru_hole oval (at 8.89 3.81) (size 1.7 1.7) (drill 1.02) (layers "*.Cu" "*.Mask") (tstamp 26bc8641-9bca-4204-9709-deedbe202a36))
  (pad "30" thru_hole oval (at -6.4 2.3) (size 1.7 1.7) (drill 1.02) (layers "*.Cu" "*.Mask") (tstamp 6ee99038-4760-405a-b265-ad4614fb272d))
  (pad "30" thru_hole oval (at 8.89 1.27) (size 1.7 1.7) (drill 1.02) (layers "*.Cu" "*.Mask") (tstamp fd5f7d77-0f73-4021-88a8-0641f0fe8d98))
  (pad "31" thru_hole oval (at -6.4 -0.24) (size 1.7 1.7) (drill 1.02) (layers "*.Cu" "*.Mask") (tstamp 636cd482-468d-4056-b506-9e660a838a4d))
  (pad "31" thru_hole oval (at 8.89 -1.27) (size 1.7 1.7) (drill 1.02) (layers "*.Cu" "*.Mask") (tstamp 1755646e-fc08-4e43-a301-d9b3ea704cf6))
  (pad "32" thru_hole oval (at -6.4 -2.78) (size 1.7 1.7) (drill 1.02) (layers "*.Cu" "*.Mask") (tstamp 0c4c090f-741d-4d30-bba5-12a9bd220e47))
  (pad "32" thru_hole oval (at 8.89 -3.81) (size 1.7 1.7) (drill 1.02) (layers "*.Cu" "*.Mask") (tstamp 1317ff66-8ecf-46c9-9612-8d2eae03c537))
  (pad "33" thru_hole rect (at -6.4 -5.32) (size 1.7 1.7) (drill 1.02) (layers "*.Cu" "*.Mask") (tstamp 87896c1c-0f05-4632-9d73-84e1c632a173))
  (pad "33" thru_hole rect (at 8.89 -6.35) (size 1.7 1.7) (drill 1.02) (layers "*.Cu" "*.Mask") (tstamp ef4533db-6ea4-4b68-b436-8e9575be570d))
  (pad "34" thru_hole oval (at -6.4 -7.86) (size 1.7 1.7) (drill 1.02) (layers "*.Cu" "*.Mask") (tstamp 35b9ffa9-3fd3-4685-8f46-dc6028ebe334))
  (pad "34" thru_hole oval (at 8.89 -8.89) (size 1.7 1.7) (drill 1.02) (layers "*.Cu" "*.Mask") (tstamp f5dba25f-5f9b-4770-84f9-c038fb119360))
  (pad "35" thru_hole oval (at -6.4 -10.4) (size 1.7 1.7) (drill 1.02) (layers "*.Cu" "*.Mask") (tstamp 8330b8be-44fa-4c86-8537-f22e97114ecd))
  (pad "35" thru_hole oval (at 8.89 -11.43) (size 1.7 1.7) (drill 1.02) (layers "*.Cu" "*.Mask") (tstamp 8aff0f38-92a8-45ec-b106-b185e93ca3fd))
  (pad "36" thru_hole oval (at -6.4 -12.94) (size 1.7 1.7) (drill 1.02) (layers "*.Cu" "*.Mask") (tstamp 9c6e7ac0-7098-4895-b4cd-f9a0ef9ec1c0))
  (pad "36" thru_hole oval (at 8.89 -13.97) (size 1.7 1.7) (drill 1.02) (layers "*.Cu" "*.Mask") (tstamp 63caf46e-0228-40de-b819-c6bd29dd1711))
  (pad "37" thru_hole oval (at -6.4 -15.48) (size 1.7 1.7) (drill 1.02) (layers "*.Cu" "*.Mask") (tstamp ad4420b2-fe74-45a5-aa1c-e5c037be545a))
  (pad "37" thru_hole oval (at 8.89 -16.51) (size 1.7 1.7) (drill 1.02) (layers "*.Cu" "*.Mask") (tstamp a7fc0812-140f-4d96-9cd8-ead8c1c610b1))
  (pad "38" thru_hole rect (at -6.4 -18.02) (size 1.7 1.7) (drill 1.02) (layers "*.Cu" "*.Mask") (tstamp cc862924-e40d-4306-91d2-b17743d52a43))
  (pad "38" thru_hole rect (at 8.89 -19.05) (size 1.7 1.7) (drill 1.02) (layers "*.Cu" "*.Mask") (tstamp 94a10cae-6ef2-4b64-9d98-fb22aa3306cc))
  (pad "39" thru_hole oval (at -6.4 -20.56) (size 1.7 1.7) (drill 1.02) (layers "*.Cu" "*.Mask") (tstamp 563fbeda-6092-49af-8d04-b00d8d63cae6))
  (pad "39" thru_hole oval (at 8.89 -21.59) (size 1.7 1.7) (drill 1.02) (layers "*.Cu" "*.Mask") (tstamp f33ec0db-ef0f-4576-8054-2833161a8f30))
  (pad "40" thru_hole oval (at -6.4 -23.1) (size 1.7 1.7) (drill 1.02) (layers "*.Cu" "*.Mask") (tstamp c1061d65-5b8e-4a8e-b620-916eb75fdcb5))
  (pad "40" thru_hole oval (at 8.89 -24.13) (size 1.7 1.7) (drill 1.02) (layers "*.Cu" "*.Mask") (tstamp 0ba17a9b-d889-426c-b4fe-048bed6b6be8))
  (model "/home/drFaustroll/playground/keyboard/m65/m65-pcb/packages3d/Raspberry Pi Pico-R3.STEP"
    (offset (xyz 0 0 6.5))
    (scale (xyz 1 1 1))
    (rotate (xyz -90 0 0))
  )
  (model "/home/drFaustroll/playground/keyboard/m65/m65-pcb/packages3d/socket.stp"
    (offset (xyz -9 -26.75 3))
    (scale (xyz 1 1 1))
    (rotate (xyz -90 0 -90))
  )
  (model "/home/drFaustroll/playground/keyboard/m65/m65-pcb/packages3d/socket.stp"
    (offset (xyz 9 26.75 3))
    (scale (xyz 1 1 1))
    (rotate (xyz -90 0 90))
  )
  (model "/home/drFaustroll/playground/keyboard/m65/m65-pcb/packages3d/header-male.stp"
    (offset (xyz -9 26.5 6))
    (scale (xyz 1 1 1))
    (rotate (xyz -90 0 90))
  )
  (model "/home/drFaustroll/playground/keyboard/m65/m65-pcb/packages3d/header-male.stp"
    (offset (xyz 9 -26.5 6))
    (scale (xyz 1 1 1))
    (rotate (xyz -90 0 -90))
  )
  (model "/home/drFaustroll/playground/keyboard/m65/m65-pcb/packages3d/socket.stp"
    (offset (xyz -6.5 -27.5 -5.5))
    (scale (xyz 1 1 1))
    (rotate (xyz 90 0 -90))
  )
  (model "/home/drFaustroll/playground/keyboard/m65/m65-pcb/packages3d/socket.stp"
    (offset (xyz 11 -27.5 -5.5))
    (scale (xyz 1 1 1))
    (rotate (xyz 90 0 -90))
  )
  (model "/home/drFaustroll/playground/keyboard/m65/m65-pcb/packages3d/header-male.stp"
    (offset (xyz 11 -27.5 -9))
    (scale (xyz 1 1 1))
    (rotate (xyz 90 0 -90))
  )
  (model "/home/drFaustroll/playground/keyboard/m65/m65-pcb/packages3d/header-male.stp"
    (offset (xyz -6.5 -27.5 -9))
    (scale (xyz 1 1 1))
    (rotate (xyz 90 0 -90))
  )
  (model "/home/drFaustroll/playground/keyboard/m65/m65-pcb/packages3d/Raspberry Pi Pico-R3.STEP"
    (offset (xyz 2 -1 -10))
    (scale (xyz 1 1 1))
    (rotate (xyz -90 180 0))
  )
)
