(footprint "sharp_Socket_1x05_P2.54mm_Vertical" (version 20221018) (generator pcbnew)
  (layer "F.Cu")
  (descr "Through hole straight socket strip, 1x05, 2.54mm pitch, single row (from Kicad 4.0.7), script generated")
  (tags "Through hole socket strip THT 1x05 2.54mm single row")
  (property "Sheetfile" "sharp-memory-displays.kicad_sch")
  (property "Sheetname" "")
  (property "ki_description" "Generic connector, single row, 01x05, script generated (kicad-library-utils/schlib/autogen/connector/)")
  (property "ki_keywords" "connector")
  (attr through_hole)
  (fp_text reference "J2" (at 0 -2.77 180) (layer "F.SilkS")
      (effects (font (size 1 1) (thickness 0.15)))
    (tstamp 8b9fd7ab-5e44-4583-ba00-e30cc9b9bf26)
  )
  (fp_text value "Conn_01x05" (at 0 12.93 180) (layer "F.Fab")
      (effects (font (size 1 1) (thickness 0.15)))
    (tstamp b078390d-6825-40d3-b7ec-406ead7bc96d)
  )
  (fp_text user "${REFERENCE}" (at 0 5.08 270) (layer "F.Fab")
      (effects (font (size 1 1) (thickness 0.15)))
    (tstamp 480497da-d1cf-4fb6-8f74-0c478b5b848d)
  )
  (fp_line (start -1.33 1.27) (end -1.33 11.49)
    (stroke (width 0.12) (type solid)) (layer "F.SilkS") (tstamp 4e4cfb17-9814-4982-afff-119281bc4c3e))
  (fp_line (start -1.33 1.27) (end 1.33 1.27)
    (stroke (width 0.12) (type solid)) (layer "F.SilkS") (tstamp 9a93bb0f-58f2-456e-a23a-31634e3a0a8e))
  (fp_line (start -1.33 11.49) (end 1.33 11.49)
    (stroke (width 0.12) (type solid)) (layer "F.SilkS") (tstamp 7d2f7f33-94a0-4ccf-87b8-efdf35fd8e63))
  (fp_line (start 0 -1.33) (end 1.33 -1.33)
    (stroke (width 0.12) (type solid)) (layer "F.SilkS") (tstamp d9f63429-ad64-4662-8564-991992eef99b))
  (fp_line (start 1.33 -1.33) (end 1.33 0)
    (stroke (width 0.12) (type solid)) (layer "F.SilkS") (tstamp 70c3aff1-3474-494d-b6fe-9bd2c22199fd))
  (fp_line (start 1.33 1.27) (end 1.33 11.49)
    (stroke (width 0.12) (type solid)) (layer "F.SilkS") (tstamp 9a2fc3eb-95b4-48d2-8972-2a3bc852bf09))
  (fp_line (start -1.8 -1.8) (end 1.75 -1.8)
    (stroke (width 0.05) (type solid)) (layer "F.CrtYd") (tstamp fd584b6e-990d-45c8-b4af-54d37eb901a0))
  (fp_line (start -1.8 11.9) (end -1.8 -1.8)
    (stroke (width 0.05) (type solid)) (layer "F.CrtYd") (tstamp 7e523b99-4418-4c7f-863b-8d75d427b416))
  (fp_line (start 1.75 -1.8) (end 1.75 11.9)
    (stroke (width 0.05) (type solid)) (layer "F.CrtYd") (tstamp 00dc7d4c-4cef-4af7-9d97-038a9e8fac56))
  (fp_line (start 1.75 11.9) (end -1.8 11.9)
    (stroke (width 0.05) (type solid)) (layer "F.CrtYd") (tstamp fa302661-bf29-4c8b-98a1-21472609969c))
  (fp_line (start -1.27 -1.27) (end 0.635 -1.27)
    (stroke (width 0.1) (type solid)) (layer "F.Fab") (tstamp a5815bfa-4b09-42a8-9eb0-41136bc657f2))
  (fp_line (start -1.27 11.43) (end -1.27 -1.27)
    (stroke (width 0.1) (type solid)) (layer "F.Fab") (tstamp 8263d34c-e0f8-44d5-91a6-c52d108285ac))
  (fp_line (start 0.635 -1.27) (end 1.27 -0.635)
    (stroke (width 0.1) (type solid)) (layer "F.Fab") (tstamp a8a431f1-9921-4fc3-bdbf-41b407c0e56a))
  (fp_line (start 1.27 -0.635) (end 1.27 11.43)
    (stroke (width 0.1) (type solid)) (layer "F.Fab") (tstamp a0012f53-dd9a-4c67-859c-31a4ac23ca59))
  (fp_line (start 1.27 11.43) (end -1.27 11.43)
    (stroke (width 0.1) (type solid)) (layer "F.Fab") (tstamp bf4ddbbf-4fe2-4e1b-a3f4-8e89ca456305))
  (pad "1" thru_hole circle (at 0 0) (size 1.7 1.7) (drill 1) (layers "*.Cu" "*.Mask") (tstamp fd4f7950-33e1-4353-8e55-f5a7a45e6181))
  (pad "2" thru_hole roundrect (at 0 2.54) (size 1.7 1.7) (drill 1) (layers "*.Cu" "*.Mask") (roundrect_rratio 0.25) (tstamp 83526c35-e526-4831-a302-afbf2a6607aa))
  (pad "3" thru_hole circle (at 0 5.08) (size 1.7 1.7) (drill 1) (layers "*.Cu" "*.Mask") (tstamp 01db38fd-e842-4951-8fd4-e151cb25cf18))
  (pad "4" thru_hole circle (at 0 7.62) (size 1.7 1.7) (drill 1) (layers "*.Cu" "*.Mask") (tstamp e3ada24c-1aba-47b5-9205-9a35f22f4971))
  (pad "5" thru_hole circle (at 0 10.16) (size 1.7 1.7) (drill 1) (layers "*.Cu" "*.Mask") (tstamp ea8308cb-5aac-439c-83c5-38582f34942a))
  (model "${KICAD6_3DMODEL_DIR}/Connector_PinSocket_2.54mm.3dshapes/PinSocket_1x05_P2.54mm_Vertical.wrl"
    (offset (xyz 0 0 0))
    (scale (xyz 1 1 1))
    (rotate (xyz 0 0 0))
  )
)
