(footprint "SN74HC125N" (version 20221018) (generator pcbnew)
  (layer "F.Cu")
  (descr "14 pdip")
  (tags "Integrated Circuit")
  (attr through_hole)
  (fp_text reference "IC**" (at 0 0) (layer "F.SilkS")
      (effects (font (size 1.27 1.27) (thickness 0.254)))
    (tstamp 96e3f5b5-4bb8-475f-b16c-0b1051103449)
  )
  (fp_text value "SN74HC125N" (at 0 0) (layer "F.SilkS") hide
      (effects (font (size 1.27 1.27) (thickness 0.254)))
    (tstamp 6835f30a-c810-480a-a76e-30702f758fd6)
  )
  (fp_text user "${VALUE}" (at 1.7 0 90) (layer "B.SilkS")
      (effects (font (size 1.27 1.27) (thickness 0.254)) (justify mirror))
    (tstamp 54eff823-66d3-4fb2-8407-0566847d8614)
  )
  (fp_text user "${VALUE}" (at 1.6 -0.1 90) (layer "F.SilkS")
      (effects (font (size 1.27 1.27) (thickness 0.254)))
    (tstamp 8ddcfb48-e37b-4407-b204-406fd4dcc6dd)
  )
  (fp_text user "${REFERENCE}" (at -0.4 -1 90) (layer "F.Fab")
      (effects (font (size 1.27 1.27) (thickness 0.254)))
    (tstamp 25568a7e-712e-410c-b607-ba49a875f4a2)
  )
  (fp_line (start -4.535 -9.845) (end 3.3 -9.845)
    (stroke (width 0.2) (type solid)) (layer "F.SilkS") (tstamp d6fa665b-5502-4aaa-8f7d-28e82366364d))
  (fp_line (start -3.3 9.845) (end 3.3 9.845)
    (stroke (width 0.2) (type solid)) (layer "F.SilkS") (tstamp 7ddb9892-2cfa-49e7-b061-3766f6eb03fc))
  (fp_line (start -4.945 -10.095) (end 4.945 -10.095)
    (stroke (width 0.05) (type solid)) (layer "F.CrtYd") (tstamp 3d40eab4-9bef-4f15-b526-f8aef1c24bfb))
  (fp_line (start -4.945 10.095) (end -4.945 -10.095)
    (stroke (width 0.05) (type solid)) (layer "F.CrtYd") (tstamp 8c75bd5e-5232-4409-ba27-ab4e8ae26760))
  (fp_line (start 4.945 -10.095) (end 4.945 10.095)
    (stroke (width 0.05) (type solid)) (layer "F.CrtYd") (tstamp 880ca6e6-c9e4-4d5c-a66e-033d5fe91f7f))
  (fp_line (start 4.945 10.095) (end -4.945 10.095)
    (stroke (width 0.05) (type solid)) (layer "F.CrtYd") (tstamp ddb25595-4cab-4615-ac65-d50bccdcf696))
  (fp_line (start -3.3 -9.845) (end 3.3 -9.845)
    (stroke (width 0.1) (type solid)) (layer "F.Fab") (tstamp 8eca03ff-4712-4328-9e61-05021b125d3d))
  (fp_line (start -3.3 -8.575) (end -2.03 -9.845)
    (stroke (width 0.1) (type solid)) (layer "F.Fab") (tstamp 9f56d929-b7a4-4000-9341-95dbaf4908f9))
  (fp_line (start -3.3 9.845) (end -3.3 -9.845)
    (stroke (width 0.1) (type solid)) (layer "F.Fab") (tstamp 76c3befb-e927-4261-a905-1bf706dadc45))
  (fp_line (start 3.3 -9.845) (end 3.3 9.845)
    (stroke (width 0.1) (type solid)) (layer "F.Fab") (tstamp d6995599-f488-40eb-ba44-974217c55c72))
  (fp_line (start 3.3 9.845) (end -3.3 9.845)
    (stroke (width 0.1) (type solid)) (layer "F.Fab") (tstamp c330366e-5b3f-4ba9-accf-58e2a1872762))
  (pad "1" thru_hole rect (at -3.97 -7.62) (size 1.13 1.13) (drill 0.73) (layers "*.Cu" "*.Mask") (tstamp 38f667d9-b2e4-4d35-a205-4f43e9ebbdd7))
  (pad "2" thru_hole circle (at -3.97 -5.08) (size 1.13 1.13) (drill 0.73) (layers "*.Cu" "*.Mask") (tstamp 8f2e4a18-3a16-414f-b775-8bd0637752ac))
  (pad "3" thru_hole circle (at -3.97 -2.54) (size 1.13 1.13) (drill 0.73) (layers "*.Cu" "*.Mask") (tstamp 7d1ab931-0e71-4f8e-adaf-86ce1b34c12b))
  (pad "4" thru_hole circle (at -3.97 0) (size 1.13 1.13) (drill 0.73) (layers "*.Cu" "*.Mask") (tstamp 6892ef51-27b5-4b30-8bcf-7fc41c89acc8))
  (pad "5" thru_hole circle (at -3.97 2.54) (size 1.13 1.13) (drill 0.73) (layers "*.Cu" "*.Mask") (tstamp e4e0ff71-e00a-4ab6-9112-6b3a3c689753))
  (pad "6" thru_hole circle (at -3.97 5.08) (size 1.13 1.13) (drill 0.73) (layers "*.Cu" "*.Mask") (tstamp dcee29ca-b08c-43bd-b739-952f2840f1ec))
  (pad "7" thru_hole circle (at -3.97 7.62) (size 1.13 1.13) (drill 0.73) (layers "*.Cu" "*.Mask") (tstamp 08673bd5-5b61-4705-b0cd-0564adc59f63))
  (pad "8" thru_hole circle (at 3.97 7.62) (size 1.13 1.13) (drill 0.73) (layers "*.Cu" "*.Mask") (tstamp 71b7adba-d211-417d-b071-17ccdc0e161c))
  (pad "9" thru_hole circle (at 3.97 5.08) (size 1.13 1.13) (drill 0.73) (layers "*.Cu" "*.Mask") (tstamp 8eb3224d-80a0-4dff-890a-2fe1ddc4e7e4))
  (pad "10" thru_hole circle (at 3.97 2.54) (size 1.13 1.13) (drill 0.73) (layers "*.Cu" "*.Mask") (tstamp 309f157a-414a-48f3-a024-861ead6ca086))
  (pad "11" thru_hole circle (at 3.97 0) (size 1.13 1.13) (drill 0.73) (layers "*.Cu" "*.Mask") (tstamp a79361c0-6e2e-4831-9384-2de028f3729f))
  (pad "12" thru_hole circle (at 3.97 -2.54) (size 1.13 1.13) (drill 0.73) (layers "*.Cu" "*.Mask") (tstamp d2a1a709-ebf7-4463-b499-6f0d7eab0d9d))
  (pad "13" thru_hole circle (at 3.97 -5.08) (size 1.13 1.13) (drill 0.73) (layers "*.Cu" "*.Mask") (tstamp cdd286e2-6acb-4ef5-bae6-73d0e1f0a787))
  (pad "14" thru_hole circle (at 3.97 -7.62) (size 1.13 1.13) (drill 0.73) (layers "*.Cu" "*.Mask") (tstamp 129d9762-6e6c-4e9f-a825-57720e57e83f))
  (model "/home/drFaustroll/playground/keyboard/m65/m65-pcb/packages3d/SN74HC125N.stp"
    (offset (xyz 0 0 1.5))
    (scale (xyz 1 1 1))
    (rotate (xyz -90 0 0))
  )
)
