(footprint "socket-3p1G" (version 20221018) (generator pcbnew)
  (layer "F.Cu")
  (descr "Through hole straight socket strip, 1x03, 2.00mm pitch, single row (from Kicad 4.0.7), script generated")
  (tags "Through hole socket strip THT 1x03 2.00mm single row")
  (property "Sheetfile" "hand-4x4.kicad_sch")
  (property "Sheetname" "")
  (property "ki_description" "Generic connector, single row, 01x03, script generated")
  (property "ki_keywords" "connector")
  (attr through_hole)
  (fp_text reference "Co1" (at -0.01 -1.58) (layer "F.SilkS")
      (effects (font (size 0.7 0.7) (thickness 0.1)))
    (tstamp b6d067f1-e23b-4b7e-8b5f-0631d8974047)
  )
  (fp_text value "c" (at 0 6.5) (layer "F.Fab")
      (effects (font (size 1 1) (thickness 0.15)))
    (tstamp 733e4a1c-d943-433a-88d2-b38bcf8a9ad8)
  )
  (fp_text user "${REFERENCE}" (at 0 -1.64) (layer "B.SilkS")
      (effects (font (size 0.7 0.7) (thickness 0.1)) (justify mirror))
    (tstamp 177948fe-096c-443f-9fa9-ef54fe77d90b)
  )
  (fp_text user "${REFERENCE}" (at 0 2 90) (layer "F.Fab")
      (effects (font (size 1 1) (thickness 0.15)))
    (tstamp 6061539a-b342-4df3-8a0a-49ca28e4b5a9)
  )
  (fp_rect (start -1.06 -1.03) (end 1.06 5.06)
    (stroke (width 0.1) (type default)) (fill none) (layer "B.SilkS") (tstamp 662af894-14dd-4015-b5af-2635dceb16b5))
  (fp_line (start -1.06 -1.06) (end -1.06 5.06)
    (stroke (width 0.12) (type solid)) (layer "F.SilkS") (tstamp 56d2fba5-b051-4d51-b79a-21ae70eefe90))
  (fp_line (start -1.06 -1.06) (end 1.06 -1.06)
    (stroke (width 0.12) (type solid)) (layer "F.SilkS") (tstamp 57125f92-f297-41e4-8503-54a5b982e6ef))
  (fp_line (start -1.06 5.06) (end 1.06 5.06)
    (stroke (width 0.12) (type solid)) (layer "F.SilkS") (tstamp 143cf198-abe3-437c-91d7-4654c89965be))
  (fp_line (start 0 -1.06) (end 1.06 -1.06)
    (stroke (width 0.12) (type solid)) (layer "F.SilkS") (tstamp 63f4c5f1-2949-43c8-ae0e-a11507c72e24))
  (fp_line (start 1.06 -1.06) (end 1.06 0)
    (stroke (width 0.12) (type solid)) (layer "F.SilkS") (tstamp 5419f7cc-4cd6-4fde-bec5-43267a011278))
  (fp_line (start 1.06 -1.06) (end 1.06 5.06)
    (stroke (width 0.12) (type solid)) (layer "F.SilkS") (tstamp c487ef87-33c0-43b6-a493-addd95a2d775))
  (fp_line (start -1.5 -1.5) (end 1.5 -1.5)
    (stroke (width 0.05) (type solid)) (layer "F.CrtYd") (tstamp c397a6d9-1ea1-40ac-addb-d46f47e57b4f))
  (fp_line (start -1.5 5.5) (end -1.5 -1.5)
    (stroke (width 0.05) (type solid)) (layer "F.CrtYd") (tstamp f3f0ad39-3dc1-45d1-a2de-35d931689ad3))
  (fp_line (start 1.5 -1.5) (end 1.5 5.5)
    (stroke (width 0.05) (type solid)) (layer "F.CrtYd") (tstamp b2110982-bbcb-47c4-886d-08bb8c5fb6c3))
  (fp_line (start 1.5 5.5) (end -1.5 5.5)
    (stroke (width 0.05) (type solid)) (layer "F.CrtYd") (tstamp 04894b7a-6dd4-4f51-b38a-9f4ab2b84a06))
  (fp_line (start -1 -1) (end 0.5 -1)
    (stroke (width 0.1) (type solid)) (layer "F.Fab") (tstamp 8563b038-0450-44bf-b490-f35f6da13e89))
  (fp_line (start -1 5) (end -1 -1)
    (stroke (width 0.1) (type solid)) (layer "F.Fab") (tstamp 26b946b3-1d1a-4e09-ae6f-3b097faecc3c))
  (fp_line (start 0.5 -1) (end 1 -0.5)
    (stroke (width 0.1) (type solid)) (layer "F.Fab") (tstamp 566d9de9-2ba9-4303-8343-144db785a401))
  (fp_line (start 1 -0.5) (end 1 5)
    (stroke (width 0.1) (type solid)) (layer "F.Fab") (tstamp e234334e-5e53-496a-9677-bfce60a6cf6f))
  (fp_line (start 1 5) (end -1 5)
    (stroke (width 0.1) (type solid)) (layer "F.Fab") (tstamp 2b2639b8-b3f7-4094-9656-4be4390aee86))
  (pad "1" thru_hole rect (at 0 0) (size 1.35 1.35) (drill 0.8) (layers "*.Cu" "*.Mask") (tstamp 7f1d20b9-afb9-46d0-ac26-c5a31dcfb6a3))
  (pad "2" thru_hole oval (at 0 2) (size 1.35 1.35) (drill 0.8) (layers "*.Cu" "*.Mask") (tstamp ff80b362-fe4d-4166-80ab-885188c91fce))
  (pad "3" thru_hole oval (at 0 4) (size 1.35 1.35) (drill 0.8) (layers "*.Cu" "*.Mask") (tstamp ea9f0732-3017-4702-b4c6-ac4dfb3dbb0b))
)
