(footprint "LOGO" (version 20221018) (generator bitmap2component)
  (layer "F.Cu")
  (attr board_only exclude_from_pos_files exclude_from_bom)
  (fp_text reference "G***" (at 0 0) (layer "F.SilkS") hide
      (effects (font (size 1.5 1.5) (thickness 0.3)))
    (tstamp 3fe41643-66a6-4343-839c-79c7dc082e6c)
  )
  (fp_text value "LOGO" (at 0.75 0) (layer "F.SilkS") hide
      (effects (font (size 1.5 1.5) (thickness 0.3)))
    (tstamp d9d7227c-9072-46f3-b95f-a8993844577f)
  )
  (fp_poly
    (pts
      (xy -0.059362 -8.017442)
      (xy 0.445752 -7.957261)
      (xy 1.024736 -7.851145)
      (xy 1.618945 -7.712933)
      (xy 2.169734 -7.556464)
      (xy 2.618457 -7.395575)
      (xy 2.669978 -7.373406)
      (xy 3.261458 -7.060150)
      (xy 3.889933 -6.638450)
      (xy 4.512197 -6.144146)
      (xy 5.085042 -5.613077)
      (xy 5.565262 -5.081084)
      (xy 5.778413 -4.794959)
      (xy 6.019364 -4.404305)
      (xy 6.273489 -3.932593)
      (xy 6.517689 -3.428858)
      (xy 6.728864 -2.942136)
      (xy 6.883915 -2.521464)
      (xy 6.937073 -2.335298)
      (xy 7.028224 -1.835966)
      (xy 7.094173 -1.236674)
      (xy 7.130621 -0.605498)
      (xy 7.133265 -0.010516)
      (xy 7.108981 0.385742)
      (xy 6.923666 1.394875)
      (xy 6.588636 2.371621)
      (xy 6.118508 3.296259)
      (xy 5.527901 4.149067)
      (xy 4.831435 4.910325)
      (xy 4.043727 5.560312)
      (xy 3.179397 6.079307)
      (xy 2.743021 6.275531)
      (xy 2.043212 6.534947)
      (xy 1.425974 6.709505)
      (xy 0.834904 6.811091)
      (xy 0.213596 6.851593)
      (xy 0.000000 6.853595)
      (xy -0.809609 6.825668)
      (xy -1.509153 6.737490)
      (xy -2.150601 6.577993)
      (xy -2.785920 6.336105)
      (xy -3.085978 6.196296)
      (xy -3.829172 5.799671)
      (xy -4.444374 5.391341)
      (xy -4.971821 4.940284)
      (xy -5.451749 4.415482)
      (xy -5.543187 4.301963)
      (xy -6.037206 3.623685)
      (xy -6.411745 2.976365)
      (xy -6.693871 2.306121)
      (xy -6.900922 1.599184)
      (xy -7.084942 0.513515)
      (xy -7.102218 -0.549172)
      (xy -6.954588 -1.581833)
      (xy -6.643888 -2.577429)
      (xy -6.171957 -3.528919)
      (xy -5.540632 -4.429261)
      (xy -5.235615 -4.782558)
      (xy -4.662970 -5.312709)
      (xy -3.972023 -5.797124)
      (xy -3.212915 -6.207421)
      (xy -2.435786 -6.515218)
      (xy -1.940476 -6.647776)
      (xy -1.596709 -6.700918)
      (xy -1.151581 -6.742918)
      (xy -0.672970 -6.768315)
      (xy -0.379836 -6.773333)
      (xy 0.104941 -6.765959)
      (xy 0.482974 -6.738355)
      (xy 0.816427 -6.682305)
      (xy 1.167463 -6.589588)
      (xy 1.286796 -6.552987)
      (xy 2.199923 -6.210894)
      (xy 2.988839 -5.790022)
      (xy 3.688103 -5.270462)
      (xy 3.981122 -5.000732)
      (xy 4.582230 -4.344788)
      (xy 5.058925 -3.662201)
      (xy 5.434441 -2.911855)
      (xy 5.732013 -2.052638)
      (xy 5.810624 -1.763360)
      (xy 5.877754 -1.357027)
      (xy 5.909132 -0.839415)
      (xy 5.906520 -0.264373)
      (xy 5.871678 0.314254)
      (xy 5.806366 0.842617)
      (xy 5.712347 1.266869)
      (xy 5.711434 1.269859)
      (xy 5.471194 1.900779)
      (xy 5.135121 2.568765)
      (xy 4.739109 3.204480)
      (xy 4.633223 3.352581)
      (xy 4.301767 3.732253)
      (xy 3.861632 4.138207)
      (xy 3.361113 4.533217)
      (xy 2.848503 4.880054)
      (xy 2.372096 5.141493)
      (xy 2.235305 5.200987)
      (xy 1.250770 5.509173)
      (xy 0.264470 5.650665)
      (xy -0.711483 5.627367)
      (xy -1.664979 5.441181)
      (xy -2.583907 5.094011)
      (xy -3.456157 4.587760)
      (xy -3.922298 4.233333)
      (xy -4.442874 3.729734)
      (xy -4.899170 3.129300)
      (xy -5.318069 2.396483)
      (xy -5.331048 2.370667)
      (xy -5.569835 1.844777)
      (xy -5.731526 1.353270)
      (xy -5.828567 0.839546)
      (xy -5.873406 0.247006)
      (xy -5.880300 -0.127000)
      (xy -5.859453 -0.741741)
      (xy -5.781719 -1.286276)
      (xy -5.632993 -1.817186)
      (xy -5.399173 -2.391054)
      (xy -5.226112 -2.751667)
      (xy -4.943710 -3.207845)
      (xy -4.552960 -3.689971)
      (xy -4.095596 -4.156681)
      (xy -3.613352 -4.566609)
      (xy -3.147962 -4.878390)
      (xy -3.005667 -4.952465)
      (xy -2.241457 -5.276256)
      (xy -1.546582 -5.480781)
      (xy -0.881356 -5.576339)
      (xy -0.562582 -5.586530)
      (xy 0.407223 -5.505405)
      (xy 1.313371 -5.269536)
      (xy 2.146758 -4.883795)
      (xy 2.898279 -4.353055)
      (xy 3.558830 -3.682190)
      (xy 3.928922 -3.182627)
      (xy 4.316551 -2.452009)
      (xy 4.571545 -1.650772)
      (xy 4.693476 -0.809504)
      (xy 4.681912 0.041208)
      (xy 4.536423 0.870775)
      (xy 4.256580 1.648610)
      (xy 4.003370 2.110498)
      (xy 3.585900 2.701132)
      (xy 3.147828 3.174314)
      (xy 2.644180 3.569604)
      (xy 2.029983 3.926559)
      (xy 1.820333 4.030693)
      (xy 1.218576 4.251454)
      (xy 0.531328 4.390288)
      (xy -0.173917 4.437851)
      (xy -0.788374 4.391732)
      (xy -1.649742 4.174863)
      (xy -2.427038 3.822582)
      (xy -3.108335 3.348568)
      (xy -3.681706 2.766497)
      (xy -4.135223 2.090046)
      (xy -4.456962 1.332893)
      (xy -4.634993 0.508715)
      (xy -4.668000 -0.057211)
      (xy -4.649746 -0.619187)
      (xy -4.586973 -1.079414)
      (xy -4.464186 -1.502974)
      (xy -4.265889 -1.954944)
      (xy -4.172566 -2.138036)
      (xy -3.843489 -2.643834)
      (xy -3.407041 -3.139083)
      (xy -2.913147 -3.574354)
      (xy -2.411732 -3.900222)
      (xy -2.372268 -3.920345)
      (xy -2.057896 -4.052292)
      (xy -1.663231 -4.184246)
      (xy -1.282072 -4.285603)
      (xy -0.900383 -4.360147)
      (xy -0.586764 -4.387485)
      (xy -0.255647 -4.370667)
      (xy 0.042333 -4.332830)
      (xy 0.849225 -4.137525)
      (xy 1.575177 -3.802626)
      (xy 2.206470 -3.341786)
      (xy 2.729381 -2.768657)
      (xy 3.130192 -2.096893)
      (xy 3.395182 -1.340146)
      (xy 3.474780 -0.917327)
      (xy 3.497712 -0.148000)
      (xy 3.362763 0.592605)
      (xy 3.081185 1.284019)
      (xy 2.664227 1.905774)
      (xy 2.123142 2.437399)
      (xy 1.469180 2.858427)
      (xy 1.373575 2.905338)
      (xy 1.102281 3.027799)
      (xy 0.876667 3.106342)
      (xy 0.644166 3.150619)
      (xy 0.352213 3.170281)
      (xy -0.051756 3.174981)
      (xy -0.095048 3.175000)
      (xy -0.500872 3.172430)
      (xy -0.790661 3.157026)
      (xy -1.017710 3.117245)
      (xy -1.235311 3.041544)
      (xy -1.496760 2.918382)
      (xy -1.658742 2.836333)
      (xy -2.062163 2.610455)
      (xy -2.367966 2.381868)
      (xy -2.640823 2.099536)
      (xy -2.731610 1.989667)
      (xy -3.118949 1.386967)
      (xy -3.360809 0.741967)
      (xy -3.461606 0.077635)
      (xy -3.425754 -0.583059)
      (xy -3.257670 -1.217148)
      (xy -2.961768 -1.801660)
      (xy -2.542464 -2.313629)
      (xy -2.004172 -2.730084)
      (xy -1.802875 -2.841780)
      (xy -1.213336 -3.052866)
      (xy -0.565610 -3.134733)
      (xy 0.085920 -3.084659)
      (xy 0.543459 -2.959213)
      (xy 1.120126 -2.660650)
      (xy 1.593161 -2.250582)
      (xy 1.952481 -1.753608)
      (xy 2.188003 -1.194327)
      (xy 2.289644 -0.597340)
      (xy 2.247320 0.012757)
      (xy 2.050951 0.611362)
      (xy 2.027086 0.660418)
      (xy 1.751043 1.117049)
      (xy 1.415414 1.467404)
      (xy 0.968749 1.763509)
      (xy 0.898861 1.801251)
      (xy 0.533114 1.927464)
      (xy 0.079335 1.988493)
      (xy -0.395190 1.983218)
      (xy -0.823177 1.910522)
      (xy -1.031194 1.833314)
      (xy -1.535696 1.495014)
      (xy -1.920472 1.046698)
      (xy -2.170347 0.510907)
      (xy -2.265588 0.000000)
      (xy -2.268843 -0.316060)
      (xy -2.213776 -0.582848)
      (xy -2.080894 -0.888308)
      (xy -2.059271 -0.930809)
      (xy -1.753642 -1.370617)
      (xy -1.367845 -1.690005)
      (xy -0.929908 -1.885172)
      (xy -0.467860 -1.952321)
      (xy -0.009730 -1.887650)
      (xy 0.416454 -1.687361)
      (xy 0.782663 -1.347654)
      (xy 0.804930 -1.319076)
      (xy 0.997010 -0.949527)
      (xy 1.080618 -0.523069)
      (xy 1.049695 -0.102117)
      (xy 0.949410 0.169333)
      (xy 0.746745 0.423253)
      (xy 0.460120 0.647317)
      (xy 0.151131 0.800758)
      (xy -0.071872 0.845274)
      (xy -0.412813 0.773881)
      (xy -0.735225 0.583141)
      (xy -0.969269 0.315078)
      (xy -0.977419 0.300361)
      (xy -1.070619 -0.009605)
      (xy -1.036523 -0.305018)
      (xy -0.897918 -0.550220)
      (xy -0.677596 -0.709556)
      (xy -0.398346 -0.747368)
      (xy -0.317277 -0.732489)
      (xy -0.114985 -0.617237)
      (xy -0.027785 -0.434514)
      (xy -0.074828 -0.238029)
      (xy -0.120821 -0.181561)
      (xy -0.229292 -0.093851)
      (xy -0.284242 -0.149387)
      (xy -0.308731 -0.233335)
      (xy -0.405401 -0.394630)
      (xy -0.550831 -0.401163)
      (xy -0.676421 -0.297433)
      (xy -0.757877 -0.091254)
      (xy -0.705606 0.123230)
      (xy -0.550026 0.312731)
      (xy -0.321556 0.443963)
      (xy -0.050616 0.483638)
      (xy 0.028418 0.473863)
      (xy 0.355708 0.339363)
      (xy 0.584884 0.100009)
      (xy 0.713491 -0.209326)
      (xy 0.739076 -0.553773)
      (xy 0.659183 -0.898458)
      (xy 0.471359 -1.208510)
      (xy 0.173149 -1.449059)
      (xy 0.164112 -1.453958)
      (xy -0.268556 -1.604714)
      (xy -0.688876 -1.606688)
      (xy -1.077829 -1.480302)
      (xy -1.416396 -1.245975)
      (xy -1.685558 -0.924129)
      (xy -1.866296 -0.535183)
      (xy -1.939589 -0.099559)
      (xy -1.886420 0.362324)
      (xy -1.787076 0.640989)
      (xy -1.503625 1.077324)
      (xy -1.119144 1.400262)
      (xy -0.663191 1.604209)
      (xy -0.165322 1.683566)
      (xy 0.344905 1.632738)
      (xy 0.837931 1.446128)
      (xy 1.189360 1.204577)
      (xy 1.583741 0.763854)
      (xy 1.837804 0.254833)
      (xy 1.950985 -0.295171)
      (xy 1.922724 -0.858845)
      (xy 1.752459 -1.408876)
      (xy 1.439628 -1.917949)
      (xy 1.257721 -2.120882)
      (xy 0.754133 -2.511640)
      (xy 0.184916 -2.752243)
      (xy -0.427889 -2.835457)
      (xy -0.824356 -2.804147)
      (xy -1.491825 -2.616585)
      (xy -2.071219 -2.287948)
      (xy -2.549747 -1.827615)
      (xy -2.894625 -1.286325)
      (xy -3.025173 -0.889990)
      (xy -3.094029 -0.396084)
      (xy -3.100915 0.135163)
      (xy -3.045551 0.643516)
      (xy -2.927658 1.068745)
      (xy -2.905759 1.119058)
      (xy -2.611814 1.598440)
      (xy -2.202336 2.053230)
      (xy -1.728835 2.431078)
      (xy -1.462834 2.585604)
      (xy -0.861290 2.798215)
      (xy -0.196467 2.880086)
      (xy 0.484773 2.829093)
      (xy 0.993978 2.696918)
      (xy 1.625153 2.388059)
      (xy 2.174877 1.942495)
      (xy 2.626565 1.379935)
      (xy 2.963633 0.720089)
      (xy 3.136230 0.150905)
      (xy 3.196503 -0.497674)
      (xy 3.108880 -1.171412)
      (xy 2.884366 -1.836951)
      (xy 2.533966 -2.460932)
      (xy 2.105309 -2.974157)
      (xy 1.554287 -3.435711)
      (xy 0.959101 -3.755759)
      (xy 0.277031 -3.955626)
      (xy 0.064190 -3.993030)
      (xy -0.709142 -4.034264)
      (xy -1.440003 -3.924341)
      (xy -2.116352 -3.678681)
      (xy -2.726148 -3.312703)
      (xy -3.257350 -2.841828)
      (xy -3.697918 -2.281474)
      (xy -4.035811 -1.647062)
      (xy -4.258989 -0.954011)
      (xy -4.355410 -0.217741)
      (xy -4.313033 0.546328)
      (xy -4.119819 1.322777)
      (xy -4.109493 1.351892)
      (xy -3.899999 1.837709)
      (xy -3.627335 2.272195)
      (xy -3.257353 2.704555)
      (xy -2.982616 2.975724)
      (xy -2.324978 3.484823)
      (xy -1.598762 3.847464)
      (xy -0.825184 4.060752)
      (xy -0.025460 4.121791)
      (xy 0.779194 4.027688)
      (xy 1.567559 3.775548)
      (xy 1.860714 3.636520)
      (xy 2.206796 3.444312)
      (xy 2.538050 3.239859)
      (xy 2.790803 3.062798)
      (xy 2.820209 3.039243)
      (xy 3.168034 2.690905)
      (xy 3.518909 2.234015)
      (xy 3.836122 1.724620)
      (xy 4.082959 1.218764)
      (xy 4.170746 0.977550)
      (xy 4.315656 0.303783)
      (xy 4.366612 -0.439731)
      (xy 4.323615 -1.184724)
      (xy 4.186669 -1.862927)
      (xy 4.170636 -1.915498)
      (xy 3.850843 -2.664575)
      (xy 3.389458 -3.364020)
      (xy 2.813269 -3.982121)
      (xy 2.149066 -4.487167)
      (xy 1.856601 -4.654674)
      (xy 1.182285 -4.961720)
      (xy 0.543601 -5.150674)
      (xy -0.126264 -5.238275)
      (xy -0.516870 -5.249333)
      (xy -1.404882 -5.166733)
      (xy -2.261270 -4.926599)
      (xy -3.064441 -4.540436)
      (xy -3.792801 -4.019747)
      (xy -4.424758 -3.376035)
      (xy -4.686637 -3.028009)
      (xy -4.990130 -2.495658)
      (xy -5.252675 -1.864594)
      (xy -5.449968 -1.204618)
      (xy -5.557702 -0.585530)
      (xy -5.564122 -0.508000)
      (xy -5.554660 0.440261)
      (xy -5.387144 1.340041)
      (xy -5.057630 2.206218)
      (xy -4.658275 2.910292)
      (xy -4.088921 3.631650)
      (xy -3.406789 4.237717)
      (xy -2.631531 4.718730)
      (xy -1.782799 5.064926)
      (xy -0.880246 5.266540)
      (xy 0.056477 5.313811)
      (xy 0.169333 5.308698)
      (xy 1.158145 5.173642)
      (xy 2.078327 4.886398)
      (xy 2.919559 4.453756)
      (xy 3.671518 3.882506)
      (xy 4.323885 3.179438)
      (xy 4.866338 2.351341)
      (xy 4.971770 2.149319)
      (xy 5.252226 1.527385)
      (xy 5.439764 0.948586)
      (xy 5.545329 0.357951)
      (xy 5.579863 -0.299487)
      (xy 5.567084 -0.840870)
      (xy 5.455553 -1.780036)
      (xy 5.206548 -2.642077)
      (xy 4.811957 -3.443927)
      (xy 4.263668 -4.202523)
      (xy 3.647789 -4.847571)
      (xy 3.070154 -5.335690)
      (xy 2.472117 -5.721666)
      (xy 1.801624 -6.034932)
      (xy 1.143000 -6.263828)
      (xy 0.652596 -6.370748)
      (xy 0.053228 -6.433405)
      (xy -0.600189 -6.450166)
      (xy -1.252740 -6.419399)
      (xy -1.786916 -6.350961)
      (xy -2.211148 -6.238919)
      (xy -2.719148 -6.047559)
      (xy -3.260192 -5.800454)
      (xy -3.783558 -5.521175)
      (xy -4.238523 -5.233293)
      (xy -4.322180 -5.172797)
      (xy -4.684357 -4.858303)
      (xy -5.082620 -4.438723)
      (xy -5.478126 -3.960826)
      (xy -5.832032 -3.471381)
      (xy -6.093289 -3.040271)
      (xy -6.362105 -2.421886)
      (xy -6.576476 -1.700638)
      (xy -6.721959 -0.938207)
      (xy -6.784111 -0.196270)
      (xy -6.785357 -0.084667)
      (xy -6.741724 0.606504)
      (xy -6.620393 1.339774)
      (xy -6.435717 2.050972)
      (xy -6.202049 2.675927)
      (xy -6.137637 2.811214)
      (xy -5.671808 3.587928)
      (xy -5.087907 4.320332)
      (xy -4.422315 4.969108)
      (xy -3.711412 5.494941)
      (xy -3.581838 5.573271)
      (xy -2.862677 5.956060)
      (xy -2.188095 6.228088)
      (xy -1.505527 6.403290)
      (xy -0.762410 6.495601)
      (xy -0.013041 6.519333)
      (xy 0.809711 6.471940)
      (xy 1.601443 6.322032)
      (xy 2.409032 6.058019)
      (xy 3.127129 5.742881)
      (xy 3.440060 5.582692)
      (xy 3.710214 5.417293)
      (xy 3.974277 5.218364)
      (xy 4.268937 4.957587)
      (xy 4.630880 4.606640)
      (xy 4.739151 4.498515)
      (xy 5.118299 4.110762)
      (xy 5.400285 3.799491)
      (xy 5.613596 3.527665)
      (xy 5.786718 3.258249)
      (xy 5.948138 2.954205)
      (xy 5.985066 2.878667)
      (xy 6.179827 2.445971)
      (xy 6.377586 1.957812)
      (xy 6.540543 1.508314)
      (xy 6.563084 1.439333)
      (xy 6.659677 1.118977)
      (xy 6.724679 0.841183)
      (xy 6.763937 0.557566)
      (xy 6.783296 0.219738)
      (xy 6.788606 -0.220686)
      (xy 6.788162 -0.423333)
      (xy 6.736235 -1.393902)
      (xy 6.580791 -2.278590)
      (xy 6.309083 -3.117495)
      (xy 5.908364 -3.950716)
      (xy 5.412829 -4.749637)
      (xy 5.012276 -5.247364)
      (xy 4.489994 -5.757665)
      (xy 3.887206 -6.247055)
      (xy 3.245133 -6.682047)
      (xy 2.609135 -7.027220)
      (xy 2.142935 -7.210073)
      (xy 1.569861 -7.381869)
      (xy 0.948987 -7.529283)
      (xy 0.339384 -7.638993)
      (xy -0.199875 -7.697675)
      (xy -0.391077 -7.703900)
      (xy -1.293990 -7.645138)
      (xy -2.214010 -7.475592)
      (xy -3.101501 -7.208723)
      (xy -3.906829 -6.857990)
      (xy -4.267637 -6.652591)
      (xy -5.028550 -6.136985)
      (xy -5.659769 -5.612830)
      (xy -6.194817 -5.042950)
      (xy -6.667221 -4.390169)
      (xy -7.110506 -3.617310)
      (xy -7.246226 -3.349605)
      (xy -7.524138 -2.740416)
      (xy -7.725795 -2.172957)
      (xy -7.861570 -1.599320)
      (xy -7.941832 -0.971598)
      (xy -7.976953 -0.241883)
      (xy -7.980478 0.042333)
      (xy -7.978762 0.532530)
      (xy -7.963214 0.906296)
      (xy -7.927457 1.216372)
      (xy -7.865111 1.515497)
      (xy -7.769800 1.856410)
      (xy -7.755267 1.904534)
      (xy -7.428634 2.842598)
      (xy -7.045602 3.660549)
      (xy -6.579534 4.400862)
      (xy -6.003797 5.106008)
      (xy -5.313405 5.798385)
      (xy -4.589548 6.371223)
      (xy -3.746850 6.868514)
      (xy -2.825481 7.272930)
      (xy -1.865609 7.567141)
      (xy -0.907405 7.733819)
      (xy -0.804334 7.743580)
      (xy -0.285108 7.761562)
      (xy 0.315761 7.739803)
      (xy 0.942305 7.683957)
      (xy 1.538552 7.599679)
      (xy 2.048533 7.492623)
      (xy 2.243666 7.435662)
      (xy 2.672927 7.269632)
      (xy 3.181197 7.036056)
      (xy 3.720887 6.760353)
      (xy 4.244408 6.467945)
      (xy 4.704173 6.184250)
      (xy 5.050554 5.936335)
      (xy 5.420349 5.597774)
      (xy 5.833274 5.154019)
      (xy 6.252660 4.649225)
      (xy 6.641836 4.127547)
      (xy 6.964129 3.633140)
      (xy 6.966074 3.629861)
      (xy 7.166163 3.259099)
      (xy 7.338333 2.859387)
      (xy 7.492874 2.398684)
      (xy 7.640074 1.844950)
      (xy 7.790221 1.166144)
      (xy 7.846182 0.889000)
      (xy 7.930937 0.476273)
      (xy 8.008808 0.124676)
      (xy 8.072097 -0.132910)
      (xy 8.113103 -0.263606)
      (xy 8.117967 -0.271641)
      (xy 8.225350 -0.287346)
      (xy 8.285583 -0.261262)
      (xy 8.327088 -0.204753)
      (xy 8.339827 -0.086497)
      (xy 8.321412 0.118746)
      (xy 8.269458 0.436218)
      (xy 8.181578 0.891159)
      (xy 8.172207 0.937814)
      (xy 8.013055 1.685344)
      (xy 7.860063 2.298285)
      (xy 7.701059 2.810386)
      (xy 7.523872 3.255395)
      (xy 7.316332 3.667062)
      (xy 7.066265 4.079135)
      (xy 7.006628 4.169754)
      (xy 6.553806 4.785315)
      (xy 6.029791 5.390330)
      (xy 5.469224 5.950575)
      (xy 4.906746 6.431825)
      (xy 4.376996 6.799855)
      (xy 4.298455 6.845458)
      (xy 3.486206 7.268452)
      (xy 2.717187 7.601703)
      (xy 2.021057 7.833125)
      (xy 1.679440 7.912730)
      (xy 1.170902 7.989315)
      (xy 0.588511 8.045067)
      (xy -0.013586 8.077540)
      (xy -0.581242 8.084287)
      (xy -1.060308 8.062862)
      (xy -1.227667 8.044082)
      (xy -1.973637 7.887692)
      (xy -2.774846 7.633477)
      (xy -3.580293 7.303293)
      (xy -4.338977 6.918991)
      (xy -4.999899 6.502426)
      (xy -5.227162 6.330299)
      (xy -5.669126 5.937703)
      (xy -6.129550 5.466028)
      (xy -6.572331 4.957393)
      (xy -6.961362 4.453919)
      (xy -7.260542 3.997727)
      (xy -7.322391 3.885922)
      (xy -7.567717 3.356095)
      (xy -7.809697 2.722876)
      (xy -8.027398 2.050371)
      (xy -8.199887 1.402684)
      (xy -8.299018 0.895006)
      (xy -8.339351 0.389503)
      (xy -8.334891 -0.221441)
      (xy -8.289728 -0.881142)
      (xy -8.207951 -1.532915)
      (xy -8.093651 -2.120079)
      (xy -8.076477 -2.189253)
      (xy -7.941682 -2.605532)
      (xy -7.735167 -3.109181)
      (xy -7.481182 -3.648059)
      (xy -7.203977 -4.170025)
      (xy -6.986035 -4.533760)
      (xy -6.512941 -5.164014)
      (xy -5.913668 -5.791278)
      (xy -5.228301 -6.380467)
      (xy -4.496923 -6.896495)
      (xy -3.897455 -7.237183)
      (xy -3.163555 -7.544268)
      (xy -2.336247 -7.786222)
      (xy -1.474650 -7.951027)
      (xy -0.637888 -8.026665)
    )

    (stroke (width 0.000000) (type solid)) (fill solid) (layer "F.Cu") (tstamp 580a8236-3f22-421f-bb67-12c96265dcbc))

    (fp_poly
    (pts
      (xy -0.059362 -8.017442)
      (xy 0.445752 -7.957261)
      (xy 1.024736 -7.851145)
      (xy 1.618945 -7.712933)
      (xy 2.169734 -7.556464)
      (xy 2.618457 -7.395575)
      (xy 2.669978 -7.373406)
      (xy 3.261458 -7.060150)
      (xy 3.889933 -6.638450)
      (xy 4.512197 -6.144146)
      (xy 5.085042 -5.613077)
      (xy 5.565262 -5.081084)
      (xy 5.778413 -4.794959)
      (xy 6.019364 -4.404305)
      (xy 6.273489 -3.932593)
      (xy 6.517689 -3.428858)
      (xy 6.728864 -2.942136)
      (xy 6.883915 -2.521464)
      (xy 6.937073 -2.335298)
      (xy 7.028224 -1.835966)
      (xy 7.094173 -1.236674)
      (xy 7.130621 -0.605498)
      (xy 7.133265 -0.010516)
      (xy 7.108981 0.385742)
      (xy 6.923666 1.394875)
      (xy 6.588636 2.371621)
      (xy 6.118508 3.296259)
      (xy 5.527901 4.149067)
      (xy 4.831435 4.910325)
      (xy 4.043727 5.560312)
      (xy 3.179397 6.079307)
      (xy 2.743021 6.275531)
      (xy 2.043212 6.534947)
      (xy 1.425974 6.709505)
      (xy 0.834904 6.811091)
      (xy 0.213596 6.851593)
      (xy 0.000000 6.853595)
      (xy -0.809609 6.825668)
      (xy -1.509153 6.737490)
      (xy -2.150601 6.577993)
      (xy -2.785920 6.336105)
      (xy -3.085978 6.196296)
      (xy -3.829172 5.799671)
      (xy -4.444374 5.391341)
      (xy -4.971821 4.940284)
      (xy -5.451749 4.415482)
      (xy -5.543187 4.301963)
      (xy -6.037206 3.623685)
      (xy -6.411745 2.976365)
      (xy -6.693871 2.306121)
      (xy -6.900922 1.599184)
      (xy -7.084942 0.513515)
      (xy -7.102218 -0.549172)
      (xy -6.954588 -1.581833)
      (xy -6.643888 -2.577429)
      (xy -6.171957 -3.528919)
      (xy -5.540632 -4.429261)
      (xy -5.235615 -4.782558)
      (xy -4.662970 -5.312709)
      (xy -3.972023 -5.797124)
      (xy -3.212915 -6.207421)
      (xy -2.435786 -6.515218)
      (xy -1.940476 -6.647776)
      (xy -1.596709 -6.700918)
      (xy -1.151581 -6.742918)
      (xy -0.672970 -6.768315)
      (xy -0.379836 -6.773333)
      (xy 0.104941 -6.765959)
      (xy 0.482974 -6.738355)
      (xy 0.816427 -6.682305)
      (xy 1.167463 -6.589588)
      (xy 1.286796 -6.552987)
      (xy 2.199923 -6.210894)
      (xy 2.988839 -5.790022)
      (xy 3.688103 -5.270462)
      (xy 3.981122 -5.000732)
      (xy 4.582230 -4.344788)
      (xy 5.058925 -3.662201)
      (xy 5.434441 -2.911855)
      (xy 5.732013 -2.052638)
      (xy 5.810624 -1.763360)
      (xy 5.877754 -1.357027)
      (xy 5.909132 -0.839415)
      (xy 5.906520 -0.264373)
      (xy 5.871678 0.314254)
      (xy 5.806366 0.842617)
      (xy 5.712347 1.266869)
      (xy 5.711434 1.269859)
      (xy 5.471194 1.900779)
      (xy 5.135121 2.568765)
      (xy 4.739109 3.204480)
      (xy 4.633223 3.352581)
      (xy 4.301767 3.732253)
      (xy 3.861632 4.138207)
      (xy 3.361113 4.533217)
      (xy 2.848503 4.880054)
      (xy 2.372096 5.141493)
      (xy 2.235305 5.200987)
      (xy 1.250770 5.509173)
      (xy 0.264470 5.650665)
      (xy -0.711483 5.627367)
      (xy -1.664979 5.441181)
      (xy -2.583907 5.094011)
      (xy -3.456157 4.587760)
      (xy -3.922298 4.233333)
      (xy -4.442874 3.729734)
      (xy -4.899170 3.129300)
      (xy -5.318069 2.396483)
      (xy -5.331048 2.370667)
      (xy -5.569835 1.844777)
      (xy -5.731526 1.353270)
      (xy -5.828567 0.839546)
      (xy -5.873406 0.247006)
      (xy -5.880300 -0.127000)
      (xy -5.859453 -0.741741)
      (xy -5.781719 -1.286276)
      (xy -5.632993 -1.817186)
      (xy -5.399173 -2.391054)
      (xy -5.226112 -2.751667)
      (xy -4.943710 -3.207845)
      (xy -4.552960 -3.689971)
      (xy -4.095596 -4.156681)
      (xy -3.613352 -4.566609)
      (xy -3.147962 -4.878390)
      (xy -3.005667 -4.952465)
      (xy -2.241457 -5.276256)
      (xy -1.546582 -5.480781)
      (xy -0.881356 -5.576339)
      (xy -0.562582 -5.586530)
      (xy 0.407223 -5.505405)
      (xy 1.313371 -5.269536)
      (xy 2.146758 -4.883795)
      (xy 2.898279 -4.353055)
      (xy 3.558830 -3.682190)
      (xy 3.928922 -3.182627)
      (xy 4.316551 -2.452009)
      (xy 4.571545 -1.650772)
      (xy 4.693476 -0.809504)
      (xy 4.681912 0.041208)
      (xy 4.536423 0.870775)
      (xy 4.256580 1.648610)
      (xy 4.003370 2.110498)
      (xy 3.585900 2.701132)
      (xy 3.147828 3.174314)
      (xy 2.644180 3.569604)
      (xy 2.029983 3.926559)
      (xy 1.820333 4.030693)
      (xy 1.218576 4.251454)
      (xy 0.531328 4.390288)
      (xy -0.173917 4.437851)
      (xy -0.788374 4.391732)
      (xy -1.649742 4.174863)
      (xy -2.427038 3.822582)
      (xy -3.108335 3.348568)
      (xy -3.681706 2.766497)
      (xy -4.135223 2.090046)
      (xy -4.456962 1.332893)
      (xy -4.634993 0.508715)
      (xy -4.668000 -0.057211)
      (xy -4.649746 -0.619187)
      (xy -4.586973 -1.079414)
      (xy -4.464186 -1.502974)
      (xy -4.265889 -1.954944)
      (xy -4.172566 -2.138036)
      (xy -3.843489 -2.643834)
      (xy -3.407041 -3.139083)
      (xy -2.913147 -3.574354)
      (xy -2.411732 -3.900222)
      (xy -2.372268 -3.920345)
      (xy -2.057896 -4.052292)
      (xy -1.663231 -4.184246)
      (xy -1.282072 -4.285603)
      (xy -0.900383 -4.360147)
      (xy -0.586764 -4.387485)
      (xy -0.255647 -4.370667)
      (xy 0.042333 -4.332830)
      (xy 0.849225 -4.137525)
      (xy 1.575177 -3.802626)
      (xy 2.206470 -3.341786)
      (xy 2.729381 -2.768657)
      (xy 3.130192 -2.096893)
      (xy 3.395182 -1.340146)
      (xy 3.474780 -0.917327)
      (xy 3.497712 -0.148000)
      (xy 3.362763 0.592605)
      (xy 3.081185 1.284019)
      (xy 2.664227 1.905774)
      (xy 2.123142 2.437399)
      (xy 1.469180 2.858427)
      (xy 1.373575 2.905338)
      (xy 1.102281 3.027799)
      (xy 0.876667 3.106342)
      (xy 0.644166 3.150619)
      (xy 0.352213 3.170281)
      (xy -0.051756 3.174981)
      (xy -0.095048 3.175000)
      (xy -0.500872 3.172430)
      (xy -0.790661 3.157026)
      (xy -1.017710 3.117245)
      (xy -1.235311 3.041544)
      (xy -1.496760 2.918382)
      (xy -1.658742 2.836333)
      (xy -2.062163 2.610455)
      (xy -2.367966 2.381868)
      (xy -2.640823 2.099536)
      (xy -2.731610 1.989667)
      (xy -3.118949 1.386967)
      (xy -3.360809 0.741967)
      (xy -3.461606 0.077635)
      (xy -3.425754 -0.583059)
      (xy -3.257670 -1.217148)
      (xy -2.961768 -1.801660)
      (xy -2.542464 -2.313629)
      (xy -2.004172 -2.730084)
      (xy -1.802875 -2.841780)
      (xy -1.213336 -3.052866)
      (xy -0.565610 -3.134733)
      (xy 0.085920 -3.084659)
      (xy 0.543459 -2.959213)
      (xy 1.120126 -2.660650)
      (xy 1.593161 -2.250582)
      (xy 1.952481 -1.753608)
      (xy 2.188003 -1.194327)
      (xy 2.289644 -0.597340)
      (xy 2.247320 0.012757)
      (xy 2.050951 0.611362)
      (xy 2.027086 0.660418)
      (xy 1.751043 1.117049)
      (xy 1.415414 1.467404)
      (xy 0.968749 1.763509)
      (xy 0.898861 1.801251)
      (xy 0.533114 1.927464)
      (xy 0.079335 1.988493)
      (xy -0.395190 1.983218)
      (xy -0.823177 1.910522)
      (xy -1.031194 1.833314)
      (xy -1.535696 1.495014)
      (xy -1.920472 1.046698)
      (xy -2.170347 0.510907)
      (xy -2.265588 0.000000)
      (xy -2.268843 -0.316060)
      (xy -2.213776 -0.582848)
      (xy -2.080894 -0.888308)
      (xy -2.059271 -0.930809)
      (xy -1.753642 -1.370617)
      (xy -1.367845 -1.690005)
      (xy -0.929908 -1.885172)
      (xy -0.467860 -1.952321)
      (xy -0.009730 -1.887650)
      (xy 0.416454 -1.687361)
      (xy 0.782663 -1.347654)
      (xy 0.804930 -1.319076)
      (xy 0.997010 -0.949527)
      (xy 1.080618 -0.523069)
      (xy 1.049695 -0.102117)
      (xy 0.949410 0.169333)
      (xy 0.746745 0.423253)
      (xy 0.460120 0.647317)
      (xy 0.151131 0.800758)
      (xy -0.071872 0.845274)
      (xy -0.412813 0.773881)
      (xy -0.735225 0.583141)
      (xy -0.969269 0.315078)
      (xy -0.977419 0.300361)
      (xy -1.070619 -0.009605)
      (xy -1.036523 -0.305018)
      (xy -0.897918 -0.550220)
      (xy -0.677596 -0.709556)
      (xy -0.398346 -0.747368)
      (xy -0.317277 -0.732489)
      (xy -0.114985 -0.617237)
      (xy -0.027785 -0.434514)
      (xy -0.074828 -0.238029)
      (xy -0.120821 -0.181561)
      (xy -0.229292 -0.093851)
      (xy -0.284242 -0.149387)
      (xy -0.308731 -0.233335)
      (xy -0.405401 -0.394630)
      (xy -0.550831 -0.401163)
      (xy -0.676421 -0.297433)
      (xy -0.757877 -0.091254)
      (xy -0.705606 0.123230)
      (xy -0.550026 0.312731)
      (xy -0.321556 0.443963)
      (xy -0.050616 0.483638)
      (xy 0.028418 0.473863)
      (xy 0.355708 0.339363)
      (xy 0.584884 0.100009)
      (xy 0.713491 -0.209326)
      (xy 0.739076 -0.553773)
      (xy 0.659183 -0.898458)
      (xy 0.471359 -1.208510)
      (xy 0.173149 -1.449059)
      (xy 0.164112 -1.453958)
      (xy -0.268556 -1.604714)
      (xy -0.688876 -1.606688)
      (xy -1.077829 -1.480302)
      (xy -1.416396 -1.245975)
      (xy -1.685558 -0.924129)
      (xy -1.866296 -0.535183)
      (xy -1.939589 -0.099559)
      (xy -1.886420 0.362324)
      (xy -1.787076 0.640989)
      (xy -1.503625 1.077324)
      (xy -1.119144 1.400262)
      (xy -0.663191 1.604209)
      (xy -0.165322 1.683566)
      (xy 0.344905 1.632738)
      (xy 0.837931 1.446128)
      (xy 1.189360 1.204577)
      (xy 1.583741 0.763854)
      (xy 1.837804 0.254833)
      (xy 1.950985 -0.295171)
      (xy 1.922724 -0.858845)
      (xy 1.752459 -1.408876)
      (xy 1.439628 -1.917949)
      (xy 1.257721 -2.120882)
      (xy 0.754133 -2.511640)
      (xy 0.184916 -2.752243)
      (xy -0.427889 -2.835457)
      (xy -0.824356 -2.804147)
      (xy -1.491825 -2.616585)
      (xy -2.071219 -2.287948)
      (xy -2.549747 -1.827615)
      (xy -2.894625 -1.286325)
      (xy -3.025173 -0.889990)
      (xy -3.094029 -0.396084)
      (xy -3.100915 0.135163)
      (xy -3.045551 0.643516)
      (xy -2.927658 1.068745)
      (xy -2.905759 1.119058)
      (xy -2.611814 1.598440)
      (xy -2.202336 2.053230)
      (xy -1.728835 2.431078)
      (xy -1.462834 2.585604)
      (xy -0.861290 2.798215)
      (xy -0.196467 2.880086)
      (xy 0.484773 2.829093)
      (xy 0.993978 2.696918)
      (xy 1.625153 2.388059)
      (xy 2.174877 1.942495)
      (xy 2.626565 1.379935)
      (xy 2.963633 0.720089)
      (xy 3.136230 0.150905)
      (xy 3.196503 -0.497674)
      (xy 3.108880 -1.171412)
      (xy 2.884366 -1.836951)
      (xy 2.533966 -2.460932)
      (xy 2.105309 -2.974157)
      (xy 1.554287 -3.435711)
      (xy 0.959101 -3.755759)
      (xy 0.277031 -3.955626)
      (xy 0.064190 -3.993030)
      (xy -0.709142 -4.034264)
      (xy -1.440003 -3.924341)
      (xy -2.116352 -3.678681)
      (xy -2.726148 -3.312703)
      (xy -3.257350 -2.841828)
      (xy -3.697918 -2.281474)
      (xy -4.035811 -1.647062)
      (xy -4.258989 -0.954011)
      (xy -4.355410 -0.217741)
      (xy -4.313033 0.546328)
      (xy -4.119819 1.322777)
      (xy -4.109493 1.351892)
      (xy -3.899999 1.837709)
      (xy -3.627335 2.272195)
      (xy -3.257353 2.704555)
      (xy -2.982616 2.975724)
      (xy -2.324978 3.484823)
      (xy -1.598762 3.847464)
      (xy -0.825184 4.060752)
      (xy -0.025460 4.121791)
      (xy 0.779194 4.027688)
      (xy 1.567559 3.775548)
      (xy 1.860714 3.636520)
      (xy 2.206796 3.444312)
      (xy 2.538050 3.239859)
      (xy 2.790803 3.062798)
      (xy 2.820209 3.039243)
      (xy 3.168034 2.690905)
      (xy 3.518909 2.234015)
      (xy 3.836122 1.724620)
      (xy 4.082959 1.218764)
      (xy 4.170746 0.977550)
      (xy 4.315656 0.303783)
      (xy 4.366612 -0.439731)
      (xy 4.323615 -1.184724)
      (xy 4.186669 -1.862927)
      (xy 4.170636 -1.915498)
      (xy 3.850843 -2.664575)
      (xy 3.389458 -3.364020)
      (xy 2.813269 -3.982121)
      (xy 2.149066 -4.487167)
      (xy 1.856601 -4.654674)
      (xy 1.182285 -4.961720)
      (xy 0.543601 -5.150674)
      (xy -0.126264 -5.238275)
      (xy -0.516870 -5.249333)
      (xy -1.404882 -5.166733)
      (xy -2.261270 -4.926599)
      (xy -3.064441 -4.540436)
      (xy -3.792801 -4.019747)
      (xy -4.424758 -3.376035)
      (xy -4.686637 -3.028009)
      (xy -4.990130 -2.495658)
      (xy -5.252675 -1.864594)
      (xy -5.449968 -1.204618)
      (xy -5.557702 -0.585530)
      (xy -5.564122 -0.508000)
      (xy -5.554660 0.440261)
      (xy -5.387144 1.340041)
      (xy -5.057630 2.206218)
      (xy -4.658275 2.910292)
      (xy -4.088921 3.631650)
      (xy -3.406789 4.237717)
      (xy -2.631531 4.718730)
      (xy -1.782799 5.064926)
      (xy -0.880246 5.266540)
      (xy 0.056477 5.313811)
      (xy 0.169333 5.308698)
      (xy 1.158145 5.173642)
      (xy 2.078327 4.886398)
      (xy 2.919559 4.453756)
      (xy 3.671518 3.882506)
      (xy 4.323885 3.179438)
      (xy 4.866338 2.351341)
      (xy 4.971770 2.149319)
      (xy 5.252226 1.527385)
      (xy 5.439764 0.948586)
      (xy 5.545329 0.357951)
      (xy 5.579863 -0.299487)
      (xy 5.567084 -0.840870)
      (xy 5.455553 -1.780036)
      (xy 5.206548 -2.642077)
      (xy 4.811957 -3.443927)
      (xy 4.263668 -4.202523)
      (xy 3.647789 -4.847571)
      (xy 3.070154 -5.335690)
      (xy 2.472117 -5.721666)
      (xy 1.801624 -6.034932)
      (xy 1.143000 -6.263828)
      (xy 0.652596 -6.370748)
      (xy 0.053228 -6.433405)
      (xy -0.600189 -6.450166)
      (xy -1.252740 -6.419399)
      (xy -1.786916 -6.350961)
      (xy -2.211148 -6.238919)
      (xy -2.719148 -6.047559)
      (xy -3.260192 -5.800454)
      (xy -3.783558 -5.521175)
      (xy -4.238523 -5.233293)
      (xy -4.322180 -5.172797)
      (xy -4.684357 -4.858303)
      (xy -5.082620 -4.438723)
      (xy -5.478126 -3.960826)
      (xy -5.832032 -3.471381)
      (xy -6.093289 -3.040271)
      (xy -6.362105 -2.421886)
      (xy -6.576476 -1.700638)
      (xy -6.721959 -0.938207)
      (xy -6.784111 -0.196270)
      (xy -6.785357 -0.084667)
      (xy -6.741724 0.606504)
      (xy -6.620393 1.339774)
      (xy -6.435717 2.050972)
      (xy -6.202049 2.675927)
      (xy -6.137637 2.811214)
      (xy -5.671808 3.587928)
      (xy -5.087907 4.320332)
      (xy -4.422315 4.969108)
      (xy -3.711412 5.494941)
      (xy -3.581838 5.573271)
      (xy -2.862677 5.956060)
      (xy -2.188095 6.228088)
      (xy -1.505527 6.403290)
      (xy -0.762410 6.495601)
      (xy -0.013041 6.519333)
      (xy 0.809711 6.471940)
      (xy 1.601443 6.322032)
      (xy 2.409032 6.058019)
      (xy 3.127129 5.742881)
      (xy 3.440060 5.582692)
      (xy 3.710214 5.417293)
      (xy 3.974277 5.218364)
      (xy 4.268937 4.957587)
      (xy 4.630880 4.606640)
      (xy 4.739151 4.498515)
      (xy 5.118299 4.110762)
      (xy 5.400285 3.799491)
      (xy 5.613596 3.527665)
      (xy 5.786718 3.258249)
      (xy 5.948138 2.954205)
      (xy 5.985066 2.878667)
      (xy 6.179827 2.445971)
      (xy 6.377586 1.957812)
      (xy 6.540543 1.508314)
      (xy 6.563084 1.439333)
      (xy 6.659677 1.118977)
      (xy 6.724679 0.841183)
      (xy 6.763937 0.557566)
      (xy 6.783296 0.219738)
      (xy 6.788606 -0.220686)
      (xy 6.788162 -0.423333)
      (xy 6.736235 -1.393902)
      (xy 6.580791 -2.278590)
      (xy 6.309083 -3.117495)
      (xy 5.908364 -3.950716)
      (xy 5.412829 -4.749637)
      (xy 5.012276 -5.247364)
      (xy 4.489994 -5.757665)
      (xy 3.887206 -6.247055)
      (xy 3.245133 -6.682047)
      (xy 2.609135 -7.027220)
      (xy 2.142935 -7.210073)
      (xy 1.569861 -7.381869)
      (xy 0.948987 -7.529283)
      (xy 0.339384 -7.638993)
      (xy -0.199875 -7.697675)
      (xy -0.391077 -7.703900)
      (xy -1.293990 -7.645138)
      (xy -2.214010 -7.475592)
      (xy -3.101501 -7.208723)
      (xy -3.906829 -6.857990)
      (xy -4.267637 -6.652591)
      (xy -5.028550 -6.136985)
      (xy -5.659769 -5.612830)
      (xy -6.194817 -5.042950)
      (xy -6.667221 -4.390169)
      (xy -7.110506 -3.617310)
      (xy -7.246226 -3.349605)
      (xy -7.524138 -2.740416)
      (xy -7.725795 -2.172957)
      (xy -7.861570 -1.599320)
      (xy -7.941832 -0.971598)
      (xy -7.976953 -0.241883)
      (xy -7.980478 0.042333)
      (xy -7.978762 0.532530)
      (xy -7.963214 0.906296)
      (xy -7.927457 1.216372)
      (xy -7.865111 1.515497)
      (xy -7.769800 1.856410)
      (xy -7.755267 1.904534)
      (xy -7.428634 2.842598)
      (xy -7.045602 3.660549)
      (xy -6.579534 4.400862)
      (xy -6.003797 5.106008)
      (xy -5.313405 5.798385)
      (xy -4.589548 6.371223)
      (xy -3.746850 6.868514)
      (xy -2.825481 7.272930)
      (xy -1.865609 7.567141)
      (xy -0.907405 7.733819)
      (xy -0.804334 7.743580)
      (xy -0.285108 7.761562)
      (xy 0.315761 7.739803)
      (xy 0.942305 7.683957)
      (xy 1.538552 7.599679)
      (xy 2.048533 7.492623)
      (xy 2.243666 7.435662)
      (xy 2.672927 7.269632)
      (xy 3.181197 7.036056)
      (xy 3.720887 6.760353)
      (xy 4.244408 6.467945)
      (xy 4.704173 6.184250)
      (xy 5.050554 5.936335)
      (xy 5.420349 5.597774)
      (xy 5.833274 5.154019)
      (xy 6.252660 4.649225)
      (xy 6.641836 4.127547)
      (xy 6.964129 3.633140)
      (xy 6.966074 3.629861)
      (xy 7.166163 3.259099)
      (xy 7.338333 2.859387)
      (xy 7.492874 2.398684)
      (xy 7.640074 1.844950)
      (xy 7.790221 1.166144)
      (xy 7.846182 0.889000)
      (xy 7.930937 0.476273)
      (xy 8.008808 0.124676)
      (xy 8.072097 -0.132910)
      (xy 8.113103 -0.263606)
      (xy 8.117967 -0.271641)
      (xy 8.225350 -0.287346)
      (xy 8.285583 -0.261262)
      (xy 8.327088 -0.204753)
      (xy 8.339827 -0.086497)
      (xy 8.321412 0.118746)
      (xy 8.269458 0.436218)
      (xy 8.181578 0.891159)
      (xy 8.172207 0.937814)
      (xy 8.013055 1.685344)
      (xy 7.860063 2.298285)
      (xy 7.701059 2.810386)
      (xy 7.523872 3.255395)
      (xy 7.316332 3.667062)
      (xy 7.066265 4.079135)
      (xy 7.006628 4.169754)
      (xy 6.553806 4.785315)
      (xy 6.029791 5.390330)
      (xy 5.469224 5.950575)
      (xy 4.906746 6.431825)
      (xy 4.376996 6.799855)
      (xy 4.298455 6.845458)
      (xy 3.486206 7.268452)
      (xy 2.717187 7.601703)
      (xy 2.021057 7.833125)
      (xy 1.679440 7.912730)
      (xy 1.170902 7.989315)
      (xy 0.588511 8.045067)
      (xy -0.013586 8.077540)
      (xy -0.581242 8.084287)
      (xy -1.060308 8.062862)
      (xy -1.227667 8.044082)
      (xy -1.973637 7.887692)
      (xy -2.774846 7.633477)
      (xy -3.580293 7.303293)
      (xy -4.338977 6.918991)
      (xy -4.999899 6.502426)
      (xy -5.227162 6.330299)
      (xy -5.669126 5.937703)
      (xy -6.129550 5.466028)
      (xy -6.572331 4.957393)
      (xy -6.961362 4.453919)
      (xy -7.260542 3.997727)
      (xy -7.322391 3.885922)
      (xy -7.567717 3.356095)
      (xy -7.809697 2.722876)
      (xy -8.027398 2.050371)
      (xy -8.199887 1.402684)
      (xy -8.299018 0.895006)
      (xy -8.339351 0.389503)
      (xy -8.334891 -0.221441)
      (xy -8.289728 -0.881142)
      (xy -8.207951 -1.532915)
      (xy -8.093651 -2.120079)
      (xy -8.076477 -2.189253)
      (xy -7.941682 -2.605532)
      (xy -7.735167 -3.109181)
      (xy -7.481182 -3.648059)
      (xy -7.203977 -4.170025)
      (xy -6.986035 -4.533760)
      (xy -6.512941 -5.164014)
      (xy -5.913668 -5.791278)
      (xy -5.228301 -6.380467)
      (xy -4.496923 -6.896495)
      (xy -3.897455 -7.237183)
      (xy -3.163555 -7.544268)
      (xy -2.336247 -7.786222)
      (xy -1.474650 -7.951027)
      (xy -0.637888 -8.026665)
    )

    (stroke (width 0.000000) (type solid)) (fill solid) (layer "F.Mask") (tstamp 79639dc4-b545-46d1-8138-6d572135c06f))

)
