(footprint "SW_Cherry_MX_1.00u_PCB" (version 20221018) (generator pcbnew)
  (layer "F.Cu")
  (descr "Cherry MX keyswitch, 1.00u, PCB mount, http://cherryamericas.com/wp-content/uploads/2014/12/mx_cat.pdf")
  (tags "Cherry MX keyswitch 1.00u PCB")
  (attr through_hole)
  (fp_text reference "SW?" (at 0 -7.5) (layer "F.SilkS")
      (effects (font (size 1 1) (thickness 0.1)))
    (tstamp 6435c504-503e-4751-b486-98d0d8007cbc)
  )
  (fp_text value "${REFERENCE}" (at -0.1 8.25) (layer "F.Fab")
      (effects (font (size 1 1) (thickness 0.15)))
    (tstamp b3ecbdf3-ae6d-488e-b4b6-454a02ee4061)
  )
  (fp_text user "${REFERENCE}" (at 5.08 -4 270 unlocked) (layer "B.SilkS")
      (effects (font (size 1 1) (thickness 0.1)) (justify mirror))
    (tstamp 5abf742f-691d-4426-8452-7261263cd1a4)
  )
  (fp_text user "R" (at 2.54 -2.54 unlocked) (layer "B.SilkS")
      (effects (font (size 1 1) (thickness 0.15)) (justify mirror))
    (tstamp c0914eee-d34b-4da5-b9e3-111c5e1a36c9)
  )
  (fp_text user "${VALUE}" (at -1.27 -5.31 unlocked) (layer "B.SilkS")
      (effects (font (size 1 1) (thickness 0.1)) (justify mirror))
    (tstamp cd9863e3-4ab9-4004-8830-7500bc6e2cab)
  )
  (fp_text user "C" (at -2.29 -3.81 unlocked) (layer "B.SilkS")
      (effects (font (size 1 1) (thickness 0.15)) (justify mirror))
    (tstamp dfc7e997-c545-4cc9-88cf-9ca55786baa9)
  )
  (fp_text user "R" (at 2.54 -2.54 unlocked) (layer "F.SilkS")
      (effects (font (size 1 1) (thickness 0.15)))
    (tstamp a088564d-45e9-4a1e-97e5-e0f250e57974)
  )
  (fp_text user "C" (at -1.986 -3.791 unlocked) (layer "F.SilkS")
      (effects (font (size 1 1) (thickness 0.15)))
    (tstamp b2ccdeab-6b42-4657-b2ea-7701557e6bc0)
  )
  (fp_text user "${VALUE}" (at -3.5 7.7 unlocked) (layer "F.SilkS")
      (effects (font (size 0.75 0.75) (thickness 0.1)))
    (tstamp ce726318-9b5d-40f0-812a-297e2ee1010b)
  )
  (fp_line (start -6.985 -6.985) (end -6.985 -4)
    (stroke (width 0.12) (type solid)) (layer "B.SilkS") (tstamp 7e9f46eb-5933-45f4-8efc-77b636d1ede0))
  (fp_line (start -4 -6.985) (end -6.985 -6.985)
    (stroke (width 0.12) (type solid)) (layer "B.SilkS") (tstamp 9388ecc7-04eb-4c7d-8571-6daaa7770de6))
  (fp_line (start 4.075 6.66) (end 7.06 6.66)
    (stroke (width 0.12) (type solid)) (layer "B.SilkS") (tstamp 82d9ddd0-870d-4425-8454-51b419e09604))
  (fp_line (start 7.06 6.66) (end 7.06 3.675)
    (stroke (width 0.12) (type solid)) (layer "B.SilkS") (tstamp a472574e-d379-480e-a55b-c75140e73208))
  (fp_line (start -6.985 6.985) (end -6.985 4)
    (stroke (width 0.12) (type solid)) (layer "F.SilkS") (tstamp 81e7a2db-4514-4d9e-ab04-395eb1c3f32a))
  (fp_line (start -4 6.985) (end -6.985 6.985)
    (stroke (width 0.12) (type solid)) (layer "F.SilkS") (tstamp bf798407-0164-46d5-bbe8-3cac96c9565f))
  (fp_line (start 4 -6.985) (end 6.985 -6.985)
    (stroke (width 0.12) (type solid)) (layer "F.SilkS") (tstamp a9ac2053-4d34-4641-a149-08a0ee7619e4))
  (fp_line (start 6.985 -6.985) (end 6.985 -4)
    (stroke (width 0.12) (type solid)) (layer "F.SilkS") (tstamp 88fcb3b2-e22a-45da-ae72-b8bad33cf65b))
  (fp_line (start -9.525 -9.525) (end 9.525 -9.525)
    (stroke (width 0.15) (type solid)) (layer "Dwgs.User") (tstamp 17875c8c-8727-42c5-8872-c4d3b4705644))
  (fp_line (start -9.525 9.525) (end -9.525 -9.525)
    (stroke (width 0.15) (type solid)) (layer "Dwgs.User") (tstamp f05e2533-f911-4c72-841c-db33649aaa0b))
  (fp_line (start 9.525 -9.525) (end 9.525 9.525)
    (stroke (width 0.15) (type solid)) (layer "Dwgs.User") (tstamp 3924b59f-04a2-4816-a264-b373ff52ed93))
  (fp_line (start 9.525 9.525) (end -9.525 9.525)
    (stroke (width 0.15) (type solid)) (layer "Dwgs.User") (tstamp 18529aee-fa68-401f-9d49-0e60d0263079))
  (fp_line (start -6.6 -6.6) (end 6.6 -6.6)
    (stroke (width 0.05) (type solid)) (layer "F.CrtYd") (tstamp afb11357-1c53-4a8e-9b7f-b8995b3d515b))
  (fp_line (start -6.6 6.6) (end -6.6 -6.6)
    (stroke (width 0.05) (type solid)) (layer "F.CrtYd") (tstamp b9db4a05-93ce-46e5-9e56-f394110c5ac4))
  (fp_line (start 6.6 -6.6) (end 6.6 6.6)
    (stroke (width 0.05) (type solid)) (layer "F.CrtYd") (tstamp 1f97d4ba-8dd1-4d23-a1db-1c4549464103))
  (fp_line (start 6.6 6.6) (end -6.6 6.6)
    (stroke (width 0.05) (type solid)) (layer "F.CrtYd") (tstamp f324866e-a735-42d8-a578-c0d2751f87a4))
  (fp_line (start -6.35 -6.35) (end 6.35 -6.35)
    (stroke (width 0.1) (type solid)) (layer "F.Fab") (tstamp cafe7d40-c316-4f68-8f05-8f4fa2790967))
  (fp_line (start -6.35 6.35) (end -6.35 -6.35)
    (stroke (width 0.1) (type solid)) (layer "F.Fab") (tstamp 11140fd8-0def-4316-a095-29e1c8de2ccd))
  (fp_line (start 6.35 -6.35) (end 6.35 6.35)
    (stroke (width 0.1) (type solid)) (layer "F.Fab") (tstamp 22f7a9a7-52b7-4def-9f01-74ce752895c6))
  (fp_line (start 6.35 6.35) (end -6.35 6.35)
    (stroke (width 0.1) (type solid)) (layer "F.Fab") (tstamp 3d357196-16a7-43c8-a9c0-2fb0aec0b012))
  (pad "" np_thru_hole circle (at -5.08 0) (size 1.7 1.7) (drill 1.7) (layers "*.Cu" "*.Mask") (tstamp faa47df8-079a-4cf0-9532-c75cf51ad6aa))
  (pad "" np_thru_hole circle (at 0 0) (size 4 4) (drill 4) (layers "*.Cu" "*.Mask") (tstamp 8c6d2a68-1e86-4cd8-86da-9252a6831921))
  (pad "" np_thru_hole circle (at 5.08 0) (size 1.7 1.7) (drill 1.7) (layers "*.Cu" "*.Mask") (tstamp f01dc7a1-172b-4ea2-badd-a4253a165448))
  (pad "1" thru_hole circle (at 2.54 -5.08) (size 2.2 2.2) (drill 1.5) (layers "*.Cu" "*.Mask") (tstamp 0ae91059-c3cb-42ca-b237-3365d95bbdf4))
  (pad "2" thru_hole circle (at -3.81 -2.54) (size 2.2 2.2) (drill 1.5) (layers "*.Cu" "*.Mask") (tstamp 2c75b0fd-8d39-4134-8230-331aada634fa))
)
