(footprint "SW_reset"
	(version 20240108)
	(generator "pcbnew")
	(generator_version "8.0")
	(layer "F.Cu")
	(descr "tactile push button, 6x6mm e.g. PHAP33xx series, height=5mm")
	(tags "tact sw push 6mm")
	(property "Reference" "SW68"
		(at 3.25 -2 180)
		(layer "F.SilkS")
		(uuid "b410caeb-5127-465d-beef-5a211fd5f513")
		(effects
			(font
				(size 1 1)
				(thickness 0.15)
			)
		)
	)
	(property "Value" "reset"
		(at 3.75 6.7 180)
		(layer "F.SilkS")
		(uuid "2197a72d-01d4-4fc4-ada8-a252e5895ddc")
		(effects
			(font
				(size 1 1)
				(thickness 0.15)
			)
		)
	)
	(property "Footprint" ""
		(at 0 0 0)
		(unlocked yes)
		(layer "F.Fab")
		(hide yes)
		(uuid "dcda0ee6-645b-46b3-91e5-73c4f1ecf059")
		(effects
			(font
				(size 1.27 1.27)
			)
		)
	)
	(property "Datasheet" ""
		(at 0 0 0)
		(unlocked yes)
		(layer "F.Fab")
		(hide yes)
		(uuid "351ad37f-aadd-43c9-a429-6a9abd4d15b0")
		(effects
			(font
				(size 1.27 1.27)
			)
		)
	)
	(property "Description" "Single Pole Single Throw (SPST) switch"
		(at 0 0 0)
		(unlocked yes)
		(layer "F.Fab")
		(hide yes)
		(uuid "44fb60c5-8811-4c78-9b70-0e268e725b7f")
		(effects
			(font
				(size 1.27 1.27)
			)
		)
	)
	(attr through_hole)
	(fp_line
		(start -0.25 1.5)
		(end -0.25 3)
		(stroke
			(width 0.12)
			(type solid)
		)
		(layer "F.SilkS")
		(uuid "0a7fdcec-3660-44dc-b9ee-3b39618a3ed8")
	)
	(fp_line
		(start 1 5.5)
		(end 5.5 5.5)
		(stroke
			(width 0.12)
			(type solid)
		)
		(layer "F.SilkS")
		(uuid "ab6f68dd-b0bc-42ea-8446-0480609b6512")
	)
	(fp_line
		(start 5.5 -1)
		(end 1 -1)
		(stroke
			(width 0.12)
			(type solid)
		)
		(layer "F.SilkS")
		(uuid "00ecdeca-2e42-4bb3-9c3c-dd71c84fb216")
	)
	(fp_line
		(start 6.75 3)
		(end 6.75 1.5)
		(stroke
			(width 0.12)
			(type solid)
		)
		(layer "F.SilkS")
		(uuid "5a9126a6-3f0f-4611-9c3f-4f0b9988aaa5")
	)
	(fp_circle
		(center -1 1)
		(end -0.75 1)
		(stroke
			(width 0.1)
			(type solid)
		)
		(fill solid)
		(layer "F.SilkS")
		(uuid "1650e861-8bbe-45e8-929b-23989f8b7d9c")
	)
	(fp_line
		(start -1.5 -1.5)
		(end -1.25 -1.5)
		(stroke
			(width 0.05)
			(type solid)
		)
		(layer "F.CrtYd")
		(uuid "c61af867-54aa-465c-baad-dfc795625f91")
	)
	(fp_line
		(start -1.5 -1.25)
		(end -1.5 -1.5)
		(stroke
			(width 0.05)
			(type solid)
		)
		(layer "F.CrtYd")
		(uuid "77216b5b-f659-490f-bdfd-400f2a3f535d")
	)
	(fp_line
		(start -1.5 5.75)
		(end -1.5 -1.25)
		(stroke
			(width 0.05)
			(type solid)
		)
		(layer "F.CrtYd")
		(uuid "95c7ce6a-4667-477c-9f07-094190cdcf43")
	)
	(fp_line
		(start -1.5 5.75)
		(end -1.5 6)
		(stroke
			(width 0.05)
			(type solid)
		)
		(layer "F.CrtYd")
		(uuid "67597261-306e-478f-a219-2e5ea6420091")
	)
	(fp_line
		(start -1.5 6)
		(end -1.25 6)
		(stroke
			(width 0.05)
			(type solid)
		)
		(layer "F.CrtYd")
		(uuid "589d49a8-452e-49cb-a0d5-d41120e2c5aa")
	)
	(fp_line
		(start -1.25 -1.5)
		(end 7.75 -1.5)
		(stroke
			(width 0.05)
			(type solid)
		)
		(layer "F.CrtYd")
		(uuid "3585d22a-ee1d-4966-b1e4-ce09ea585791")
	)
	(fp_line
		(start 7.75 -1.5)
		(end 8 -1.5)
		(stroke
			(width 0.05)
			(type solid)
		)
		(layer "F.CrtYd")
		(uuid "e18649f2-d757-47c1-8afb-c9bc8e20149a")
	)
	(fp_line
		(start 7.75 6)
		(end -1.25 6)
		(stroke
			(width 0.05)
			(type solid)
		)
		(layer "F.CrtYd")
		(uuid "96f033f2-a88d-47e4-83c0-cfd71dfa00b2")
	)
	(fp_line
		(start 7.75 6)
		(end 8 6)
		(stroke
			(width 0.05)
			(type solid)
		)
		(layer "F.CrtYd")
		(uuid "cceccfae-213f-4b8a-ae41-5908618086d1")
	)
	(fp_line
		(start 8 -1.5)
		(end 8 -1.25)
		(stroke
			(width 0.05)
			(type solid)
		)
		(layer "F.CrtYd")
		(uuid "24df2af9-4a2f-4248-bbb2-65c60ea803a0")
	)
	(fp_line
		(start 8 -1.25)
		(end 8 5.75)
		(stroke
			(width 0.05)
			(type solid)
		)
		(layer "F.CrtYd")
		(uuid "020006c9-d312-434f-bf33-a82a36510f9e")
	)
	(fp_line
		(start 8 6)
		(end 8 5.75)
		(stroke
			(width 0.05)
			(type solid)
		)
		(layer "F.CrtYd")
		(uuid "d45e0f68-e23e-4d95-80eb-e19be6bcd81c")
	)
	(fp_line
		(start 0.25 -0.75)
		(end 3.25 -0.75)
		(stroke
			(width 0.1)
			(type solid)
		)
		(layer "F.Fab")
		(uuid "4e576657-9350-4cf1-8dbd-dbc0fed5ea4d")
	)
	(fp_line
		(start 0.25 5.25)
		(end 0.25 -0.75)
		(stroke
			(width 0.1)
			(type solid)
		)
		(layer "F.Fab")
		(uuid "5a0135b4-fb34-4655-b227-44760876eb82")
	)
	(fp_line
		(start 3.25 -0.75)
		(end 6.25 -0.75)
		(stroke
			(width 0.1)
			(type solid)
		)
		(layer "F.Fab")
		(uuid "3038a3bd-3077-44a4-b4c0-0d04b9670a6e")
	)
	(fp_line
		(start 6.25 -0.75)
		(end 6.25 5.25)
		(stroke
			(width 0.1)
			(type solid)
		)
		(layer "F.Fab")
		(uuid "dcbceb79-7ecc-455d-93d9-173522fe2954")
	)
	(fp_line
		(start 6.25 5.25)
		(end 0.25 5.25)
		(stroke
			(width 0.1)
			(type solid)
		)
		(layer "F.Fab")
		(uuid "11a4aab5-845d-4814-9202-5ad657ee0d81")
	)
	(fp_circle
		(center 3.25 2.25)
		(end 1.25 2.5)
		(stroke
			(width 0.1)
			(type solid)
		)
		(fill none)
		(layer "F.Fab")
		(uuid "c2f93256-b5d2-4fe1-b907-180b61c28703")
	)
	(fp_text user "${VALUE}"
		(at 3.6 6.8 180)
		(layer "B.SilkS")
		(uuid "6f7dc8f9-9d7f-4dcf-894e-12a354ecff6b")
		(effects
			(font
				(size 1 1)
				(thickness 0.15)
			)
			(justify mirror)
		)
	)
	(fp_text user "${REFERENCE}"
		(at 3.5 -2.28 180)
		(layer "B.SilkS")
		(uuid "d8ec401c-19e2-4486-9692-397ac2378319")
		(effects
			(font
				(size 1 1)
				(thickness 0.15)
			)
			(justify mirror)
		)
	)
	(fp_text user "${REFERENCE}"
		(at 3.25 2.25 180)
		(layer "F.Fab")
		(uuid "9f80a222-ef8e-4d2d-8e5c-0314a8b420a1")
		(effects
			(font
				(size 1 1)
				(thickness 0.15)
			)
		)
	)
	(pad "1" thru_hole circle
		(at 0 0 90)
		(size 2 2)
		(drill 1.1)
		(layers "*.Cu" "*.Mask")
		(remove_unused_layers no)
		(uuid "a2daa017-f53e-4ef2-82db-5e8b08c47443")
	)
	(pad "1" smd rect
		(at 0.625 0.65 90)
		(size 1.25 2)
		(layers "F.Cu" "F.Paste" "F.Mask")
		(uuid "218136d3-8dc6-4d99-8763-02372921d80c")
	)
	(pad "1" smd rect
		(at 5.875 0.65 90)
		(size 1.25 2)
		(layers "F.Cu" "F.Paste" "F.Mask")
		(uuid "561c1c62-9a01-4837-8562-676a411c6586")
	)
	(pad "1" thru_hole circle
		(at 6.5 0 90)
		(size 2 2)
		(drill 1.1)
		(layers "*.Cu" "*.Mask")
		(remove_unused_layers no)
		(uuid "94681fe7-1a5a-43d6-be1a-74087ef374b1")
	)
	(pad "2" thru_hole circle
		(at 0 4.5 90)
		(size 2 2)
		(drill 1.1)
		(layers "*.Cu" "*.Mask")
		(remove_unused_layers no)
		(uuid "7737f2f8-8ebb-4003-8604-ee6317adfc0a")
	)
	(pad "2" smd rect
		(at 0.625 3.85 90)
		(size 1.25 2)
		(layers "F.Cu" "F.Paste" "F.Mask")
		(uuid "e7c04f67-48ae-4ee6-a3fd-6d74f66d47d8")
	)
	(pad "2" smd rect
		(at 5.875 3.85 90)
		(size 1.25 2)
		(layers "F.Cu" "F.Paste" "F.Mask")
		(uuid "8fb7dc10-68ef-42d9-adfb-495081b66f9b")
	)
	(pad "2" thru_hole circle
		(at 6.5 4.5 90)
		(size 2 2)
		(drill 1.1)
		(layers "*.Cu" "*.Mask")
		(remove_unused_layers no)
		(uuid "36cb6e7f-4d75-4106-bc84-4f13a02427ae")
	)
	(model "${KICAD6_3DMODEL_DIR}/Button_Switch_THT.3dshapes/SW_PUSH_6mm_H5mm.wrl"
		(offset
			(xyz 0 0 0)
		)
		(scale
			(xyz 1 1 1)
		)
		(rotate
			(xyz 0 0 0)
		)
	)
)