(footprint "switch_slide" (version 20221018) (generator pcbnew)
  (layer "F.Cu")
  (descr "CuK miniature slide switch, OS series, SPDT, https://www.ckswitches.com/media/1428/os.pdf")
  (tags "switch SPDT")
  (property "Sheetfile" "m65.kicad_sch")
  (property "Sheetname" "")
  (attr smd)
  (fp_text reference "SW**" (at 8 0 90) (layer "F.SilkS")
      (effects (font (size 0.75 0.75) (thickness 0.15)))
    (tstamp d205de61-ce74-4374-a0a5-ff7d2f47f302)
  )
  (fp_text value "spdt" (at -3.93 1.27 90) (layer "F.Fab")
      (effects (font (size 0.5 0.5) (thickness 0.125)))
    (tstamp 87173869-0548-4ed2-b107-16944f642a62)
  )
  (fp_text user "on/off" (at -3.33 3 unlocked) (layer "B.SilkS")
      (effects (font (size 0.75 0.75) (thickness 0.15)) (justify mirror))
    (tstamp db79a200-5c22-496e-a513-349c2a376256)
  )
  (fp_text user "${REFERENCE}" (at 8 0 90) (layer "B.SilkS")
      (effects (font (size 0.75 0.75) (thickness 0.15)) (justify mirror))
    (tstamp e2bfa1b5-217b-4104-bf9b-0c2cfb9aad85)
  )
  (fp_text user "spdt" (at -4 -0.5 90) (layer "B.SilkS")
      (effects (font (size 0.5 0.5) (thickness 0.125)) (justify mirror))
    (tstamp f7c489e6-23c7-40e8-b824-1edf41b82706)
  )
  (fp_text user "spdt" (at -4 -0.5 90) (layer "F.SilkS")
      (effects (font (size 0.5 0.5) (thickness 0.125)))
    (tstamp 7facf720-53f7-4f32-ba90-ca8bcaab16a9)
  )
  (fp_text user "on/off" (at -3.33 3 unlocked) (layer "F.SilkS")
      (effects (font (size 0.75 0.75) (thickness 0.15)))
    (tstamp abfa5937-c6b7-44a0-921e-73add308d386)
  )
  (fp_text user "${REFERENCE}" (at 3.99 -2.99) (layer "F.Fab")
      (effects (font (size 1 1) (thickness 0.15)))
    (tstamp 170192c8-f81b-4a2d-8f91-775ac66d2a16)
  )
  (fp_line (start -0.96 -1.97) (end 0.04 -1.97)
    (stroke (width 0.12) (type solid)) (layer "B.SilkS") (tstamp 40deb666-61c0-4b4b-8d95-2f0de7364572))
  (fp_line (start -0.46 -1.47) (end -0.96 -1.97)
    (stroke (width 0.12) (type solid)) (layer "B.SilkS") (tstamp 0261407b-c28a-40db-afc3-39cb2ae9f69a))
  (fp_line (start 0.04 -1.97) (end -0.46 -1.47)
    (stroke (width 0.12) (type solid)) (layer "B.SilkS") (tstamp 7bed2d2c-de62-4609-83fc-7e72b6ccb80a))
  (fp_circle (center -2.07 -3.64) (end -2.378707 -3.64)
    (stroke (width 0.1) (type solid)) (fill solid) (layer "B.SilkS") (tstamp 71c67e3e-835c-4c19-81ae-1031ec02dcd8))
  (fp_line (start -2.41 -2.26) (end 6.41 -2.26)
    (stroke (width 0.12) (type solid)) (layer "F.SilkS") (tstamp 828ac873-3331-466e-9f6e-1f63fae073c5))
  (fp_line (start -2.41 -1.95) (end -2.41 -2.26)
    (stroke (width 0.12) (type solid)) (layer "F.SilkS") (tstamp 7c7d48ff-9c3e-43d8-b60e-96d8f3cd58c8))
  (fp_line (start -2.41 2.26) (end -2.41 1.95)
    (stroke (width 0.12) (type solid)) (layer "F.SilkS") (tstamp 719840c8-7065-4ff7-aa18-1e5d8231b26b))
  (fp_line (start 0.57 -1.2) (end 1.16 -1.32)
    (stroke (width 0.1) (type default)) (layer "F.SilkS") (tstamp 5f1177df-553a-4f3a-ad24-b8355ea47222))
  (fp_line (start 0.6 -1.81) (end 0.57 -1.2)
    (stroke (width 0.1) (type default)) (layer "F.SilkS") (tstamp b072bf46-04a6-4e3c-9075-9ecade50338d))
  (fp_line (start 1.16 -1.32) (end 0.6 -1.81)
    (stroke (width 0.1) (type default)) (layer "F.SilkS") (tstamp 681a0ff5-3d07-4629-a816-b04e235a1d88))
  (fp_line (start 6.41 -2.26) (end 6.41 -1.95)
    (stroke (width 0.12) (type solid)) (layer "F.SilkS") (tstamp 085edab3-cf77-41f2-9219-6390d197082c))
  (fp_line (start 6.41 2.26) (end -2.41 2.26)
    (stroke (width 0.12) (type solid)) (layer "F.SilkS") (tstamp ee638d96-23d0-4d6d-9960-d9e60230852f))
  (fp_line (start 6.41 2.26) (end 6.41 1.95)
    (stroke (width 0.12) (type solid)) (layer "F.SilkS") (tstamp 7bd95877-bfc6-413c-bc35-5abf605dadcc))
  (fp_circle (center -2.07 -3.64) (end -1.761293 -3.64)
    (stroke (width 0.1) (type solid)) (fill solid) (layer "F.SilkS") (tstamp 0265afc3-9b73-44ad-8e02-187320015fd6))
  (fp_line (start -3.45 -2.4) (end 7.45 -2.4)
    (stroke (width 0.05) (type solid)) (layer "B.CrtYd") (tstamp 282875d1-409d-4b4d-8847-bdeba2b8552b))
  (fp_line (start -3.45 2.4) (end -3.45 -2.4)
    (stroke (width 0.05) (type solid)) (layer "B.CrtYd") (tstamp 1f536083-f73d-499a-bdb7-6771a82bcde6))
  (fp_line (start 7.45 -2.4) (end 7.45 2.4)
    (stroke (width 0.05) (type solid)) (layer "B.CrtYd") (tstamp 44236bdf-c835-4a8a-9c14-d30fa4ee1da2))
  (fp_line (start 7.45 2.4) (end -3.45 2.4)
    (stroke (width 0.05) (type solid)) (layer "B.CrtYd") (tstamp 04152251-5898-4949-a2a0-343f1376067b))
  (fp_line (start -2.3 -2.15) (end -0.5 -2.15)
    (stroke (width 0.1) (type solid)) (layer "F.Fab") (tstamp 4e17886e-9f55-4550-9460-18636bcbdda5))
  (fp_line (start -2.3 2.15) (end -2.3 -2.15)
    (stroke (width 0.1) (type solid)) (layer "F.Fab") (tstamp 82638e18-6c08-42d5-a370-d788d2835b4c))
  (fp_line (start -0.5 -2.15) (end 0 -1.65)
    (stroke (width 0.1) (type solid)) (layer "F.Fab") (tstamp 9152d042-674c-464e-a3f6-e51673cbf193))
  (fp_line (start 0 -1.65) (end 0.5 -2.15)
    (stroke (width 0.1) (type solid)) (layer "F.Fab") (tstamp 868248f6-2483-415a-8fa4-232d8d85dac7))
  (fp_line (start 0 -1) (end 0 1)
    (stroke (width 0.1) (type solid)) (layer "F.Fab") (tstamp 5e97f152-a93c-4e78-ac3e-16ed2b921aae))
  (fp_line (start 0 -1) (end 4 -1)
    (stroke (width 0.1) (type solid)) (layer "F.Fab") (tstamp 6799f9f8-5b8d-4b13-8545-1ef36f55b110))
  (fp_line (start 0 1) (end 4 1)
    (stroke (width 0.1) (type solid)) (layer "F.Fab") (tstamp 4054f366-d195-413a-bbcd-3c5c9678e86b))
  (fp_line (start 0.5 -2.15) (end 6.3 -2.15)
    (stroke (width 0.1) (type solid)) (layer "F.Fab") (tstamp 17e1ddc9-74bf-4582-878c-b27ace3de0ff))
  (fp_line (start 0.66 -1) (end 0.66 1)
    (stroke (width 0.1) (type solid)) (layer "F.Fab") (tstamp d13a39fe-d133-456e-b3b7-037db8d93832))
  (fp_line (start 1.34 -1) (end 1.34 1)
    (stroke (width 0.1) (type solid)) (layer "F.Fab") (tstamp c0be7ac5-4795-45fb-aaf7-4ae75d4fb528))
  (fp_line (start 2 -1) (end 2 1)
    (stroke (width 0.1) (type solid)) (layer "F.Fab") (tstamp a1ac5de4-385b-41fd-aca6-233acaa1622c))
  (fp_line (start 4 -1) (end 4 1)
    (stroke (width 0.1) (type solid)) (layer "F.Fab") (tstamp e8e9461d-f937-465e-937b-9da169cac0c4))
  (fp_line (start 6.3 -2.15) (end 6.3 2.15)
    (stroke (width 0.1) (type solid)) (layer "F.Fab") (tstamp 5197e2ae-7c65-4dc5-95bf-10498651317e))
  (fp_line (start 6.3 2.15) (end -2.3 2.15)
    (stroke (width 0.1) (type solid)) (layer "F.Fab") (tstamp debcc619-9364-4863-87de-6d731cf5940e))
  (pad "" thru_hole oval (at -2.1 0) (size 1.4 3.5) (drill 1.3) (layers "*.Cu" "*.Mask") (tstamp a36c4f10-7a21-463b-952e-0259192398f6))
  (pad "" thru_hole oval (at 6.1 0) (size 1.4 3.5) (drill 1.3) (layers "*.Cu" "*.Mask") (tstamp 99e5b720-cd17-4906-92f0-716e260c420d))
  (pad "1" smd rect (at -0.5075 -2.41) (size 1.35 3.8) (layers "F.Cu" "F.Paste" "F.Mask") (tstamp 558171a1-9728-4592-8fa2-56a2277ef3f7))
  (pad "1" smd rect (at -0.4875 2.39) (size 1.35 3.8) (layers "F.Cu" "F.Paste" "F.Mask") (tstamp c87757a0-122b-45c5-af10-bef401c51712))
  (pad "1" thru_hole circle (at 0 0) (size 1.5 1.5) (drill 0.8) (layers "*.Cu" "*.Mask") (tstamp 550189c3-719d-4fd9-9b16-61eb0cd9c627))
  (pad "2" smd rect (at 2 -2.5) (size 1.35 3.8) (layers "F.Cu" "F.Paste" "F.Mask") (tstamp ac3f8a08-7361-4b89-8bf5-4271509b7308))
  (pad "2" thru_hole circle (at 2 0) (size 1.5 1.5) (drill 0.8) (layers "*.Cu" "*.Mask") (tstamp b9f3dbdd-0854-4fb9-a84b-eeb4d7f09241))
  (pad "2" smd rect (at 2 2.5) (size 1.35 3.8) (layers "F.Cu" "F.Paste" "F.Mask") (tstamp f8d1c32c-7ef7-4b45-a342-dca741c90f43))
  (pad "3" thru_hole circle (at 4 0) (size 1.5 1.5) (drill 0.8) (layers "*.Cu" "*.Mask") (tstamp e1521370-1cee-4ec4-a905-7d91a8b48b0f))
  (pad "3" smd rect (at 4.5 -2.5) (size 1.35 3.8) (layers "F.Cu" "F.Paste" "F.Mask") (tstamp 669cb027-d724-479e-b403-f5b93fd939da))
  (pad "3" smd rect (at 4.5 2.5) (size 1.35 3.8) (layers "F.Cu" "F.Paste" "F.Mask") (tstamp c3d07d3a-b4bb-42fb-b3a3-13224e6c9ff6))
  (model "${KIPRJMOD}/packages3d/EG1249.step" hide
    (offset (xyz 2 -2 -1.5))
    (scale (xyz 1 1 1))
    (rotate (xyz 0 0 0))
  )
  (model "${KIPRJMOD}/packages3d/switch.step" hide
    (offset (xyz 2 0 -0.5))
    (scale (xyz 0.4 0.4 0.4))
    (rotate (xyz -90 0 0))
  )
  (model "${KIPRJMOD}/packages3d/switch-surface.step"
    (offset (xyz 2 0 0))
    (scale (xyz 1 1 1))
    (rotate (xyz -90 0 0))
  )
)
