(footprint "u-boot_reset-3p" (version 20221018) (generator pcbnew)
  (layer "F.Cu")
  (descr "JST PH series connector, S3B-PH-K (http://www.jst-mfg.com/product/pdf/eng/ePH.pdf), generated with kicad-footprint-generator")
  (tags "connector JST PH top entry")
  (property "Sheetfile" "ultimate-8x16.kicad_sch")
  (property "Sheetname" "")
  (property "ki_description" "Generic connector, single row, 01x03, script generated")
  (property "ki_keywords" "connector")
  (attr through_hole)
  (fp_text reference "J13" (at -3.27 0.35 90) (layer "F.SilkS")
      (effects (font (size 1 1) (thickness 0.15)))
    (tstamp 587e25a3-3233-45a0-87f8-d89be8c962de)
  )
  (fp_text value "spec" (at 2 7.45) (layer "F.Fab")
      (effects (font (size 1 1) (thickness 0.15)))
    (tstamp 4e0ed156-a969-46f3-ba40-e20170870526)
  )
  (fp_text user "rst" (at 1.63 -0.82 -90 unlocked) (layer "B.SilkS")
      (effects (font (size 0.7 0.7) (thickness 0.1)) (justify left bottom mirror))
    (tstamp 2907e339-861c-4f16-8262-3b947577d190)
  )
  (fp_text user "gnd" (at -0.31 -0.73 -90 unlocked) (layer "B.SilkS")
      (effects (font (size 0.7 0.7) (thickness 0.1)) (justify left bottom mirror))
    (tstamp d6c8ef27-5e59-4de8-b257-464ace766ea8)
  )
  (fp_text user "boot" (at 3.61 -0.74 -90 unlocked) (layer "B.SilkS")
      (effects (font (size 0.7 0.7) (thickness 0.1)) (justify left bottom mirror))
    (tstamp f0a4334c-ffba-44a3-bca0-9711ec4a6c28)
  )
  (fp_text user "${REFERENCE}" (at -3.23 1.78 -90) (layer "B.SilkS")
      (effects (font (size 1 1) (thickness 0.15)) (justify mirror))
    (tstamp f9cff5d0-2bf6-4669-a841-d078c0fb967c)
  )
  (fp_text user "boot" (at 4.25 -0.73 90 unlocked) (layer "F.SilkS")
      (effects (font (size 0.7 0.7) (thickness 0.1)) (justify left bottom))
    (tstamp 3efe3dc5-573d-4430-9b56-db80be2e3a28)
  )
  (fp_text user "rst" (at 2.26 -0.8 90 unlocked) (layer "F.SilkS")
      (effects (font (size 0.7 0.7) (thickness 0.1)) (justify left bottom))
    (tstamp 4f5cdba6-3899-4041-b70c-16c790d6329f)
  )
  (fp_text user "gnd" (at 0.19 -0.73 90 unlocked) (layer "F.SilkS")
      (effects (font (size 0.7 0.7) (thickness 0.1)) (justify left bottom))
    (tstamp db6f3a7b-97ed-483e-88e3-88887ffd363e)
  )
  (fp_text user "${REFERENCE}" (at 2 2.5) (layer "F.Fab")
      (effects (font (size 1 1) (thickness 0.15)))
    (tstamp 352af8cf-59dd-4768-8b29-00a074a320f1)
  )
  (fp_line (start -2.06 -1.46) (end -2.06 6.36)
    (stroke (width 0.12) (type solid)) (layer "F.SilkS") (tstamp 05beb39e-88cc-474c-a958-9d8162f53955))
  (fp_line (start -2.06 0.14) (end -1.14 0.14)
    (stroke (width 0.12) (type solid)) (layer "F.SilkS") (tstamp 9b72d01e-2e19-4404-a951-33ecb1aad84a))
  (fp_line (start -2.06 6.36) (end 6.06 6.36)
    (stroke (width 0.12) (type solid)) (layer "F.SilkS") (tstamp 3a182172-5ecf-42df-9348-5371f3229edf))
  (fp_line (start -1.3 2.5) (end -1.3 4.1)
    (stroke (width 0.12) (type solid)) (layer "F.SilkS") (tstamp 1e0c49ce-4fe6-4ef6-90a3-310e432c0c94))
  (fp_line (start -1.3 4.1) (end -0.3 4.1)
    (stroke (width 0.12) (type solid)) (layer "F.SilkS") (tstamp d0b71ee7-1b8e-4cc7-8087-25694460af90))
  (fp_line (start -1.14 -1.46) (end -2.06 -1.46)
    (stroke (width 0.12) (type solid)) (layer "F.SilkS") (tstamp 3e56bfdc-894f-4fa1-a2d8-e50ec5d70e13))
  (fp_line (start -1.14 0.14) (end -1.14 -1.46)
    (stroke (width 0.12) (type solid)) (layer "F.SilkS") (tstamp 8d45c4b4-15ab-4ec1-a7ed-e8a1a854c3ed))
  (fp_line (start -0.86 0.14) (end -1.14 0.14)
    (stroke (width 0.12) (type solid)) (layer "F.SilkS") (tstamp 5dd787a7-a523-4493-a28a-95276f3dca26))
  (fp_line (start -0.86 0.14) (end -0.86 -1.075)
    (stroke (width 0.12) (type solid)) (layer "F.SilkS") (tstamp 139399c1-c525-430a-ae93-235e24427586))
  (fp_line (start -0.8 4.1) (end -0.8 6.36)
    (stroke (width 0.12) (type solid)) (layer "F.SilkS") (tstamp 69f53b45-80a0-4e3d-8530-3f89051c4765))
  (fp_line (start -0.3 2.5) (end -1.3 2.5)
    (stroke (width 0.12) (type solid)) (layer "F.SilkS") (tstamp 38c59b57-72d9-4adb-9902-30a8b647d0f6))
  (fp_line (start -0.3 4.1) (end -0.3 2.5)
    (stroke (width 0.12) (type solid)) (layer "F.SilkS") (tstamp c718a845-4ff8-4316-99f2-749e4816d0ae))
  (fp_line (start -0.3 4.1) (end -0.3 6.36)
    (stroke (width 0.12) (type solid)) (layer "F.SilkS") (tstamp 3f4d3335-7e07-441e-8ceb-f646483c40ce))
  (fp_line (start 0.5 2) (end 3.5 2)
    (stroke (width 0.12) (type solid)) (layer "F.SilkS") (tstamp 649be227-2549-4e8c-8c9a-4f17e3bd53a4))
  (fp_line (start 0.5 6.36) (end 0.5 2)
    (stroke (width 0.12) (type solid)) (layer "F.SilkS") (tstamp 1a114355-f1be-435b-b9e4-06bff1c43ed8))
  (fp_line (start 3.5 2) (end 3.5 6.36)
    (stroke (width 0.12) (type solid)) (layer "F.SilkS") (tstamp 3b6eb469-c559-472f-8c3d-ff3d03328059))
  (fp_line (start 4.3 2.5) (end 5.3 2.5)
    (stroke (width 0.12) (type solid)) (layer "F.SilkS") (tstamp c2d8f239-c037-4e39-a2b8-b988c58edbe6))
  (fp_line (start 4.3 4.1) (end 4.3 2.5)
    (stroke (width 0.12) (type solid)) (layer "F.SilkS") (tstamp 32bd86e7-732b-45cc-a1b5-185944453ce8))
  (fp_line (start 5.14 -1.46) (end 5.14 0.14)
    (stroke (width 0.12) (type solid)) (layer "F.SilkS") (tstamp d218c50c-fb68-4fef-ae68-fc80577babc9))
  (fp_line (start 5.14 0.14) (end 4.86 0.14)
    (stroke (width 0.12) (type solid)) (layer "F.SilkS") (tstamp 5818acf9-5bad-4f5a-88f2-0050b43ed3aa))
  (fp_line (start 5.3 2.5) (end 5.3 4.1)
    (stroke (width 0.12) (type solid)) (layer "F.SilkS") (tstamp 4228bc1e-2387-44b5-8a3e-1ccfac381beb))
  (fp_line (start 5.3 4.1) (end 4.3 4.1)
    (stroke (width 0.12) (type solid)) (layer "F.SilkS") (tstamp cbed0fc6-b99e-4a0e-96f5-f2e6a3a177de))
  (fp_line (start 6.06 -1.46) (end 5.14 -1.46)
    (stroke (width 0.12) (type solid)) (layer "F.SilkS") (tstamp 9ffe6ee6-c02a-4a8c-9e4f-1c2ac62cd616))
  (fp_line (start 6.06 0.14) (end 5.14 0.14)
    (stroke (width 0.12) (type solid)) (layer "F.SilkS") (tstamp 8155c8b5-d3c3-4a29-81b7-d098121c3bc0))
  (fp_line (start 6.06 6.36) (end 6.06 -1.46)
    (stroke (width 0.12) (type solid)) (layer "F.SilkS") (tstamp 4e9c49bb-3e2c-4f8f-a3cd-ff52a7ce81e3))
  (fp_line (start -2.45 -1.85) (end -2.45 6.75)
    (stroke (width 0.05) (type solid)) (layer "F.CrtYd") (tstamp 9cea9357-c022-4586-93d0-5c08d23b9bc7))
  (fp_line (start -2.45 6.75) (end 6.45 6.75)
    (stroke (width 0.05) (type solid)) (layer "F.CrtYd") (tstamp 91806ed3-dba7-4043-abd3-2f129f73b4af))
  (fp_line (start 6.45 -1.85) (end -2.45 -1.85)
    (stroke (width 0.05) (type solid)) (layer "F.CrtYd") (tstamp 134b4d9b-1ce2-42bd-bbc5-56dc21a17877))
  (fp_line (start 6.45 6.75) (end 6.45 -1.85)
    (stroke (width 0.05) (type solid)) (layer "F.CrtYd") (tstamp 367d388e-744d-4091-aaeb-1282a6a307e1))
  (fp_line (start -1.95 -1.35) (end -1.95 6.25)
    (stroke (width 0.1) (type solid)) (layer "F.Fab") (tstamp b26b4a49-edf3-409d-8c0c-215ed5de8a39))
  (fp_line (start -1.95 6.25) (end 5.95 6.25)
    (stroke (width 0.1) (type solid)) (layer "F.Fab") (tstamp 425131a1-50be-4064-828c-1e37254ddd91))
  (fp_line (start -1.25 -1.35) (end -1.95 -1.35)
    (stroke (width 0.1) (type solid)) (layer "F.Fab") (tstamp 0b32d1a8-3c3a-401c-bf14-10d149a5ad59))
  (fp_line (start -1.25 0.25) (end -1.25 -1.35)
    (stroke (width 0.1) (type solid)) (layer "F.Fab") (tstamp 8205ff4c-c8d5-4171-8315-d149b02869f8))
  (fp_line (start -0.5 1.375) (end 0.5 1.375)
    (stroke (width 0.1) (type solid)) (layer "F.Fab") (tstamp 67574dd5-80d3-44a9-9ee4-20ccf3127087))
  (fp_line (start 0 0.875) (end -0.5 1.375)
    (stroke (width 0.1) (type solid)) (layer "F.Fab") (tstamp f1ef8b64-fdd9-4ee5-a824-0c95f6919364))
  (fp_line (start 0.5 1.375) (end 0 0.875)
    (stroke (width 0.1) (type solid)) (layer "F.Fab") (tstamp 29b6a759-2215-4206-a167-648bbbac92b3))
  (fp_line (start 5.25 -1.35) (end 5.25 0.25)
    (stroke (width 0.1) (type solid)) (layer "F.Fab") (tstamp d6184a7a-3be7-4f9c-85d4-82e682a2316f))
  (fp_line (start 5.25 0.25) (end -1.25 0.25)
    (stroke (width 0.1) (type solid)) (layer "F.Fab") (tstamp 9db513d1-f069-47ec-8382-c5749d2f51f7))
  (fp_line (start 5.95 -1.35) (end 5.25 -1.35)
    (stroke (width 0.1) (type solid)) (layer "F.Fab") (tstamp fad05f3f-78f1-42f6-9f86-32e4ca399b7e))
  (fp_line (start 5.95 6.25) (end 5.95 -1.35)
    (stroke (width 0.1) (type solid)) (layer "F.Fab") (tstamp fc5e02bc-167e-41a6-a474-f92960676787))
  (pad "1" thru_hole roundrect (at 0 0) (size 1.2 1.2) (drill 0.75) (layers "*.Cu" "*.Mask") (roundrect_rratio 0.25) (tstamp e724d87a-5681-44f3-868c-b6413c0d4e3b))
  (pad "2" thru_hole circle (at 2 0) (size 1.2 1.2) (drill 0.75) (layers "*.Cu" "*.Mask") (tstamp f927b652-922d-445e-a83b-98a10153e695))
  (pad "3" thru_hole circle (at 4 0) (size 1.2 1.2) (drill 0.75) (layers "*.Cu" "*.Mask") (tstamp 70ce0f1d-1650-4e20-a97d-2e99a4b13d41))
  (model "${KICAD6_3DMODEL_DIR}/Connector_JST.3dshapes/JST_PH_S3B-PH-K_1x03_P2.00mm_Horizontal.wrl"
    (offset (xyz 0 0 0))
    (scale (xyz 1 1 1))
    (rotate (xyz 0 0 0))
  )
)
