(footprint "u-encode-3p" (version 20221018) (generator pcbnew)
  (layer "F.Cu")
  (descr "JST PH series connector, S3B-PH-K (http://www.jst-mfg.com/product/pdf/eng/ePH.pdf), generated with kicad-footprint-generator")
  (tags "connector JST PH top entry")
  (property "Sheetfile" "ultimate-8x16.kicad_sch")
  (property "Sheetname" "")
  (property "ki_description" "Generic connector, single row, 01x03, script generated")
  (property "ki_keywords" "connector")
  (attr through_hole)
  (fp_text reference "J10" (at -3.42 2.96 -90) (layer "F.SilkS")
      (effects (font (size 1 1) (thickness 0.15)))
    (tstamp 4d3449eb-c19f-4c40-ada5-30ff5f6d3352)
  )
  (fp_text value "encoder" (at 2 7.45 180) (layer "F.Fab")
      (effects (font (size 1 1) (thickness 0.15)))
    (tstamp 2fe2971c-c738-4cca-89dd-a04bce295dd5)
  )
  (fp_text user "gp0" (at 4.99 -2.47 90 unlocked) (layer "B.SilkS")
      (effects (font (size 0.7 0.7) (thickness 0.1)) (justify left bottom mirror))
    (tstamp 318ffb2c-eb7b-4fac-897a-96d623d5d21d)
  )
  (fp_text user "gp1" (at 0.17 -0.61 -90 unlocked) (layer "B.SilkS")
      (effects (font (size 0.7 0.7) (thickness 0.1)) (justify left bottom mirror))
    (tstamp 67e144e1-0f5e-44e6-9003-e17f06b7880a)
  )
  (fp_text user "A" (at -0.87 -0.77 -90 unlocked) (layer "B.SilkS")
      (effects (font (size 0.7 0.7) (thickness 0.1)) (justify left bottom mirror))
    (tstamp adb33f9f-f1e2-404d-b813-c6f6c671b40c)
  )
  (fp_text user "${REFERENCE}" (at -3.44 2.94 90) (layer "B.SilkS")
      (effects (font (size 1 1) (thickness 0.15)) (justify mirror))
    (tstamp ba635bf9-fb78-4ba3-b6ab-42eda00d15c8)
  )
  (fp_text user "B" (at 3.97 -1.46 90 unlocked) (layer "B.SilkS")
      (effects (font (size 0.7 0.7) (thickness 0.1)) (justify left bottom mirror))
    (tstamp d5e3bcc9-8540-44da-8d2e-c380af224539)
  )
  (fp_text user "gnd" (at 2.23 -2.826666 90 unlocked) (layer "B.SilkS")
      (effects (font (size 0.7 0.7) (thickness 0.1)) (justify left bottom mirror))
    (tstamp e91438b2-5e02-45b8-aa12-2882b424bbba)
  )
  (fp_text user "gp1" (at 0.73 -0.6 90 unlocked) (layer "F.SilkS")
      (effects (font (size 0.7 0.7) (thickness 0.1)) (justify left bottom))
    (tstamp 2900594a-71c7-4e56-8781-ef3fd754eb2d)
  )
  (fp_text user "B" (at 3.93 -0.79 90 unlocked) (layer "F.SilkS")
      (effects (font (size 0.7 0.7) (thickness 0.1)) (justify left bottom))
    (tstamp 482c0e68-2f0a-42a8-bf10-83de5cfdd71e)
  )
  (fp_text user "gnd" (at 1.61 -2.88 -90 unlocked) (layer "F.SilkS")
      (effects (font (size 0.7 0.7) (thickness 0.1)) (justify left bottom))
    (tstamp a26cb0d9-8ebf-4f1d-97e3-39135d8cbffb)
  )
  (fp_text user "A" (at -0.15 -0.75 90 unlocked) (layer "F.SilkS")
      (effects (font (size 0.7 0.7) (thickness 0.1)) (justify left bottom))
    (tstamp da5fda60-7c16-4aba-8098-8942d5beb1c6)
  )
  (fp_text user "gp0" (at 4.78 -0.51 90 unlocked) (layer "F.SilkS")
      (effects (font (size 0.7 0.7) (thickness 0.1)) (justify left bottom))
    (tstamp ffe4c3b3-1272-4dec-9da2-e498e99a58e0)
  )
  (fp_text user "${REFERENCE}" (at 2 2.5 180) (layer "F.Fab")
      (effects (font (size 1 1) (thickness 0.15)))
    (tstamp cf0d92af-361a-410f-afac-c7dc09110547)
  )
  (fp_line (start -2.06 -1.46) (end -2.06 6.36)
    (stroke (width 0.12) (type solid)) (layer "F.SilkS") (tstamp 823e6b72-e145-488a-8866-ae02fc3267d8))
  (fp_line (start -2.06 0.14) (end -1.14 0.14)
    (stroke (width 0.12) (type solid)) (layer "F.SilkS") (tstamp b14f055d-4aee-4b6c-b4bf-ea6ee62a933c))
  (fp_line (start -2.06 6.36) (end 6.06 6.36)
    (stroke (width 0.12) (type solid)) (layer "F.SilkS") (tstamp d5119604-aa53-4c85-b5c6-600c1a052e53))
  (fp_line (start -1.3 2.5) (end -1.3 4.1)
    (stroke (width 0.12) (type solid)) (layer "F.SilkS") (tstamp e7da0515-bfaf-4eed-accd-5b5d95e09836))
  (fp_line (start -1.3 4.1) (end -0.3 4.1)
    (stroke (width 0.12) (type solid)) (layer "F.SilkS") (tstamp 327c7b9a-fb35-48ea-b603-2767dcf23f90))
  (fp_line (start -1.14 -1.46) (end -2.06 -1.46)
    (stroke (width 0.12) (type solid)) (layer "F.SilkS") (tstamp d4ce231c-9478-4fe7-8b3a-c708201d8545))
  (fp_line (start -1.14 0.14) (end -1.14 -1.46)
    (stroke (width 0.12) (type solid)) (layer "F.SilkS") (tstamp e7c808bb-4f35-4869-8722-83c73002047e))
  (fp_line (start -0.86 0.14) (end -1.14 0.14)
    (stroke (width 0.12) (type solid)) (layer "F.SilkS") (tstamp af01f77b-d4f0-402c-9614-c475b7003fa3))
  (fp_line (start -0.86 0.14) (end -0.86 -1.075)
    (stroke (width 0.12) (type solid)) (layer "F.SilkS") (tstamp 5cfe3349-37bd-48db-ac5c-b42e17c34c1f))
  (fp_line (start -0.8 4.1) (end -0.8 6.36)
    (stroke (width 0.12) (type solid)) (layer "F.SilkS") (tstamp ace8ef3c-f74d-4811-9f36-1f9eea69b0d2))
  (fp_line (start -0.3 2.5) (end -1.3 2.5)
    (stroke (width 0.12) (type solid)) (layer "F.SilkS") (tstamp 6b674887-a595-46d4-8123-2093690b7f56))
  (fp_line (start -0.3 4.1) (end -0.3 2.5)
    (stroke (width 0.12) (type solid)) (layer "F.SilkS") (tstamp fcebe970-9046-4bec-aeb8-5147ac0458d5))
  (fp_line (start -0.3 4.1) (end -0.3 6.36)
    (stroke (width 0.12) (type solid)) (layer "F.SilkS") (tstamp 90ad65c3-ce4e-4684-9009-4379fc440fb1))
  (fp_line (start 0.5 2) (end 3.5 2)
    (stroke (width 0.12) (type solid)) (layer "F.SilkS") (tstamp 36d43834-172f-4ab4-bb30-774868375142))
  (fp_line (start 0.5 6.36) (end 0.5 2)
    (stroke (width 0.12) (type solid)) (layer "F.SilkS") (tstamp f26bed95-e805-40c9-8dea-e86204ed5739))
  (fp_line (start 3.5 2) (end 3.5 6.36)
    (stroke (width 0.12) (type solid)) (layer "F.SilkS") (tstamp e52b86b0-b082-4d1b-8717-530116c882b9))
  (fp_line (start 4.3 2.5) (end 5.3 2.5)
    (stroke (width 0.12) (type solid)) (layer "F.SilkS") (tstamp d42c82e5-7735-4562-9392-afe42e0a53ec))
  (fp_line (start 4.3 4.1) (end 4.3 2.5)
    (stroke (width 0.12) (type solid)) (layer "F.SilkS") (tstamp 9d33713a-6108-4359-93be-ccaa9ecc1353))
  (fp_line (start 5.14 -1.46) (end 5.14 0.14)
    (stroke (width 0.12) (type solid)) (layer "F.SilkS") (tstamp 04e88b3a-fc6d-4970-9094-0653b7091ffa))
  (fp_line (start 5.14 0.14) (end 4.86 0.14)
    (stroke (width 0.12) (type solid)) (layer "F.SilkS") (tstamp 59a1b5fc-a4dc-48ec-9980-3eff21102458))
  (fp_line (start 5.3 2.5) (end 5.3 4.1)
    (stroke (width 0.12) (type solid)) (layer "F.SilkS") (tstamp 0cb7f607-8e0e-44a4-99c0-02da2dd122ec))
  (fp_line (start 5.3 4.1) (end 4.3 4.1)
    (stroke (width 0.12) (type solid)) (layer "F.SilkS") (tstamp 97e798d6-0e36-4135-9b07-c7abb82c2edd))
  (fp_line (start 6.06 -1.46) (end 5.14 -1.46)
    (stroke (width 0.12) (type solid)) (layer "F.SilkS") (tstamp 234e73ac-88f7-4246-9cbc-d92e8bd668de))
  (fp_line (start 6.06 0.14) (end 5.14 0.14)
    (stroke (width 0.12) (type solid)) (layer "F.SilkS") (tstamp 135d0cc5-e6a3-4008-b011-ab1118837082))
  (fp_line (start 6.06 6.36) (end 6.06 -1.46)
    (stroke (width 0.12) (type solid)) (layer "F.SilkS") (tstamp fd03682f-a20f-492d-bf6a-6e9f55371c6a))
  (fp_line (start -2.45 -1.85) (end -2.45 6.75)
    (stroke (width 0.05) (type solid)) (layer "F.CrtYd") (tstamp 699dfe8d-acd1-4303-946d-ef992071dc99))
  (fp_line (start -2.45 6.75) (end 6.45 6.75)
    (stroke (width 0.05) (type solid)) (layer "F.CrtYd") (tstamp 9185fd0b-bc79-4f80-9db7-69765e05a0c5))
  (fp_line (start 6.45 -1.85) (end -2.45 -1.85)
    (stroke (width 0.05) (type solid)) (layer "F.CrtYd") (tstamp e7348f37-e5ff-4c6b-a561-790ac54be197))
  (fp_line (start 6.45 6.75) (end 6.45 -1.85)
    (stroke (width 0.05) (type solid)) (layer "F.CrtYd") (tstamp b273ca3e-65c6-4515-910d-1e2eee686ad2))
  (fp_line (start -1.95 -1.35) (end -1.95 6.25)
    (stroke (width 0.1) (type solid)) (layer "F.Fab") (tstamp 2c98c4d2-da00-4f7c-bff5-401add3c5c6b))
  (fp_line (start -1.95 6.25) (end 5.95 6.25)
    (stroke (width 0.1) (type solid)) (layer "F.Fab") (tstamp 8de5fcde-c22a-47cc-aee4-84b25dd9f523))
  (fp_line (start -1.25 -1.35) (end -1.95 -1.35)
    (stroke (width 0.1) (type solid)) (layer "F.Fab") (tstamp d1bc13ce-15b6-4152-b320-77b3200317bd))
  (fp_line (start -1.25 0.25) (end -1.25 -1.35)
    (stroke (width 0.1) (type solid)) (layer "F.Fab") (tstamp 84b19da7-d463-429d-bd44-5a3de641ce78))
  (fp_line (start -0.5 1.375) (end 0.5 1.375)
    (stroke (width 0.1) (type solid)) (layer "F.Fab") (tstamp 168433ee-b2bd-4dae-ab36-00c6095b356b))
  (fp_line (start 0 0.875) (end -0.5 1.375)
    (stroke (width 0.1) (type solid)) (layer "F.Fab") (tstamp 39e14a7f-2a6d-4eb9-a40b-4d2fd52f9f34))
  (fp_line (start 0.5 1.375) (end 0 0.875)
    (stroke (width 0.1) (type solid)) (layer "F.Fab") (tstamp 9598123a-3fba-462b-8dd2-f491d6b732fd))
  (fp_line (start 5.25 -1.35) (end 5.25 0.25)
    (stroke (width 0.1) (type solid)) (layer "F.Fab") (tstamp 18979d1e-76b4-45fc-8d0f-7c8ddbc9ea74))
  (fp_line (start 5.25 0.25) (end -1.25 0.25)
    (stroke (width 0.1) (type solid)) (layer "F.Fab") (tstamp febd8595-9abc-4b2e-adc2-ffd4dca71b6c))
  (fp_line (start 5.95 -1.35) (end 5.25 -1.35)
    (stroke (width 0.1) (type solid)) (layer "F.Fab") (tstamp 78951ec3-6860-4dd5-b583-03638d2c81c5))
  (fp_line (start 5.95 6.25) (end 5.95 -1.35)
    (stroke (width 0.1) (type solid)) (layer "F.Fab") (tstamp 4c0c459b-a524-4d60-8b46-76eb471a9d9d))
  (pad "1" thru_hole circle (at 0 0) (size 1.2 1.2) (drill 0.75) (layers "*.Cu" "*.Mask") (tstamp a3ff8c55-5af6-4e2c-91fa-c2afa84593c4))
  (pad "2" thru_hole roundrect (at 2 0) (size 1.2 1.2) (drill 0.75) (layers "*.Cu" "*.Mask") (roundrect_rratio 0.25) (tstamp 12329689-734d-4ae4-b174-21b8a3e75f48))
  (pad "3" thru_hole circle (at 4 0) (size 1.2 1.2) (drill 0.75) (layers "*.Cu" "*.Mask") (tstamp fe306ce2-32ff-41e9-9397-040f663d516e))
  (model "${KICAD6_3DMODEL_DIR}/Connector_JST.3dshapes/JST_PH_S3B-PH-K_1x03_P2.00mm_Horizontal.wrl"
    (offset (xyz 0 0 0))
    (scale (xyz 1 1 1))
    (rotate (xyz 0 0 0))
  )
)
