(footprint "u-oled-4p" (version 20221018) (generator pcbnew)
  (layer "F.Cu")
  (descr "JST PH series connector, S4B-PH-K (http://www.jst-mfg.com/product/pdf/eng/ePH.pdf), generated with kicad-footprint-generator")
  (tags "connector JST PH top entry")
  (property "Sheetfile" "ultimate-8x16.kicad_sch")
  (property "Sheetname" "")
  (property "ki_description" "Generic connector, single row, 01x04, script generated")
  (property "ki_keywords" "connector")
  (attr through_hole)
  (fp_text reference "J9" (at -3.4 2.04 90) (layer "F.SilkS")
      (effects (font (size 1 1) (thickness 0.15)))
    (tstamp ae335e71-773b-429a-941b-24e580121687)
  )
  (fp_text value "i2c - oled" (at 3 7.45) (layer "F.Fab")
      (effects (font (size 1 1) (thickness 0.15)))
    (tstamp 729c92fe-3ab6-40e8-9db4-6b7a7d63a3a6)
  )
  (fp_text user "gnd" (at 5.8 -0.76 -90 unlocked) (layer "B.SilkS")
      (effects (font (size 0.7 0.7) (thickness 0.1)) (justify left bottom mirror))
    (tstamp 193d5f91-fd33-402d-99a5-ab410f5d89f2)
  )
  (fp_text user "gp7" (at 2.3 -0.61 -90 unlocked) (layer "B.SilkS")
      (effects (font (size 0.7 0.7) (thickness 0.1)) (justify left bottom mirror))
    (tstamp 733b375a-0d5d-4f88-9cc1-3e17f505f33a)
  )
  (fp_text user "scl" (at 1.18 -0.59 -90 unlocked) (layer "B.SilkS")
      (effects (font (size 0.7 0.7) (thickness 0.1)) (justify left bottom mirror))
    (tstamp 7833d995-fdee-4885-ab12-99a35867b261)
  )
  (fp_text user "${REFERENCE}" (at -3.41 2 -90) (layer "B.SilkS")
      (effects (font (size 1 1) (thickness 0.15)) (justify mirror))
    (tstamp 7cb3fcd2-ab04-47a4-a798-018abebb0a8b)
  )
  (fp_text user "vcc" (at 3.6 -0.62 -90 unlocked) (layer "B.SilkS")
      (effects (font (size 0.7 0.7) (thickness 0.1)) (justify left bottom mirror))
    (tstamp 897c392b-812e-4bda-b14a-0f20e0b81c4e)
  )
  (fp_text user "gp6" (at 0.15 -0.59 -90 unlocked) (layer "B.SilkS")
      (effects (font (size 0.7 0.7) (thickness 0.1)) (justify left bottom mirror))
    (tstamp cb816a27-9a26-4b30-8cdf-a52da939858d)
  )
  (fp_text user "sda" (at -0.86 -0.4675 -90 unlocked) (layer "B.SilkS")
      (effects (font (size 0.7 0.7) (thickness 0.1)) (justify left bottom mirror))
    (tstamp f4f5c207-d512-4d79-a65d-58d636fb411f)
  )
  (fp_text user "sda" (at -0.08 -0.58 90 unlocked) (layer "F.SilkS")
      (effects (font (size 0.7 0.7) (thickness 0.1)) (justify left bottom))
    (tstamp 3590f26f-bb70-4a17-b13a-3557fa9fb83b)
  )
  (fp_text user "scl" (at 1.84 -0.56 90 unlocked) (layer "F.SilkS")
      (effects (font (size 0.7 0.7) (thickness 0.1)) (justify left bottom))
    (tstamp 47a03640-e351-4adc-8595-79d86125f18b)
  )
  (fp_text user "vcc" (at 4.33 -0.62 90 unlocked) (layer "F.SilkS")
      (effects (font (size 0.7 0.7) (thickness 0.1)) (justify left bottom))
    (tstamp 72b0ec4c-0d74-4108-996e-5f978d18b3db)
  )
  (fp_text user "gp7" (at 2.75 -0.58 90 unlocked) (layer "F.SilkS")
      (effects (font (size 0.7 0.7) (thickness 0.1)) (justify left bottom))
    (tstamp 946abcf4-7389-4edd-b052-2dba9b2940c2)
  )
  (fp_text user "gnd" (at 6.31 -0.76 90 unlocked) (layer "F.SilkS")
      (effects (font (size 0.7 0.7) (thickness 0.1)) (justify left bottom))
    (tstamp b0475806-c4b3-4173-985d-ba854ee08d4f)
  )
  (fp_text user "gp6" (at 0.79 -0.52 90 unlocked) (layer "F.SilkS")
      (effects (font (size 0.7 0.7) (thickness 0.1)) (justify left bottom))
    (tstamp de156ff3-bd81-4167-a91e-26b41f52435a)
  )
  (fp_text user "${REFERENCE}" (at 3 2.5) (layer "F.Fab")
      (effects (font (size 1 1) (thickness 0.15)))
    (tstamp 1fa6c89a-842a-465b-8bc7-c121383dcdb8)
  )
  (fp_line (start -2.06 -1.46) (end -2.06 6.36)
    (stroke (width 0.12) (type solid)) (layer "F.SilkS") (tstamp 6981df3f-b152-4ea8-9091-7c6cc0f7ace7))
  (fp_line (start -2.06 0.14) (end -1.14 0.14)
    (stroke (width 0.12) (type solid)) (layer "F.SilkS") (tstamp 1e892054-4058-43fa-bd7b-4e50a5fc6588))
  (fp_line (start -2.06 6.36) (end 8.06 6.36)
    (stroke (width 0.12) (type solid)) (layer "F.SilkS") (tstamp ba084266-020d-41b7-b561-7eef7a229db2))
  (fp_line (start -1.3 2.5) (end -1.3 4.1)
    (stroke (width 0.12) (type solid)) (layer "F.SilkS") (tstamp 75936589-7cdd-4bc2-8fe1-0d353f8f25ea))
  (fp_line (start -1.3 4.1) (end -0.3 4.1)
    (stroke (width 0.12) (type solid)) (layer "F.SilkS") (tstamp 1db6fdc6-cd9f-4133-a02c-ed2e1c261c99))
  (fp_line (start -1.14 -1.46) (end -2.06 -1.46)
    (stroke (width 0.12) (type solid)) (layer "F.SilkS") (tstamp fdda52d2-f4a3-4f31-90d6-9ccf395466f3))
  (fp_line (start -1.14 0.14) (end -1.14 -1.46)
    (stroke (width 0.12) (type solid)) (layer "F.SilkS") (tstamp 92028e4b-570e-402c-ae28-18ec118e6178))
  (fp_line (start -0.86 0.14) (end -1.14 0.14)
    (stroke (width 0.12) (type solid)) (layer "F.SilkS") (tstamp 956d09d8-e8fc-497b-a17b-59c69da35a69))
  (fp_line (start -0.86 0.14) (end -0.86 -1.075)
    (stroke (width 0.12) (type solid)) (layer "F.SilkS") (tstamp d3e100d8-0d55-4123-8fe2-979008c7c991))
  (fp_line (start -0.8 4.1) (end -0.8 6.36)
    (stroke (width 0.12) (type solid)) (layer "F.SilkS") (tstamp cc83a0dc-e779-44b2-8cb7-e2d59afdcd87))
  (fp_line (start -0.3 2.5) (end -1.3 2.5)
    (stroke (width 0.12) (type solid)) (layer "F.SilkS") (tstamp 2641cdd9-1596-43bd-9b44-c13c3dcce6cc))
  (fp_line (start -0.3 4.1) (end -0.3 2.5)
    (stroke (width 0.12) (type solid)) (layer "F.SilkS") (tstamp 61453c1a-1952-4e76-bcc9-93a17b7fb463))
  (fp_line (start -0.3 4.1) (end -0.3 6.36)
    (stroke (width 0.12) (type solid)) (layer "F.SilkS") (tstamp 9e5a0e29-77b1-4758-ad37-56c5ca064131))
  (fp_line (start 0.5 2) (end 5.5 2)
    (stroke (width 0.12) (type solid)) (layer "F.SilkS") (tstamp 480ea002-497f-43b8-a3bd-abb635c77afe))
  (fp_line (start 0.5 6.36) (end 0.5 2)
    (stroke (width 0.12) (type solid)) (layer "F.SilkS") (tstamp e0f0d17b-53fd-4888-aa52-fafee6e3def7))
  (fp_line (start 5.5 2) (end 5.5 6.36)
    (stroke (width 0.12) (type solid)) (layer "F.SilkS") (tstamp e5d7b58b-0ea2-4a9a-8aa7-9bfa7d33adc5))
  (fp_line (start 6.3 2.5) (end 7.3 2.5)
    (stroke (width 0.12) (type solid)) (layer "F.SilkS") (tstamp 41593afc-6352-4065-a87e-067f6316ea36))
  (fp_line (start 6.3 4.1) (end 6.3 2.5)
    (stroke (width 0.12) (type solid)) (layer "F.SilkS") (tstamp b2c82abc-225a-448f-8d44-c67388223029))
  (fp_line (start 7.14 -1.46) (end 7.14 0.14)
    (stroke (width 0.12) (type solid)) (layer "F.SilkS") (tstamp 534e20d6-fba8-4e10-bdba-168c7583bbf2))
  (fp_line (start 7.14 0.14) (end 6.86 0.14)
    (stroke (width 0.12) (type solid)) (layer "F.SilkS") (tstamp 5e7dfa4f-b623-486f-8741-abbaadfbf50e))
  (fp_line (start 7.3 2.5) (end 7.3 4.1)
    (stroke (width 0.12) (type solid)) (layer "F.SilkS") (tstamp b2ffb0ce-0ff3-4088-840e-3382b598db01))
  (fp_line (start 7.3 4.1) (end 6.3 4.1)
    (stroke (width 0.12) (type solid)) (layer "F.SilkS") (tstamp 2ecb6dc6-3a5a-4e0e-a41c-d23430de3984))
  (fp_line (start 8.06 -1.46) (end 7.14 -1.46)
    (stroke (width 0.12) (type solid)) (layer "F.SilkS") (tstamp bb54c9d4-2c03-4f9c-b9a6-27dbda9a19c4))
  (fp_line (start 8.06 0.14) (end 7.14 0.14)
    (stroke (width 0.12) (type solid)) (layer "F.SilkS") (tstamp 575b2642-a48a-4d73-8942-8003bfc5611b))
  (fp_line (start 8.06 6.36) (end 8.06 -1.46)
    (stroke (width 0.12) (type solid)) (layer "F.SilkS") (tstamp 922ff540-907b-4db2-a3d4-8e075b9deb80))
  (fp_line (start -2.45 -1.85) (end -2.45 6.75)
    (stroke (width 0.05) (type solid)) (layer "F.CrtYd") (tstamp 2a91fae1-39da-429c-9f9a-0e9bd48e3fae))
  (fp_line (start -2.45 6.75) (end 8.45 6.75)
    (stroke (width 0.05) (type solid)) (layer "F.CrtYd") (tstamp 50a572cd-fd33-4148-8563-ca3cf218978e))
  (fp_line (start 8.45 -1.85) (end -2.45 -1.85)
    (stroke (width 0.05) (type solid)) (layer "F.CrtYd") (tstamp e55822bb-5a9f-4975-8e7f-969e5a170acd))
  (fp_line (start 8.45 6.75) (end 8.45 -1.85)
    (stroke (width 0.05) (type solid)) (layer "F.CrtYd") (tstamp 1c65e038-ee26-4069-a143-5a2c4af240f9))
  (fp_line (start -1.95 -1.35) (end -1.95 6.25)
    (stroke (width 0.1) (type solid)) (layer "F.Fab") (tstamp 1c37c558-b1af-4f3f-8b41-b5d4b099a3b8))
  (fp_line (start -1.95 6.25) (end 7.95 6.25)
    (stroke (width 0.1) (type solid)) (layer "F.Fab") (tstamp 0ba0a878-2d71-4a71-8512-2c04117c7734))
  (fp_line (start -1.25 -1.35) (end -1.95 -1.35)
    (stroke (width 0.1) (type solid)) (layer "F.Fab") (tstamp c5e431d3-9a07-4023-9327-5f0b299e331e))
  (fp_line (start -1.25 0.25) (end -1.25 -1.35)
    (stroke (width 0.1) (type solid)) (layer "F.Fab") (tstamp 3f97a473-f5c5-4bb4-b729-15e4ed831895))
  (fp_line (start -0.5 1.375) (end 0.5 1.375)
    (stroke (width 0.1) (type solid)) (layer "F.Fab") (tstamp 12c8fa91-b039-49df-a403-2a924af768be))
  (fp_line (start 0 0.875) (end -0.5 1.375)
    (stroke (width 0.1) (type solid)) (layer "F.Fab") (tstamp 78a22250-c5e3-499d-846d-0f9f8bc86f70))
  (fp_line (start 0.5 1.375) (end 0 0.875)
    (stroke (width 0.1) (type solid)) (layer "F.Fab") (tstamp 19fe4e2b-d367-4fa2-b720-adc652f68d44))
  (fp_line (start 7.25 -1.35) (end 7.25 0.25)
    (stroke (width 0.1) (type solid)) (layer "F.Fab") (tstamp e4c1f98c-0712-452d-8c2a-9653fa20930e))
  (fp_line (start 7.25 0.25) (end -1.25 0.25)
    (stroke (width 0.1) (type solid)) (layer "F.Fab") (tstamp dff8bcfd-0a3c-462e-8e55-8940c49d0669))
  (fp_line (start 7.95 -1.35) (end 7.25 -1.35)
    (stroke (width 0.1) (type solid)) (layer "F.Fab") (tstamp cce8252f-9226-493c-9761-db0edc1f03b7))
  (fp_line (start 7.95 6.25) (end 7.95 -1.35)
    (stroke (width 0.1) (type solid)) (layer "F.Fab") (tstamp ed563351-1cce-4ace-88ee-aa9ffcd0431e))
  (pad "1" thru_hole circle (at 0 0) (size 1.2 1.2) (drill 0.75) (layers "*.Cu" "*.Mask") (tstamp cf6800ec-04c3-43d5-93e3-6cc04f5d35d9))
  (pad "2" thru_hole circle (at 2 0) (size 1.2 1.2) (drill 0.75) (layers "*.Cu" "*.Mask") (tstamp 9e737db0-541d-4449-a99c-c4c173540550))
  (pad "3" thru_hole circle (at 4 0) (size 1.2 1.2) (drill 0.75) (layers "*.Cu" "*.Mask") (tstamp f5009150-4171-4832-823b-1ebf730a0367))
  (pad "4" thru_hole roundrect (at 6 0) (size 1.2 1.2) (drill 0.75) (layers "*.Cu" "*.Mask") (roundrect_rratio 0.25) (tstamp 57e47704-849e-4736-a823-afcef8294ce2))
  (model "${KICAD6_3DMODEL_DIR}/Connector_JST.3dshapes/JST_PH_S4B-PH-K_1x04_P2.00mm_Horizontal.wrl"
    (offset (xyz 0 0 0))
    (scale (xyz 1 1 1))
    (rotate (xyz 0 0 0))
  )
)
