#VRML V2.0 utf8
#modeled using blender3d http://blender.org

# 'Kailh_PG1353'
Shape {
	appearance Appearance {
		material Material {
		}
	}
	geometry IndexedFaceSet {
		coord Coordinate {
			point [ 0.931260 0.164207 -1.104037 0.737248 0.129997 -1.301043 0.888598 0.323423 -1.104037 0.703473 0.256043 -1.301043 0.481204 0.573477 -1.301043 0.472813 0.818937 -1.104037 0.374310 0.648325 -1.301043 0.129997 0.737248 -1.301043 -0.323423 0.888598 -1.104037 -0.472813 0.818936 -1.104037 -0.607837 0.724392 -1.104037 -0.481204 0.573477 -1.301043 -0.724392 0.607837 -1.104037 -0.573477 0.481204 -1.301043 -0.818937 0.472813 -1.104037 -0.648325 0.374310 -1.301043 -0.703474 0.256043 -1.301043 -0.931260 0.164206 -1.104037 -0.737248 0.129997 -1.301043 0.888598 0.323423 -0.000807 0.818936 0.472813 -1.104037 0.818936 0.472813 -0.000807 0.724392 0.607837 -1.104037 0.724392 0.607837 -0.000807 0.607837 0.724392 -1.104037 0.323423 0.888598 -0.000807 0.323423 0.888598 -1.104037 0.164206 0.931260 -1.104037 -0.000000 0.945626 -1.104037 -0.164207 0.931260 -1.104037 -0.164207 0.931260 -0.000807 -0.323423 0.888598 -0.000807 -0.888598 0.323423 -1.104037 -0.888598 0.323423 -0.000807 -0.931260 0.164206 -0.000806 2.603273 -2.603273 1.181226 2.711457 -2.842208 1.181226 2.556259 -2.643426 1.181226 2.632382 -2.890665 1.181226 2.926157 -2.546700 1.181226 2.503542 -2.675731 1.181226 2.546700 -2.926156 1.181226 2.699392 -2.446421 1.181226 2.947807 -2.456521 1.181226 2.446421 -2.699392 1.181226 2.456522 -2.947806 1.181226 2.713825 -2.386302 1.181226 2.955083 -2.364066 1.181226 2.955083 -2.107959 1.181226 2.935382 -2.073837 1.181226 2.738377 -2.063278 1.181226 2.723955 -2.048857 1.181226 2.718676 -2.029156 1.181226 -2.364066 -2.955083 1.181227 -2.386302 -2.713825 1.181227 -2.546700 -2.926157 1.181227 -2.503542 -2.675732 1.181227 -2.632382 -2.890666 1.181227 -2.556258 -2.643427 1.181227 -2.711457 -2.842208 1.181227 -2.713825 -2.386302 1.181227 -2.955082 -2.364066 1.181227 -2.718676 -2.324665 1.181227 -2.935382 -2.073837 1.181227 -2.955082 -2.107959 1.181227 2.643427 -2.556258 0.866017 2.556259 -2.643426 0.866017 2.632382 -2.890665 0.866017 2.675732 -2.503542 0.866017 2.926157 -2.546700 0.866017 2.503542 -2.675731 0.866017 2.546700 -2.926156 0.866017 2.699392 -2.446421 0.866017 2.947807 -2.456521 0.866017 2.446421 -2.699392 0.866017 2.713825 -2.386302 0.866017 2.955083 -2.107959 0.866017 2.723955 -2.048857 0.866017 2.718676 -2.029156 0.866017 -2.364066 -2.955083 0.866018 -2.393084 -2.712690 0.866018 -2.459424 -2.694915 0.866018 -2.546700 -2.926157 0.866018 -2.521670 -2.665889 0.866018 -2.781977 -2.781978 0.866018 -2.626494 -2.577931 0.866018 -2.665888 -2.521671 0.866018 -2.723954 -2.048857 0.866018 -2.935382 -2.073837 0.866018 -2.553319 -0.788022 -0.000806 -2.718676 2.324665 0.353803 2.718676 -2.324665 0.353803 2.550503 -2.360434 -0.000807 2.395323 -2.542127 -0.000807 2.553319 -2.324665 -0.000807 2.324665 -2.553318 -0.000807 1.083530 -2.523640 -0.000807 0.607837 -0.724392 -0.000807 0.164206 -0.931260 -0.000807 0.931260 -0.164206 -0.000807 0.945626 0.000000 -0.000807 2.553319 0.788022 -0.000807 0.931260 0.164207 -0.000807 2.137509 1.595744 -0.000807 1.802600 1.398739 -0.000807 -0.164206 -0.931260 -0.000807 -1.083530 -2.523640 -0.000806 -0.607837 -0.724392 -0.000807 2.522685 2.438992 -0.000807 2.539529 2.402869 -0.000807 2.549845 2.364370 -0.000807 -2.471641 -2.499824 -0.000806 -1.930654 -1.910953 -0.000806 2.471641 2.499824 -0.000807 -2.522685 -2.438992 -0.000806 -2.499823 -2.471641 -0.000806 -0.724392 -0.607837 -0.000807 0.607837 0.724392 -0.000807 -2.539529 -2.402869 -0.000806 1.802600 1.595744 -0.000807 -2.549845 -2.364370 -0.000806 -2.009456 -1.910953 -0.000806 0.472813 0.818937 -0.000807 -0.888598 -0.323423 -0.000807 -0.945626 -0.000000 -0.000806 0.164206 0.931260 -0.000807 -0.000000 0.945626 -0.000807 -0.226557 2.255713 -0.000807 -0.472813 0.818936 -0.000807 -0.607837 0.724392 -0.000807 -0.818937 0.472813 -0.000807 -0.724392 0.607837 -0.000807 -2.553319 2.324665 -0.000806 -2.364370 2.549845 -0.000806 -2.549845 2.364370 -0.000806 -2.539529 2.402869 -0.000806 -2.402869 2.539529 -0.000806 -2.522685 2.438992 -0.000806 0.000000 -0.945626 -0.000807 -2.362410 -2.415791 2.087452 -2.394409 -2.394410 2.087452 -2.423298 -2.324665 2.087452 -2.324665 -2.423299 2.087452 -2.394410 2.394409 2.087452 -2.415791 2.362410 2.087452 2.362411 -2.415790 2.087452 2.394410 -2.394409 2.087452 -2.324665 2.423298 2.087452 -2.362411 2.415790 2.087452 2.324665 -2.423298 2.087452 -0.973304 1.791576 2.087452 -1.036554 1.899102 2.087452 -1.040803 1.963689 2.087452 -0.926016 1.873873 2.087452 -0.843206 1.837475 2.087452 -0.778506 1.781451 2.087452 -0.736849 1.889603 2.087452 -0.716126 1.938627 2.087452 -0.948697 2.288797 2.087452 -0.175002 1.579577 2.087452 -0.267109 1.773001 2.087452 -0.709220 2.288797 2.087452 -0.175002 1.773001 2.087452 -0.041994 1.888051 2.087452 0.081182 1.769246 2.087452 -0.046053 1.956926 2.087452 -0.396058 2.288797 2.087452 0.446716 1.579577 2.087452 0.121178 1.975203 2.087452 0.046053 1.957213 2.087452 0.109928 1.843742 2.087452 0.335193 1.819097 2.087452 -0.054211 2.240339 2.087452 0.250866 1.856371 2.087452 -0.073685 2.288797 2.087452 0.363722 1.854549 2.087452 0.319466 2.016779 2.087452 0.368607 2.051309 2.087452 0.392343 2.086577 2.087452 0.232569 2.298008 2.087452 0.751100 1.864099 2.087452 0.357196 2.258631 2.087452 0.564152 2.288797 2.087452 2.324665 2.423299 2.087452 2.423298 2.324665 2.087452 2.362410 2.415791 2.087452 0.939486 1.918932 2.087452 2.915681 2.068558 1.181226 2.718676 2.324665 1.181226 2.718676 2.029157 1.181226 2.723954 2.048857 1.181226 2.738376 2.063279 1.181226 2.675731 2.503542 1.181226 2.890665 2.632382 1.181226 2.643426 2.556259 1.181226 2.603273 2.603273 1.181226 2.781977 2.781978 1.181226 2.556258 2.643427 1.181226 2.632382 2.890666 1.181226 2.503542 2.675732 1.181226 2.546700 2.926157 1.181226 2.446421 2.699392 1.181226 2.386302 2.713825 1.181226 2.364066 2.955083 1.181226 -2.718676 2.324665 1.181227 -2.723955 2.048857 1.181227 -2.718676 2.029156 1.181227 -2.386302 2.713825 1.181227 -2.955083 2.364066 1.181227 -2.456522 2.947806 1.181227 -2.446421 2.699392 1.181227 -2.699392 2.446421 1.181227 -2.546700 2.926156 1.181227 -2.503542 2.675731 1.181227 -2.926157 2.546700 1.181227 -2.675732 2.503542 1.181227 -2.632382 2.890665 1.181227 -2.890666 2.632382 1.181227 -2.603273 2.603273 1.181227 -2.781978 2.781977 1.181227 2.955083 -2.364066 0.866017 2.890666 -2.632382 0.866017 2.890666 -2.632382 1.181226 2.842208 -2.711457 1.181226 2.781978 -2.781977 1.181226 2.955082 2.364066 1.181226 2.456521 2.947807 1.181226 2.711457 2.842208 1.181226 2.842208 2.711457 1.181226 2.926156 2.546700 0.866017 2.926156 2.546700 1.181226 2.947806 2.456522 0.866017 2.947806 2.456522 1.181226 2.955082 2.364066 0.866017 -2.364066 2.955082 1.181227 -2.947807 2.456521 1.181227 -2.842208 2.711457 1.181227 -2.711457 2.842208 1.181227 -2.955083 2.107959 1.181227 -2.456521 -2.947807 1.181227 -2.632382 -2.890666 0.866018 -2.781977 -2.781978 1.181227 -2.842208 -2.711457 1.181227 -2.890665 -2.632382 1.181227 -2.926156 -2.546700 1.181227 -2.947806 -2.456522 1.181227 2.364066 -2.955082 1.181226 2.758077 2.068558 0.866017 2.694914 2.459424 0.866017 2.842208 2.711457 0.866017 2.626494 2.577931 0.866017 2.711457 2.842208 0.866017 2.459424 2.694915 0.866017 2.364066 2.955083 0.866017 -2.723955 2.048857 0.866018 -2.955083 2.107959 0.866018 -2.949804 2.088258 0.866018 -2.393084 2.712690 0.866018 -2.712690 2.393084 0.866018 -2.890666 2.632382 0.866018 -2.711457 2.842208 0.866018 -2.626495 2.577930 0.866018 -2.781978 2.781977 0.866018 2.713825 -2.386302 1.457034 2.675732 -2.503542 1.181226 2.643427 -2.556258 1.181226 2.643427 -2.556258 1.457034 2.603273 -2.603273 1.457034 2.556259 -2.643426 1.457034 2.446421 -2.699392 1.457034 2.386302 -2.713825 1.181226 2.324665 -2.718676 1.181226 2.718676 -2.324665 1.181226 2.324665 2.718676 1.181226 2.446421 2.699392 1.457034 2.503542 2.675732 1.457034 2.556258 2.643427 1.457034 2.603273 2.603273 1.457034 2.643426 2.556259 1.457034 2.699392 2.446421 1.181226 2.699392 2.446421 1.457034 2.713825 2.386302 1.181226 -2.324665 2.718676 1.181227 -2.713825 2.386302 1.181227 -2.718676 2.324665 1.457034 -2.713825 2.386302 1.457034 -2.675732 2.503542 1.457034 -2.643427 2.556258 1.181227 -2.556259 2.643426 1.181227 -2.556259 2.643426 1.457034 -2.503542 2.675731 1.457034 -2.386302 2.713825 1.457034 -2.386302 -2.713825 1.457034 -2.446421 -2.699392 1.181227 -2.446421 -2.699392 1.457034 -2.503542 -2.675732 1.457034 -2.603273 -2.603273 1.181227 -2.603273 -2.603273 1.457034 -2.643426 -2.556259 1.181227 -2.643426 -2.556259 1.457034 -2.675731 -2.503542 1.181227 -2.699392 -2.446421 1.181227 -2.699392 -2.446421 1.457034 -2.324665 -2.718676 1.457034 -2.324665 -2.718676 1.181227 2.324665 -2.502698 2.050426 2.324665 -2.718676 1.457034 2.535067 -2.393028 1.931749 2.502699 -2.324665 2.050426 2.499278 -2.359397 2.050426 2.503644 -2.454700 1.931749 2.454700 -2.503643 1.931749 2.718676 -2.324665 1.457034 2.393029 -2.535066 1.931749 2.658310 -2.433072 1.575713 2.675732 -2.503542 1.457034 2.699392 -2.446421 1.457034 2.608481 -2.530869 1.575713 2.530869 -2.608481 1.575713 2.503542 -2.675731 1.457034 2.433073 -2.658310 1.575713 2.386302 -2.713825 1.457034 2.718676 2.324665 1.457034 2.393028 2.535067 1.931749 2.359397 2.499278 2.050426 2.392795 2.489147 2.050426 2.454700 2.503644 1.931749 2.450553 2.450554 2.050426 2.503643 2.454700 1.931749 2.472694 2.423575 2.050426 2.535066 2.393029 1.931749 2.433072 2.658310 1.575713 2.386302 2.713825 1.457034 2.530869 2.608481 1.575713 2.608481 2.530869 1.575713 2.675731 2.503542 1.457034 2.658310 2.433073 1.575713 2.713825 2.386302 1.457034 -2.324665 2.502698 2.050426 2.324665 2.718676 1.457034 -2.535067 2.393028 1.931749 -2.503644 2.454700 1.931749 -2.454700 2.503643 1.931749 -2.423575 2.472694 2.050426 -2.392796 2.489146 2.050426 -2.393029 2.535066 1.931749 -2.658310 2.433072 1.575713 -2.699392 2.446421 1.457034 -2.608481 2.530869 1.575713 -2.603273 2.603273 1.457034 -2.643427 2.556258 1.457034 -2.324665 2.718676 1.457034 -2.530869 2.608481 1.575713 -2.433073 2.658310 1.575713 -2.446421 2.699392 1.457034 -2.393028 -2.535067 1.931749 -2.359397 -2.499278 2.050426 -2.392795 -2.489147 2.050426 -2.454700 -2.503644 1.931749 -2.450553 -2.450554 2.050426 -2.503643 -2.454700 1.931749 -2.489146 -2.392796 2.050426 -2.535066 -2.393029 1.931749 -2.433072 -2.658310 1.575713 -2.530869 -2.608481 1.575713 -2.556258 -2.643427 1.457034 -2.718676 -2.324665 1.457034 -2.608481 -2.530869 1.575713 -2.675731 -2.503542 1.457034 -2.658310 -2.433073 1.575713 -2.713825 -2.386302 1.457034 2.367412 2.456228 2.068939 2.405975 2.436580 2.068939 2.423575 2.472695 2.050426 2.394409 2.394410 2.087452 2.436579 2.405976 2.068939 2.489146 2.392796 2.050426 2.415790 2.362411 2.087452 2.456228 2.367413 2.068939 2.499277 2.359398 2.050426 2.324665 2.502699 2.050426 2.502698 2.324665 2.050426 -2.456228 2.367412 2.068939 -2.499278 2.359397 2.050426 -2.489147 2.392795 2.050426 -2.423299 2.324665 2.087452 -2.436580 2.405975 2.068939 -2.472695 2.423575 2.050426 -2.450554 2.450553 2.050426 -2.405976 2.436579 2.068939 -2.367413 2.456228 2.068939 -2.359398 2.499277 2.050426 2.456228 -2.367412 2.068939 2.423299 -2.324665 2.087452 2.415791 -2.362410 2.087452 2.489147 -2.392795 2.050426 2.436580 -2.405975 2.068939 2.472695 -2.423575 2.050426 2.450554 -2.450553 2.050426 2.405976 -2.436579 2.068939 2.423575 -2.472694 2.050426 2.392796 -2.489146 2.050426 2.367413 -2.456228 2.068939 2.359398 -2.499277 2.050426 -2.502699 2.324665 2.050426 -2.367412 -2.456228 2.068939 -2.324665 -2.502699 2.050426 -2.405975 -2.436580 2.068939 -2.423575 -2.472695 2.050426 -2.436579 -2.405976 2.068939 -2.472694 -2.423575 2.050426 -2.415790 -2.362411 2.087452 -2.456228 -2.367413 2.068939 -2.502698 -2.324665 2.050426 -2.499277 -2.359398 2.050426 0.439808 2.288797 2.087452 0.439808 2.288797 2.048050 0.564152 2.288797 2.048050 0.819316 1.927711 2.087452 0.939486 2.040109 2.087452 1.031592 2.288797 2.087452 0.939486 2.288797 2.087452 1.031592 1.579577 2.087452 1.031592 2.288797 2.048050 0.939486 1.579577 2.087452 0.576385 1.579577 2.087452 0.446716 1.579577 2.048050 0.751100 1.864099 2.048050 0.576385 1.579577 2.048050 0.819316 1.927711 2.048050 0.939486 1.918932 2.048050 0.939486 1.579577 2.048050 1.031592 1.579577 2.048050 0.939486 2.040109 2.048050 0.939486 2.288797 2.048050 -0.488164 2.288797 2.087452 -0.488164 2.288797 2.048050 -0.396058 2.288797 2.048050 -0.396058 1.579577 2.087452 -0.488164 1.579577 2.087452 -0.396058 1.579577 2.048050 -0.488164 1.579577 2.048050 -0.267109 2.288797 2.087452 -0.267109 1.773001 2.048050 -0.267109 2.288797 2.048050 -0.175002 2.288797 2.048050 -0.175002 2.288797 2.087452 -0.175002 1.773001 2.048050 -0.267109 1.579577 2.087452 -0.267109 1.579577 2.048050 -0.267109 1.680894 2.087452 -0.267109 1.680894 2.048050 -0.175002 1.680894 2.087452 -0.175002 1.680894 2.048050 -0.175002 1.579577 2.048050 -0.047792 2.183532 2.087452 -0.047792 2.183532 2.048050 0.018421 2.288797 2.087452 -0.073685 2.288797 2.048050 0.046053 2.222307 2.087452 0.018421 2.288797 2.048050 0.088079 2.254125 2.087452 0.046053 2.222307 2.048050 0.088079 2.254125 2.048050 0.132321 2.277700 2.087452 0.182260 2.293040 2.087452 0.182260 2.293040 2.048050 0.302866 2.288229 2.087452 0.232569 2.298008 2.048050 0.393844 2.209289 2.087452 0.393844 2.209289 2.048050 0.405268 2.148766 2.087452 0.405268 2.148766 2.048050 0.392343 2.086577 2.048050 0.262156 1.997824 2.087452 0.262156 1.997824 2.048050 0.202634 1.987436 2.087452 0.202634 1.987436 2.048050 0.121178 1.975203 2.048050 0.046053 1.957213 2.048050 0.049690 1.899018 2.087452 0.071307 1.863493 2.087452 0.071307 1.863493 2.048050 0.213107 1.842033 2.087452 0.166223 1.837475 2.087452 0.280186 1.888354 2.067751 0.294741 1.929581 2.048050 0.294741 1.929581 2.087452 0.386847 1.918644 2.087452 0.386847 1.918644 2.048050 0.363722 1.854549 2.048050 0.280687 1.784898 2.087452 0.218321 1.768284 2.087452 0.218321 1.768284 2.048050 0.153847 1.763790 2.087452 0.153847 1.763790 2.048050 0.081182 1.769246 2.048050 0.034430 1.782292 2.087452 0.034430 1.782292 2.048050 -0.019509 1.823659 2.087452 0.250866 1.856371 2.048050 0.335193 1.819097 2.048050 0.280687 1.784898 2.048050 0.213107 1.842033 2.048050 0.166223 1.837475 2.048050 0.109928 1.843742 2.048050 0.281822 2.087236 2.048050 0.319466 2.016779 2.048050 0.368607 2.051309 2.048050 -0.019509 1.823659 2.048050 0.049690 1.899018 2.048050 0.279421 2.207245 2.048050 0.357196 2.258631 2.048050 -0.041994 1.888051 2.048050 0.302866 2.288229 2.048050 -0.046053 1.956926 2.048050 0.209542 2.224322 2.048050 0.046053 2.061265 2.048050 0.132321 2.277700 2.048050 0.084873 2.178077 2.048050 -0.054211 2.240339 2.048050 0.142763 2.213047 2.048050 0.142763 2.213047 2.087452 0.053825 2.123791 2.048050 0.046053 2.061265 2.087452 0.279421 2.207245 2.087452 0.304339 2.181047 2.067751 0.313162 2.146032 2.087452 0.313162 2.146032 2.048050 0.147408 2.055415 2.048050 0.216159 2.065899 2.087452 0.216159 2.065899 2.048050 0.281822 2.087236 2.087452 0.305361 2.112428 2.067751 0.046053 2.030899 2.087452 0.046053 2.030899 2.048050 -1.040803 2.288797 2.087452 -1.040803 2.288797 2.048050 -0.948697 2.288797 2.048050 -0.948697 1.963689 2.087452 -0.942891 1.911493 2.087452 -0.942891 1.911493 2.048050 -0.926016 1.873873 2.048050 -0.891897 1.846500 2.087452 -0.784122 1.851190 2.087452 -0.843206 1.837475 2.048050 -0.784122 1.851190 2.048050 -0.709220 2.007297 2.087452 -0.617113 2.288797 2.087452 -0.617113 2.288797 2.048050 -0.709220 1.579577 2.087452 -0.617113 1.579577 2.087452 -0.709220 1.834021 2.087452 -0.741881 1.803483 2.087452 -0.819408 1.768202 2.087452 -0.863642 1.763790 2.087452 -0.931295 1.773714 2.087452 -0.931295 1.773714 2.048050 -0.973304 1.791576 2.048050 -1.017977 1.837354 2.087452 -1.036554 1.899102 2.048050 -1.040803 1.963689 2.048050 -0.741881 1.803483 2.048050 -0.709220 1.834021 2.048050 -0.778506 1.781451 2.048050 -0.736849 1.889603 2.048050 -0.716126 1.938627 2.048050 -0.819408 1.768202 2.048050 -0.863642 1.763790 2.048050 -0.709220 2.007297 2.048050 -0.617113 1.579577 2.048050 -0.891897 1.846500 2.048050 -1.017977 1.837354 2.048050 -0.948697 1.963689 2.048050 -0.709220 2.288797 2.048050 -0.709220 1.579577 2.048050 0.147408 2.055415 2.087452 0.053825 2.123791 2.087452 0.084873 2.178077 2.087452 0.209542 2.224322 2.087452 -2.712690 -2.393084 0.866018 -2.718676 -2.324665 0.866018 -2.694914 -2.459424 0.866018 -2.665888 -2.521671 0.353803 -2.577930 -2.626495 0.866018 -2.577930 -2.626495 0.353803 -2.521670 -2.665889 0.353803 -2.459424 -2.694915 0.353803 -2.324665 2.718676 0.866018 -2.324665 2.718676 0.353803 -2.393084 2.712690 0.353803 -2.459424 2.694914 0.866018 -2.521671 2.665888 0.866018 -2.577931 2.626494 0.866018 -2.577931 2.626494 0.353803 -2.626495 2.577930 0.353803 -2.665889 2.521670 0.866018 -2.665889 2.521670 0.353803 -2.694915 2.459424 0.866018 -2.694915 2.459424 0.353803 -2.712690 2.393084 0.353803 -2.718676 2.324665 0.866018 2.324665 2.718676 0.866017 2.712690 2.393084 0.866017 2.718676 2.324665 0.866017 2.718676 2.324665 0.353803 2.694914 2.459424 0.353803 2.665888 2.521671 0.866017 2.626494 2.577931 0.353803 2.577930 2.626495 0.866017 2.521670 2.665889 0.866017 2.393084 2.712690 0.866017 2.393084 2.712690 0.353803 2.324665 2.718676 0.353803 2.386302 -2.713825 0.866017 2.324665 -2.718676 0.866017 2.386302 -2.713825 0.353803 2.503542 -2.675731 0.353803 2.603273 -2.603273 0.866017 2.675732 -2.503542 0.353803 2.699392 -2.446421 0.353803 2.713825 -2.386302 0.353803 2.718676 -2.324665 0.866017 -2.324665 -2.718676 0.866018 2.324665 -2.718676 0.353803 -2.594549 -2.412356 0.117397 -2.553318 -2.324665 -0.000806 -2.554241 -2.491462 0.117397 -2.646970 -2.429389 0.235600 -2.694914 -2.459424 0.353803 -2.712690 -2.393084 0.353803 -2.718676 -2.324665 0.353803 -2.491462 -2.554242 0.117397 -2.438992 -2.522685 -0.000806 -2.598834 -2.523861 0.235600 -2.626494 -2.577931 0.353803 -2.412355 -2.594549 0.117397 -2.364370 -2.549845 -0.000806 -2.324665 -2.553319 -0.000806 -2.402869 -2.539529 -0.000806 -2.523860 -2.598835 0.235600 -2.429388 -2.646970 0.235600 -2.393084 -2.712690 0.353803 -2.412356 2.594549 0.117397 -2.438992 2.522685 -0.000806 -2.324665 2.553318 -0.000806 -2.491462 2.554241 0.117397 -2.471641 2.499823 -0.000806 -2.429389 2.646970 0.235600 -2.521671 2.665888 0.353803 -2.459424 2.694914 0.353803 -2.554242 2.491462 0.117397 -2.499824 2.471641 -0.000806 -2.523861 2.598834 0.235600 -2.594549 2.412355 0.117397 -2.598835 2.523860 0.235600 -2.646970 2.429388 0.235600 2.324665 2.553319 -0.000807 2.594549 2.412356 0.117397 2.553318 2.324665 -0.000807 2.554241 2.491462 0.117397 2.499823 2.471641 -0.000807 2.646970 2.429389 0.235600 2.665888 2.521671 0.353803 2.712690 2.393084 0.353803 2.491462 2.554242 0.117397 2.438992 2.522685 -0.000807 2.598834 2.523861 0.235600 2.412355 2.594549 0.117397 2.364370 2.549845 -0.000807 2.402869 2.539529 -0.000807 2.523860 2.598835 0.235600 2.521670 2.665889 0.353803 2.577930 2.626495 0.353803 2.429388 2.646970 0.235600 2.459424 2.694915 0.353803 2.412356 -2.594549 0.117397 2.428472 -2.528397 -0.000807 2.360435 -2.550503 -0.000807 2.491462 -2.554241 0.117397 2.459065 -2.509649 -0.000807 2.486347 -2.486347 -0.000807 2.429389 -2.646970 0.235600 2.446421 -2.699392 0.353803 2.554242 -2.491462 0.117397 2.509650 -2.459064 -0.000807 2.528397 -2.428471 -0.000807 2.523861 -2.598834 0.235600 2.603273 -2.603273 0.353803 2.556259 -2.643426 0.353803 2.594549 -2.412355 0.117397 2.542128 -2.395322 -0.000807 2.598835 -2.523860 0.235600 2.643427 -2.556258 0.353803 2.646970 -2.429388 0.235600 -2.324665 -2.718676 0.353803 -1.083530 -1.361308 1.575237 1.083530 -1.361308 -0.000807 1.083530 -1.361308 1.575237 -1.083530 -1.361308 -0.000806 -1.083530 -2.523640 1.575237 1.083531 -2.523640 1.575237 -0.945626 -0.000000 -1.104037 -0.931260 -0.164207 -1.104037 -0.931260 -0.164207 -0.000806 -0.818936 -0.472813 -0.000807 -0.607837 -0.724392 -1.104037 -0.472813 -0.818937 -0.000807 -0.323423 -0.888598 -0.000807 -0.164206 -0.931260 -1.104037 0.164206 -0.931260 -1.104037 0.323423 -0.888598 -0.000807 0.472813 -0.818936 -0.000807 0.472813 -0.818936 -1.104037 0.724392 -0.607837 -1.104037 0.724392 -0.607837 -0.000807 0.818937 -0.472813 -0.000807 0.818936 -0.472813 -1.104037 0.888598 -0.323423 -0.000807 0.931260 -0.164206 -1.104037 0.703473 -0.256043 -1.301043 0.573477 -0.481204 -1.301043 0.481204 -0.573477 -1.301043 0.374310 -0.648325 -1.301043 -0.256043 -0.703474 -1.301043 0.648325 0.374310 -1.301043 0.573477 0.481204 -1.301043 0.256043 0.703474 -1.301043 0.748621 0.000000 -1.301043 -0.737248 -0.129997 -1.301043 -0.748621 -0.000000 -1.301043 -0.256043 0.703474 -1.301043 -0.129997 0.737248 -1.301043 -0.000000 0.748621 -1.301043 0.256043 -0.703474 -1.301043 -0.374311 0.648325 -1.301043 -0.888598 -0.323423 -1.104037 -0.703474 -0.256043 -1.301043 -0.818936 -0.472813 -1.104037 -0.648325 -0.374310 -1.301043 -0.724392 -0.607837 -1.104037 -0.573477 -0.481204 -1.301043 -0.481204 -0.573477 -1.301043 -0.472813 -0.818937 -1.104037 -0.374310 -0.648325 -1.301043 -0.323423 -0.888598 -1.104037 -0.129997 -0.737248 -1.301043 0.000000 -0.945626 -1.104037 -0.000000 -0.748621 -1.301043 0.129997 -0.737248 -1.301043 0.323423 -0.888598 -1.104037 0.607837 -0.724392 -1.104037 0.648325 -0.374310 -1.301043 0.888598 -0.323423 -1.104037 0.737248 -0.129997 -1.301043 0.945626 0.000000 -1.104037 0.063316 2.393617 -1.159794 -0.063317 2.393617 -1.159794 -0.085306 2.393617 -1.133588 0.226556 2.393617 -0.888936 -0.226557 2.393617 -0.000807 0.226556 2.255713 -0.000807 0.226556 2.393617 -0.000807 0.226556 2.255713 -0.888936 -0.063317 2.255713 -1.159794 -0.033690 2.255713 -1.176899 -0.226557 2.255713 -0.888936 -0.226557 2.393617 -0.888936 2.137509 1.595744 -1.056186 2.137510 1.398739 -0.000807 2.039707 1.398739 -1.153989 1.970055 1.398739 -1.182840 1.932359 1.398739 -1.175341 1.802600 1.398739 -1.056186 1.802600 1.595744 -1.056186 -2.009456 -1.910953 -1.044935 -1.930654 -1.991515 -1.170352 -1.930654 -2.125484 -1.119467 -1.930654 -1.916535 -1.083773 -1.930654 -1.910953 -1.044935 -1.930654 -2.147360 -1.044935 -1.930654 -2.147360 -0.000806 -2.009456 -2.147360 -1.044935 -2.009456 -2.066799 -1.170352 -2.009456 -1.916535 -1.083773 -2.009456 -2.141778 -1.083773 -2.009456 -2.147360 -0.000806 2.007751 1.398739 -1.175341 2.007750 1.595744 -1.175341 1.970055 1.595744 -1.182840 1.932359 1.595744 -1.175341 1.900403 1.398739 -1.153989 1.900403 1.595744 -1.153989 2.039707 1.595744 -1.153989 2.137510 1.398739 -1.056186 0.085305 2.393617 -1.133588 -0.085306 2.255713 -1.133588 0.085305 2.255713 -1.133588 0.063316 2.255713 -1.159794 0.033690 2.393617 -1.176899 0.033690 2.255713 -1.176899 -0.000000 2.393617 -1.182839 -0.000000 2.255713 -1.182839 -0.033690 2.393617 -1.176899 -1.930654 -2.141778 -1.083773 -2.009456 -2.125484 -1.119467 -1.930654 -2.099798 -1.149127 -2.009456 -2.099798 -1.149127 -1.930654 -2.066799 -1.170352 -1.930654 -2.029157 -1.181425 -2.009456 -1.932829 -1.119467 -1.930654 -1.932829 -1.119467 -2.009456 -1.958515 -1.149127 -1.930654 -1.958515 -1.149127 -2.009456 -1.991515 -1.170352 -2.009456 -2.029157 -1.181425 2.852015 0.788022 0.215899 2.553319 -0.788022 -0.000807 2.654370 0.788022 0.215899 2.852015 -0.788022 0.215899 2.654370 -0.788022 0.215899 -2.553319 0.788022 -0.000806 -2.852015 -0.788022 0.215900 -2.654370 0.788022 0.215900 -2.852015 0.788022 0.215900 -2.654370 -0.788022 0.215900 2.915682 -2.068558 1.181226 2.758077 -2.068558 1.181226 2.758077 2.068558 1.181226 -2.915681 -2.068558 1.181227 -2.758077 -2.068558 0.866018 -2.915682 2.068558 0.866018 2.738376 2.063279 0.866017 -2.738377 2.063278 1.181227 -2.738377 2.063278 0.866018 -2.758077 2.068558 1.181227 -2.738376 -2.063279 1.181227 -2.758077 -2.068558 1.181227 -2.723954 -2.048857 1.181227 -2.718676 -2.029157 1.181227 -2.718676 -2.029157 0.866018 -2.949803 -2.088259 1.181227 -2.935382 2.073837 0.866018 -2.915682 2.068558 1.181227 -2.935382 2.073837 1.181227 -2.949804 2.088258 1.181227 2.955082 2.107959 1.181226 2.949803 2.088259 1.181226 2.935382 2.073837 1.181226 2.949804 -2.088258 1.181226 0.256107 0.256107 2.118289 0.233411 0.233411 3.387688 0.256107 0.788022 2.118289 0.233411 0.765326 3.387688 -0.256107 0.788022 2.118289 -0.788022 0.256107 2.118289 -0.233411 0.233411 3.387688 -0.256107 -0.256107 2.118289 -0.233411 -0.233411 3.387688 -0.765326 -0.233411 3.387688 0.256107 -0.788022 2.118289 -0.256107 -0.788022 2.118289 0.233412 -0.765326 3.387688 0.256107 -0.256107 2.118289 0.765326 -0.233411 3.387688 0.233411 -0.233411 3.387688 0.788022 0.256107 2.118289 0.765326 0.233411 3.387688 0.788022 -0.256107 2.118289 -0.233411 -0.765326 3.387688 -0.765326 0.233411 3.387688 -0.233411 0.765326 3.387688 -0.256107 0.256107 2.118289 -0.788022 -0.256107 2.118289 1.203472 -0.391032 2.954276 1.181983 -0.430206 3.387688 1.257840 0.000000 3.387688 1.023734 -0.743786 2.954276 1.210667 -0.393369 2.520864 1.108977 -0.640268 1.849173 1.261082 -0.222363 1.849173 0.743787 -1.023734 2.954276 0.808524 -0.963561 3.387688 0.628920 -1.089321 3.387688 1.029855 -0.748233 2.520864 0.391032 -1.203472 2.954276 0.218422 -1.238730 3.387688 0.748233 -1.029855 2.520864 0.823113 -0.980947 1.849173 0.000000 -1.265405 2.954276 0.000000 -1.257840 3.387688 -0.218421 -1.238730 3.387688 0.393370 -1.210667 2.520864 -0.391032 -1.203472 2.954276 0.000000 -1.272970 2.520864 -0.743786 -1.023734 2.954276 -0.808524 -0.963561 3.387688 -0.963561 -0.808524 3.387688 -0.393369 -1.210667 2.520864 -0.640268 -1.108977 1.849173 -1.023734 -0.743786 2.954276 -0.748233 -1.029855 2.520864 -0.823112 -0.980948 1.849173 -1.203472 -0.391032 2.954276 -1.238730 -0.218422 3.387688 -1.257840 -0.000000 3.387688 -1.029855 -0.748233 2.520864 -1.108976 -0.640268 1.849173 -1.210667 -0.393370 2.520864 -1.261081 -0.222363 1.849173 -1.203310 -0.437969 1.849173 -1.035895 -0.336583 2.412510 -1.106226 -0.000000 3.387688 -0.881185 -0.640218 2.412510 -0.830032 -0.696480 2.118289 -0.696480 -0.830032 2.118289 -1.046687 -0.340089 3.062629 -1.089420 -0.192094 3.387688 -0.958019 -0.553113 3.387688 -0.640218 -0.881185 2.412510 -0.890365 -0.646888 3.062629 -0.847418 -0.711069 3.387688 -0.711068 -0.847418 3.387688 -0.336583 -1.035895 2.412510 -0.188153 -1.067069 2.118289 -0.646888 -0.890365 3.062629 0.000000 -1.089204 2.412510 -0.340089 -1.046687 3.062629 -0.192094 -1.089420 3.387688 0.336583 -1.035895 2.412510 0.370589 -1.018185 2.118289 0.000000 -1.100552 3.062629 0.000000 -1.106226 3.387688 0.192094 -1.089420 3.387688 0.640218 -0.881185 2.412510 0.340090 -1.046687 3.062629 0.378352 -1.039513 3.387688 0.881185 -0.640218 2.412510 0.938365 -0.541765 2.118289 0.646889 -0.890365 3.062629 0.847419 -0.711068 3.387688 1.035895 -0.336583 2.412510 1.067069 -0.188153 2.118289 0.890365 -0.646888 3.062629 1.106226 0.000000 3.387688 1.046687 -0.340089 3.062629 1.039513 -0.378351 3.387688 1.035895 0.336583 2.412510 1.018186 0.370589 2.118289 0.938365 0.541765 2.118289 0.881185 0.640218 2.412510 0.830032 0.696480 2.118289 1.046687 0.340089 3.062629 0.958020 0.553113 3.387688 0.640218 0.881185 2.412510 0.541765 0.938365 2.118289 0.890365 0.646888 3.062629 0.847418 0.711069 3.387688 0.336583 1.035895 2.412510 0.646888 0.890365 3.062629 0.711069 0.847418 3.387688 0.553113 0.958020 3.387688 0.000000 1.089204 2.412510 0.000000 1.083530 2.118289 -0.188153 1.067069 2.118289 0.340089 1.046687 3.062629 0.378351 1.039513 3.387688 0.192094 1.089420 3.387688 -0.336583 1.035895 2.412510 0.000000 1.100552 3.062629 -0.192094 1.089420 3.387688 -0.640218 0.881185 2.412510 -0.696480 0.830032 2.118289 -0.830032 0.696480 2.118289 -0.340089 1.046687 3.062629 -0.553113 0.958019 3.387688 -0.881185 0.640218 2.412510 -0.646888 0.890365 3.062629 -0.711068 0.847418 3.387688 -1.035895 0.336583 2.412510 -0.890365 0.646888 3.062629 -0.847418 0.711068 3.387688 -1.046687 0.340089 3.062629 -1.039512 0.378351 3.387688 -1.089420 0.192094 3.387688 -1.203472 0.391032 2.954276 -1.089321 0.628920 3.387688 -1.023734 0.743786 2.954276 -1.210667 0.393369 2.520864 -1.280536 -0.000000 1.849173 -1.108976 0.640268 1.849173 -1.261081 0.222363 1.849173 -0.743786 1.023734 2.954276 -0.808524 0.963561 3.387688 -1.029855 0.748233 2.520864 -0.391032 1.203472 2.954276 -0.430206 1.181983 3.387688 -0.218422 1.238730 3.387688 -0.748233 1.029855 2.520864 -0.640268 1.108977 1.849173 -0.823113 0.980947 1.849173 0.000000 1.265405 2.954276 -0.393370 1.210667 2.520864 -0.222363 1.261081 1.849173 0.391032 1.203472 2.954276 0.628920 1.089321 3.387688 0.000000 1.272970 2.520864 0.222363 1.261081 1.849173 -0.000000 1.280536 1.849173 0.743786 1.023734 2.954276 0.393370 1.210667 2.520864 0.640268 1.108977 1.849173 0.437969 1.203310 1.849173 1.023734 0.743786 2.954276 0.748233 1.029855 2.520864 0.980947 0.823113 1.849173 0.823113 0.980948 1.849173 1.203472 0.391032 2.954276 1.238730 0.218422 3.387688 1.029855 0.748233 2.520864 1.108977 0.640268 1.849173 1.210667 0.393370 2.520864 1.280536 0.000000 1.849173 1.261082 0.222363 1.849173 1.203310 0.437969 1.849173 -0.553113 -0.958020 3.387688 -0.628920 -1.089321 3.387688 -1.089321 -0.628920 3.387688 -0.378351 -1.039513 3.387688 -0.430206 -1.181983 3.387688 -1.039512 -0.378352 3.387688 -1.181983 -0.430207 3.387688 -1.238730 0.218421 3.387688 -1.181983 0.430206 3.387688 0.430207 -1.181983 3.387688 0.553113 -0.958019 3.387688 -0.958019 0.553113 3.387688 0.711069 -0.847418 3.387688 -0.963561 0.808524 3.387688 0.963562 -0.808524 3.387688 1.089321 -0.628920 3.387688 0.958020 -0.553113 3.387688 -0.628920 1.089321 3.387688 -0.378351 1.039513 3.387688 1.089420 -0.192094 3.387688 1.238730 -0.218421 3.387688 0.000000 1.257840 3.387688 0.000000 1.106226 3.387688 1.089420 0.192094 3.387688 0.218422 1.238730 3.387688 0.430206 1.181983 3.387688 1.181983 0.430207 3.387688 1.039513 0.378352 3.387688 1.089321 0.628920 3.387688 0.963561 0.808524 3.387688 0.808524 0.963561 3.387688 -0.980947 -0.823113 1.849173 -0.541765 -0.938365 2.118289 -0.938365 -0.541765 2.118289 -0.370589 -1.018185 2.118289 -0.437969 -1.203310 1.849173 -1.018185 -0.370589 2.118289 -0.222363 -1.261081 1.849173 0.000000 -1.280536 1.849173 -1.067069 -0.188153 2.118289 0.000000 -1.083530 2.118289 -1.083530 -0.000000 2.118289 0.188153 -1.067069 2.118289 0.222363 -1.261081 1.849173 -1.067069 0.188153 2.118289 0.437969 -1.203310 1.849173 -1.018185 0.370589 2.118289 -1.203310 0.437969 1.849173 0.541765 -0.938365 2.118289 0.640268 -1.108977 1.849173 -0.938365 0.541765 2.118289 0.696480 -0.830032 2.118289 -0.980947 0.823112 1.849173 0.830032 -0.696480 2.118289 0.980948 -0.823112 1.849173 -0.541765 0.938365 2.118289 1.018186 -0.370589 2.118289 1.203310 -0.437969 1.849173 -0.437969 1.203310 1.849173 -0.370589 1.018185 2.118289 1.083530 0.000000 2.118289 1.067069 0.188153 2.118289 0.188153 1.067069 2.118289 0.370589 1.018185 2.118289 0.696480 0.830032 2.118289 2.711457 -2.842208 1.181226 2.632382 -2.890665 1.181226 2.926157 -2.546700 1.181226 2.546700 -2.926156 1.181226 2.947807 -2.456521 1.181226 2.456522 -2.947806 1.181226 2.955083 -2.364066 1.181226 2.955083 -2.107959 1.181226 2.935382 -2.073837 1.181226 2.738377 -2.063278 1.181226 2.723955 -2.048857 1.181226 2.718676 -2.029156 1.181226 -2.364066 -2.955083 1.181227 -2.546700 -2.926157 1.181227 -2.632382 -2.890666 1.181227 -2.711457 -2.842208 1.181227 -2.955082 -2.364066 1.181227 -2.935382 -2.073837 1.181227 -2.955082 -2.107959 1.181227 -2.955082 -2.364066 0.866018 -2.955082 -2.107959 0.866018 2.781978 -2.781977 0.866017 2.711457 -2.842208 0.866017 2.842208 -2.711457 0.866017 2.456522 -2.947806 0.866017 2.935382 -2.073837 0.866017 2.738377 -2.063278 0.866017 -2.456521 -2.947807 0.866018 -2.711457 -2.842208 0.866018 -2.842208 -2.711457 0.866018 -2.915681 -2.068558 0.866018 2.915681 2.068558 1.181226 2.718676 2.029157 1.181226 2.723954 2.048857 1.181226 2.738376 2.063279 1.181226 2.890665 2.632382 1.181226 2.781977 2.781978 1.181226 2.632382 2.890666 1.181226 2.546700 2.926157 1.181226 2.364066 2.955083 1.181226 -2.723955 2.048857 1.181227 -2.718676 2.029156 1.181227 -2.955083 2.364066 1.181227 -2.456522 2.947806 1.181227 -2.546700 2.926156 1.181227 -2.926157 2.546700 1.181227 -2.632382 2.890665 1.181227 -2.890666 2.632382 1.181227 -2.781978 2.781977 1.181227 2.890666 -2.632382 1.181226 2.842208 -2.711457 1.181226 2.781978 -2.781977 1.181226 2.364066 -2.955082 0.866017 2.955082 2.364066 1.181226 2.456521 2.947807 0.866017 2.456521 2.947807 1.181226 2.546700 2.926157 0.866017 2.711457 2.842208 1.181226 2.781977 2.781978 0.866017 2.842208 2.711457 1.181226 2.926156 2.546700 1.181226 2.947806 2.456522 1.181226 -2.364066 2.955082 0.866018 -2.364066 2.955082 1.181227 -2.947807 2.456521 0.866018 -2.955083 2.364066 0.866018 -2.947807 2.456521 1.181227 -2.842208 2.711457 0.866018 -2.842208 2.711457 1.181227 -2.711457 2.842208 1.181227 -2.632382 2.890665 0.866018 -2.546700 2.926156 0.866018 -2.955083 2.107959 1.181227 -2.456521 -2.947807 1.181227 -2.781977 -2.781978 1.181227 -2.842208 -2.711457 1.181227 -2.890665 -2.632382 0.866018 -2.890665 -2.632382 1.181227 -2.926156 -2.546700 0.866018 -2.926156 -2.546700 1.181227 -2.947806 -2.456522 1.181227 -2.947806 -2.456522 0.866018 2.364066 -2.955082 1.181226 2.915681 2.068558 0.866017 2.955082 2.107959 0.866017 2.723954 2.048857 0.866017 2.890665 2.632382 0.866017 2.632382 2.890666 0.866017 -2.718676 2.029156 0.866018 -2.456522 2.947806 0.866018 -2.926157 2.546700 0.866018 2.718676 2.029157 0.866017 2.915682 -2.068558 1.181226 2.758077 -2.068558 1.181226 2.915682 -2.068558 0.866017 2.758077 2.068558 1.181226 -2.915681 -2.068558 1.181227 -2.758077 2.068558 0.866018 2.758077 -2.068558 0.866017 -2.738377 2.063278 1.181227 -2.758077 2.068558 1.181227 -2.738376 -2.063279 1.181227 -2.758077 -2.068558 1.181227 -2.738376 -2.063279 0.866018 -2.723954 -2.048857 1.181227 -2.718676 -2.029157 1.181227 -2.949803 -2.088259 0.866018 -2.949803 -2.088259 1.181227 -2.915682 2.068558 1.181227 -2.935382 2.073837 1.181227 -2.949804 2.088258 1.181227 2.949803 2.088259 0.866017 2.955082 2.107959 1.181226 2.949803 2.088259 1.181226 2.935382 2.073837 0.866017 2.935382 2.073837 1.181226 2.949804 -2.088258 0.866017 2.949804 -2.088258 1.181226 ]
		}
		colorPerVertex FALSE
		color Color {
			color [ 0.85 0.88 1.00 0.94 0.94 0.00 1.00 1.00 1.00 0.00 0.00 0.00 0.32 0.12 0.05 ]
		}
		colorIndex [ 0 0 0 0 0 0 0 0 0 0 0 0 0 0 0 0 0 0 0 0 0 0 0 0 0 0 0 0 0 0 0 0 0 0 0 0 0 0 0 0 0 0 0 0 0 0 0 0 0 0 0 0 0 0 0 0 0 0 0 0 0 0 0 0 0 0 0 0 0 0 0 0 0 0 0 0 0 0 0 0 0 0 0 0 0 0 0 0 0 0 0 0 0 0 0 0 0 0 0 0 0 0 0 0 0 0 0 0 0 0 0 0 0 0 0 0 0 0 0 0 0 0 0 0 0 0 0 0 0 0 0 0 0 0 0 0 0 0 0 0 0 0 0 0 0 0 0 0 0 0 0 0 0 0 0 0 0 0 0 0 0 0 0 0 0 0 0 0 0 0 0 0 0 0 0 0 0 0 0 0 0 0 0 0 0 0 0 0 0 0 0 0 0 0 0 0 0 0 0 0 0 0 0 0 0 0 0 0 0 0 0 0 0 0 0 0 0 0 0 0 0 0 0 0 0 0 0 0 0 0 0 0 0 0 0 0 0 0 0 0 0 0 0 0 0 0 0 0 0 0 0 0 0 0 0 0 0 0 0 0 0 0 0 0 0 0 0 0 0 0 0 0 0 0 0 0 0 0 0 0 0 0 0 0 0 0 0 0 0 0 0 0 0 0 0 0 0 0 0 0 0 0 0 0 0 0 0 0 0 0 0 0 0 0 0 0 0 0 0 0 0 0 0 0 0 0 0 0 0 0 0 0 0 0 0 0 0 0 0 0 0 0 0 0 0 0 0 0 0 0 0 0 0 0 0 0 0 0 0 0 0 0 0 0 0 0 0 0 0 0 0 0 0 0 0 0 0 0 0 0 0 0 0 0 0 0 0 0 0 0 0 0 0 0 0 0 0 0 0 0 0 0 0 0 0 0 0 0 0 0 0 0 0 0 0 0 0 0 0 0 0 0 0 0 0 0 0 0 0 0 0 0 0 0 0 0 0 0 0 0 0 0 0 0 0 0 0 0 0 0 0 0 0 0 0 0 0 0 0 0 0 0 0 0 0 0 0 0 0 0 0 0 0 0 0 0 0 0 0 0 0 0 0 0 0 0 0 0 0 0 0 0 0 0 0 0 0 0 0 0 0 0 0 0 0 0 0 0 0 0 0 0 0 0 0 0 0 0 0 0 0 0 0 0 0 0 0 0 0 0 0 0 0 0 0 0 0 0 0 0 0 0 0 0 0 0 0 0 0 0 0 0 0 0 0 0 0 0 0 0 0 0 0 0 0 0 0 0 0 0 0 0 0 0 0 0 0 0 0 0 0 0 0 0 0 0 0 0 0 0 0 0 0 0 0 0 0 0 0 0 0 0 0 0 0 0 0 0 0 0 0 0 0 0 0 0 0 0 0 0 0 0 0 0 0 0 0 0 0 0 0 0 0 0 0 0 0 0 0 0 0 0 0 0 0 0 0 0 0 0 0 0 0 0 0 0 0 0 0 0 0 0 0 0 0 0 0 0 0 0 0 0 0 0 0 0 0 0 0 0 0 0 0 0 0 0 0 0 0 0 0 0 0 0 0 0 0 0 0 0 0 0 0 0 0 0 0 0 0 0 0 0 0 0 0 0 0 0 0 0 0 0 0 0 0 0 0 0 0 0 0 0 0 0 0 0 0 0 0 0 0 0 0 0 0 0 0 0 0 0 0 0 0 0 0 0 0 0 0 0 0 0 0 0 0 0 0 0 0 0 0 0 0 0 0 0 0 0 0 0 0 0 0 0 0 0 0 0 0 0 0 0 0 0 0 0 0 0 0 0 0 0 0 0 0 0 0 0 0 0 0 0 0 0 0 0 0 0 0 0 0 0 0 0 0 0 0 0 0 0 0 0 0 0 0 0 0 0 0 0 0 0 0 0 0 0 0 0 0 0 0 0 0 0 0 0 1 1 1 1 1 1 1 1 1 1 1 1 1 1 1 1 1 1 1 1 1 1 1 1 1 1 1 1 1 1 1 1 1 1 1 1 1 1 2 2 2 2 2 2 2 2 2 2 2 2 2 2 2 2 2 2 2 2 2 2 2 2 2 2 2 2 2 2 2 2 2 2 2 2 2 2 2 2 2 2 2 2 2 2 2 2 2 2 2 2 2 2 2 2 2 2 2 2 2 2 2 2 2 2 2 2 2 2 2 2 2 2 2 2 3 3 3 3 3 3 3 3 3 3 3 3 3 3 3 3 3 3 3 3 3 3 3 3 3 3 3 3 3 3 3 3 3 3 3 3 3 3 3 3 3 3 3 3 3 3 3 3 3 3 3 3 3 3 3 3 3 3 3 3 3 3 3 3 3 3 3 3 3 3 3 3 3 3 3 3 3 3 3 3 3 3 3 3 3 3 3 3 3 3 3 3 3 3 3 3 3 3 3 3 3 3 3 3 3 3 3 3 3 3 3 3 3 3 3 3 3 3 3 3 3 3 3 3 3 3 3 3 3 3 3 3 3 3 3 3 3 3 3 3 3 3 3 3 3 3 3 3 3 3 3 3 3 3 3 3 3 3 3 3 3 3 3 3 3 3 3 3 3 3 3 3 3 3 3 3 3 3 3 3 3 3 3 3 3 3 3 3 3 3 3 3 3 3 3 3 3 3 3 3 3 3 3 3 3 3 3 3 3 3 3 3 3 3 3 3 3 3 3 3 3 3 3 3 3 3 3 3 3 3 3 3 3 3 3 3 3 3 3 3 3 3 3 3 3 3 3 3 3 3 3 3 3 3 3 3 3 3 3 3 3 3 3 3 3 3 3 3 3 3 3 3 3 3 3 3 3 3 3 3 3 3 3 3 3 3 3 3 3 3 3 3 3 3 3 3 3 3 3 3 3 3 3 3 3 3 3 3 3 3 3 3 3 3 3 3 3 3 3 3 3 3 3 3 3 3 3 3 3 3 3 3 3 3 3 3 3 3 3 3 3 3 3 3 3 3 3 3 3 3 3 3 3 3 3 3 3 3 3 3 3 3 3 3 3 3 3 3 3 3 3 3 3 3 3 3 3 3 3 3 3 3 3 3 3 3 3 3 3 3 3 3 3 3 3 3 3 3 3 3 3 3 3 3 3 3 3 3 3 3 3 3 3 3 3 3 3 3 3 3 3 3 3 3 3 3 3 3 3 3 3 3 3 3 3 3 3 3 3 3 3 3 3 3 3 3 3 3 3 3 3 3 3 3 3 3 3 3 3 3 3 3 3 3 3 3 3 3 3 3 3 3 3 3 3 3 3 3 3 3 3 3 3 3 3 3 3 3 3 3 3 3 3 3 3 3 3 3 3 3 3 3 3 3 3 3 3 3 3 3 3 3 3 3 3 3 3 3 3 3 3 3 3 3 3 3 3 3 3 3 3 3 3 3 3 3 3 3 3 3 3 3 3 3 3 3 3 3 3 3 3 3 3 3 3 3 3 3 3 3 3 3 3 3 3 3 3 3 3 3 3 3 3 3 3 3 3 3 3 3 3 3 3 3 3 3 3 3 3 3 3 3 3 3 3 3 3 3 3 3 3 3 3 3 3 3 3 3 3 3 3 3 3 3 3 3 3 3 3 3 3 3 3 3 3 3 3 3 3 3 3 3 3 3 3 3 3 3 3 3 3 3 3 3 3 3 3 3 3 3 3 3 3 3 3 3 3 3 3 3 3 3 3 3 3 3 3 3 3 3 3 3 3 3 3 3 3 3 3 3 3 3 3 3 3 3 3 3 3 3 3 3 3 3 3 3 3 3 3 3 3 3 3 3 3 3 3 3 3 3 3 3 3 3 3 3 3 3 3 3 3 3 3 3 3 3 3 3 3 3 3 3 3 3 3 3 3 3 3 3 3 3 3 3 3 3 3 3 3 3 3 3 3 3 3 3 3 3 3 3 3 3 3 3 3 3 3 3 3 3 3 3 3 3 3 3 3 3 3 3 3 3 3 3 3 3 3 3 3 3 3 3 3 3 3 3 3 3 3 3 3 3 3 3 3 3 3 3 3 3 4 4 4 4 4 4 4 4 4 4 4 4 4 4 4 4 4 4 4 4 4 4 4 4 4 4 4 4 4 4 4 4 4 4 4 4 4 4 4 4 4 4 4 4 4 4 4 4 4 4 4 4 4 4 4 4 4 4 4 4 4 4 4 4 4 4 4 4 4 4 4 4 4 4 4 4 4 4 4 4 4 4 4 4 4 4 4 4 4 4 4 4 4 4 4 4 4 4 4 4 4 4 4 4 4 4 4 4 4 4 4 4 4 4 4 4 4 4 4 4 4 4 4 4 4 4 4 4 4 4 4 4 4 4 4 4 4 4 4 4 4 4 4 4 4 4 4 4 4 4 4 4 4 4 4 4 4 4 4 4 4 4 4 4 4 4 4 4 4 4 4 4 4 4 4 4 4 4 4 4 4 4 4 4 4 4 4 4 4 4 4 4 4 4 4 4 4 4 4 4 4 4 4 4 4 4 4 4 4 4 4 4 4 4 4 4 4 4 4 4 4 4 4 4 4 4 4 4 4 4 4 4 4 4 4 4 4 4 4 4 4 4 4 4 4 4 4 4 4 4 4 4 4 4 4 4 4 4 4 4 4 4 4 4 4 4 4 4 4 4 4 4 4 4 4 4 4 4 4 4 4 4 4 4 4 4 4 4 4 4 4 4 4 4 4 4 4 4 4 4 4 4 4 4 4 4 4 4 4 4 4 4 4 4 4 4 4 4 4 4 4 4 4 4 4 4 4 4 4 4 4 4 4 4 4 4 4 4 4 4 4 4 4 4 4 4 4 4 4 4 4 4 4 4 4 4 4 4 4 4 4 4 4 4 4 4 4 4 4 4 4 4 4 4 4 4 4 4 4 4 4 4 4 4 4 4 4 4 4 4 4 4 4 4 4 4 4 4 4 4 4 4 4 4 4 4 4 4 4 4 4 4 4 4 4 4 4 4 4 4 4 4 4 4 4 4 4 4 4 4 4 4 4 4 4 4 4 4 4 4 4 4 4 4 4 4 4 4 4 4 4 4 4 4 4 4 4 4 4 4 4 4 4 4 4 4 4 4 4 4 4 4 4 4 4 4 ]
		coordIndex [ 455 172 446 -1 578 523 577 -1 352 341 342 -1 430 429 427 -1 406 363 303 -1 152 536 147 -1 376 375 378 -1 380 331 339 -1 201 199 200 -1 413 369 362 -1 293 56 55 -1 457 461 464 -1 263 272 312 -1 42 315 264 -1 264 266 265 -1 265 267 35 -1 285 204 284 -1 46 316 42 -1 332 273 339 -1 320 305 306 -1 273 351 339 -1 35 268 37 -1 37 319 40 -1 40 269 44 -1 44 321 270 -1 270 306 271 -1 202 274 201 -1 201 275 199 -1 199 276 197 -1 197 277 195 -1 308 314 312 -1 292 304 303 -1 322 312 52 -1 195 278 194 -1 194 335 192 -1 192 280 279 -1 279 337 281 -1 281 322 188 -1 283 347 211 -1 211 286 215 -1 215 350 287 -1 287 349 218 -1 305 303 306 -1 304 306 303 -1 218 289 288 -1 288 290 213 -1 213 354 210 -1 210 291 207 -1 207 351 282 -1 54 294 293 -1 293 295 56 -1 58 297 296 -1 380 147 183 -1 366 284 206 -1 184 308 381 -1 296 299 298 -1 298 368 300 -1 300 302 301 -1 301 370 60 -1 60 366 62 -1 530 506 532 -1 417 415 416 -1 312 381 308 -1 307 308 309 -1 307 309 395 -1 345 342 344 -1 310 397 398 -1 328 327 329 -1 362 360 361 -1 313 401 403 -1 313 403 305 -1 275 331 333 -1 314 316 263 -1 314 263 312 -1 333 328 334 -1 277 333 334 -1 317 266 315 -1 532 527 525 -1 318 319 268 -1 318 268 267 -1 320 306 321 -1 320 321 269 -1 335 336 280 -1 339 338 380 -1 323 380 324 -1 323 324 325 -1 326 373 327 -1 342 388 343 -1 358 364 363 -1 330 376 379 -1 330 379 381 -1 286 346 348 -1 331 274 332 -1 331 332 339 -1 349 348 352 -1 333 276 275 -1 334 335 278 -1 334 278 277 -1 317 311 318 -1 336 322 337 -1 336 337 280 -1 290 353 354 -1 284 413 404 -1 340 404 383 -1 340 383 384 -1 313 320 311 -1 341 387 388 -1 360 359 410 -1 310 317 314 -1 345 344 391 -1 345 391 338 -1 295 363 364 -1 346 347 285 -1 346 285 284 -1 364 360 367 -1 297 364 367 -1 348 350 286 -1 352 290 289 -1 352 289 349 -1 353 351 291 -1 353 291 354 -1 368 369 302 -1 416 180 427 -1 355 406 356 -1 355 356 357 -1 358 408 359 -1 326 333 331 -1 362 361 414 -1 362 414 413 -1 267 317 318 -1 363 294 292 -1 363 292 303 -1 364 365 295 -1 367 368 299 -1 367 299 297 -1 369 366 370 -1 369 370 302 -1 315 314 317 -1 371 324 380 -1 371 325 324 -1 371 380 183 -1 371 183 185 -1 344 389 390 -1 372 327 373 -1 386 144 143 -1 439 435 551 -1 325 372 373 -1 389 148 390 -1 375 372 374 -1 378 184 381 -1 378 379 376 -1 378 381 379 -1 378 377 184 -1 149 406 305 -1 404 141 385 -1 382 383 404 -1 382 384 383 -1 382 404 385 -1 382 385 144 -1 401 399 402 -1 386 388 387 -1 396 394 146 -1 398 399 400 -1 384 386 387 -1 399 145 402 -1 389 386 143 -1 390 147 338 -1 390 391 344 -1 390 338 391 -1 390 148 147 -1 392 308 393 -1 392 393 394 -1 392 309 308 -1 392 395 309 -1 388 389 343 -1 357 407 408 -1 396 398 397 -1 409 411 412 -1 359 409 410 -1 361 409 412 -1 399 396 146 -1 402 145 149 -1 402 149 305 -1 402 403 401 -1 402 305 403 -1 525 516 579 -1 514 179 468 -1 405 356 406 -1 405 357 356 -1 405 406 142 -1 405 142 139 -1 407 359 408 -1 372 185 374 -1 327 375 329 -1 395 396 397 -1 407 139 140 -1 409 407 140 -1 412 141 413 -1 412 414 361 -1 412 413 414 -1 412 411 141 -1 434 419 433 -1 423 421 434 -1 432 420 423 -1 431 422 432 -1 430 424 431 -1 428 186 430 -1 426 425 428 -1 427 167 426 -1 437 435 436 -1 436 439 441 -1 440 166 437 -1 441 438 440 -1 441 437 436 -1 444 160 443 -1 445 442 444 -1 447 446 445 -1 443 162 447 -1 443 445 444 -1 451 448 449 -1 453 450 451 -1 454 452 453 -1 449 159 454 -1 449 453 451 -1 462 457 460 -1 460 174 458 -1 461 518 464 -1 464 466 465 -1 463 459 462 -1 473 471 472 -1 478 476 477 -1 176 475 474 -1 467 512 181 -1 503 484 504 -1 481 505 170 -1 178 508 177 -1 177 507 176 -1 479 168 478 -1 170 504 484 -1 480 482 481 -1 153 571 543 -1 510 169 479 -1 171 502 491 -1 492 495 494 -1 489 487 486 -1 483 500 173 -1 490 488 489 -1 175 501 171 -1 491 493 492 -1 485 487 173 -1 485 500 486 -1 485 486 487 -1 485 173 500 -1 496 494 495 -1 499 513 163 -1 163 515 165 -1 164 498 497 -1 497 509 499 -1 529 534 535 -1 522 519 578 -1 157 569 547 -1 577 517 524 -1 479 478 535 -1 520 456 462 -1 375 377 378 -1 537 152 561 -1 543 545 154 -1 540 542 153 -1 526 525 527 -1 526 527 528 -1 526 528 511 -1 526 511 525 -1 544 565 156 -1 535 524 517 -1 546 154 545 -1 533 527 532 -1 533 506 528 -1 533 528 527 -1 533 532 506 -1 538 536 537 -1 573 158 538 -1 541 539 573 -1 574 547 569 -1 549 161 574 -1 553 564 155 -1 465 468 179 -1 156 566 157 -1 557 555 568 -1 155 567 554 -1 554 568 555 -1 559 560 151 -1 570 548 549 -1 575 551 570 -1 563 550 575 -1 562 552 563 -1 172 458 174 -1 151 561 152 -1 556 558 150 -1 150 572 559 -1 341 348 346 -1 563 565 546 -1 181 470 469 -1 455 520 172 -1 469 472 471 -1 456 165 515 -1 330 336 328 -1 576 531 530 -1 579 521 522 -1 338 353 345 -1 336 381 322 -1 404 346 284 -1 474 477 476 -1 429 182 417 -1 433 418 429 -1 56 365 58 -1 319 320 269 -1 311 398 400 -1 162 165 446 -1 165 455 446 -1 578 519 523 -1 352 348 341 -1 426 428 427 -1 428 430 427 -1 430 431 432 -1 432 423 430 -1 423 434 433 -1 423 433 430 -1 429 417 427 -1 417 416 427 -1 430 433 429 -1 406 355 363 -1 158 539 547 -1 539 540 544 -1 540 153 543 -1 543 154 540 -1 154 544 540 -1 544 156 539 -1 156 157 539 -1 157 547 539 -1 547 161 158 -1 161 147 158 -1 147 148 385 -1 158 147 536 -1 148 143 144 -1 144 385 148 -1 385 141 150 -1 559 385 150 -1 559 151 385 -1 385 151 147 -1 151 152 147 -1 376 329 375 -1 380 323 331 -1 237 219 218 -1 219 236 218 -1 218 236 287 -1 236 217 287 -1 217 214 215 -1 215 214 211 -1 214 235 211 -1 235 208 283 -1 283 208 204 -1 208 238 204 -1 238 845 843 -1 835 238 843 -1 845 844 843 -1 238 835 204 -1 212 216 213 -1 216 237 288 -1 212 213 210 -1 234 209 207 -1 209 212 210 -1 234 207 282 -1 226 203 202 -1 203 234 273 -1 198 200 199 -1 200 226 201 -1 201 226 202 -1 196 227 195 -1 227 198 197 -1 195 227 197 -1 193 228 194 -1 228 196 195 -1 193 194 192 -1 232 230 279 -1 230 193 192 -1 279 230 192 -1 846 225 188 -1 225 232 281 -1 281 232 279 -1 848 847 846 -1 828 187 846 -1 187 848 846 -1 203 273 202 -1 217 215 287 -1 207 209 210 -1 273 234 282 -1 194 228 195 -1 235 283 211 -1 835 833 204 -1 205 206 204 -1 833 205 204 -1 188 189 190 -1 188 190 191 -1 188 191 828 -1 281 188 225 -1 188 828 846 -1 237 218 288 -1 288 213 216 -1 199 197 198 -1 413 366 369 -1 63 841 64 -1 64 61 62 -1 61 245 60 -1 60 245 301 -1 245 244 301 -1 244 243 300 -1 301 244 300 -1 243 242 298 -1 242 241 296 -1 243 298 300 -1 241 59 296 -1 59 57 58 -1 296 59 58 -1 57 55 56 -1 55 239 293 -1 293 239 54 -1 239 53 54 -1 53 246 271 -1 246 45 270 -1 45 41 44 -1 246 270 271 -1 41 38 40 -1 38 36 37 -1 41 40 44 -1 36 224 35 -1 224 223 35 -1 35 223 265 -1 223 222 265 -1 222 39 264 -1 264 39 42 -1 39 43 42 -1 43 47 46 -1 46 47 272 -1 47 48 272 -1 48 849 826 -1 827 48 826 -1 849 49 826 -1 48 827 272 -1 54 53 304 -1 829 63 64 -1 837 829 64 -1 298 242 296 -1 53 271 304 -1 270 45 44 -1 222 264 265 -1 62 839 838 -1 62 838 836 -1 62 836 837 -1 60 62 61 -1 62 837 64 -1 43 46 42 -1 827 50 272 -1 51 52 272 -1 50 51 272 -1 56 58 57 -1 36 35 37 -1 37 40 38 -1 171 491 167 -1 167 180 175 -1 180 415 471 -1 488 180 178 -1 182 418 419 -1 182 419 421 -1 421 420 183 -1 183 147 179 -1 147 435 166 -1 166 438 160 -1 438 450 160 -1 147 166 442 -1 182 421 183 -1 415 182 179 -1 182 183 179 -1 452 159 497 -1 159 494 164 -1 159 164 497 -1 175 171 167 -1 488 175 180 -1 178 180 471 -1 483 173 476 -1 173 487 476 -1 450 452 162 -1 452 497 499 -1 162 452 499 -1 484 483 476 -1 481 170 168 -1 170 484 168 -1 169 480 168 -1 480 481 168 -1 476 168 484 -1 474 476 487 -1 163 165 162 -1 499 163 162 -1 474 487 176 -1 487 488 176 -1 177 176 488 -1 178 177 488 -1 450 162 160 -1 469 471 415 -1 181 469 415 -1 166 160 442 -1 467 181 415 -1 179 467 415 -1 147 442 179 -1 179 442 446 -1 446 172 174 -1 446 174 179 -1 174 457 179 -1 179 457 465 -1 457 459 461 -1 464 465 457 -1 263 46 272 -1 42 316 315 -1 264 315 266 -1 265 266 267 -1 285 283 204 -1 46 263 316 -1 332 202 273 -1 320 313 305 -1 273 282 351 -1 35 267 268 -1 37 268 319 -1 40 319 269 -1 44 269 321 -1 270 321 306 -1 202 332 274 -1 201 274 275 -1 199 275 276 -1 197 276 277 -1 308 307 314 -1 292 54 304 -1 272 52 312 -1 52 189 322 -1 189 188 322 -1 195 277 278 -1 194 278 335 -1 192 335 280 -1 279 280 337 -1 281 337 322 -1 283 285 347 -1 211 347 286 -1 215 286 350 -1 287 350 349 -1 305 406 303 -1 304 271 306 -1 218 349 289 -1 288 289 290 -1 213 290 354 -1 210 354 291 -1 207 291 351 -1 54 292 294 -1 293 294 295 -1 58 365 297 -1 380 338 147 -1 204 206 284 -1 206 839 366 -1 839 62 366 -1 184 393 308 -1 296 297 299 -1 298 299 368 -1 300 368 302 -1 301 302 370 -1 60 370 366 -1 530 531 506 -1 417 182 415 -1 312 322 381 -1 345 353 352 -1 352 342 345 -1 342 343 344 -1 328 326 327 -1 362 369 367 -1 367 360 362 -1 360 410 361 -1 275 274 331 -1 333 326 328 -1 277 276 333 -1 579 522 530 -1 522 578 576 -1 578 577 576 -1 577 524 576 -1 524 534 576 -1 576 530 522 -1 530 532 579 -1 579 532 525 -1 335 334 336 -1 339 351 338 -1 342 341 388 -1 363 355 358 -1 355 357 358 -1 357 408 358 -1 286 347 346 -1 349 350 348 -1 317 310 311 -1 290 352 353 -1 284 366 413 -1 320 318 311 -1 311 400 401 -1 401 313 311 -1 360 358 359 -1 314 307 310 -1 307 395 310 -1 395 397 310 -1 295 294 363 -1 364 358 360 -1 297 365 364 -1 368 367 369 -1 416 415 180 -1 331 323 326 -1 323 325 326 -1 325 373 326 -1 267 266 317 -1 315 316 314 -1 344 343 389 -1 386 382 144 -1 556 150 550 -1 150 141 550 -1 141 411 142 -1 411 140 142 -1 140 139 142 -1 142 149 159 -1 149 145 394 -1 145 146 394 -1 394 393 149 -1 393 184 422 -1 184 377 374 -1 374 185 183 -1 183 420 422 -1 424 186 425 -1 374 183 184 -1 183 422 184 -1 424 425 393 -1 425 167 149 -1 422 424 393 -1 393 425 149 -1 159 149 167 -1 555 556 550 -1 554 555 550 -1 141 142 550 -1 167 491 492 -1 492 494 167 -1 494 159 167 -1 448 450 438 -1 448 438 142 -1 438 439 142 -1 142 439 551 -1 159 448 142 -1 155 554 550 -1 550 552 553 -1 553 155 550 -1 147 161 548 -1 435 147 548 -1 435 548 551 -1 551 550 142 -1 325 371 372 -1 389 143 148 -1 149 142 406 -1 404 413 141 -1 401 400 399 -1 396 392 394 -1 398 396 399 -1 384 382 386 -1 399 146 145 -1 388 386 389 -1 357 405 407 -1 409 140 411 -1 359 407 409 -1 361 410 409 -1 525 511 516 -1 514 467 179 -1 372 371 185 -1 327 372 375 -1 395 392 396 -1 407 405 139 -1 434 421 419 -1 423 420 421 -1 432 422 420 -1 431 424 422 -1 430 186 424 -1 428 425 186 -1 426 167 425 -1 427 180 167 -1 437 166 435 -1 436 435 439 -1 440 438 166 -1 441 439 438 -1 441 440 437 -1 444 442 160 -1 445 446 442 -1 447 162 446 -1 443 160 162 -1 443 447 445 -1 451 450 448 -1 453 452 450 -1 454 159 452 -1 449 448 159 -1 449 454 453 -1 462 459 457 -1 460 457 174 -1 461 463 518 -1 464 518 466 -1 463 461 459 -1 473 178 471 -1 478 168 476 -1 176 507 475 -1 467 514 512 -1 503 483 484 -1 481 482 505 -1 178 473 508 -1 177 508 507 -1 479 169 168 -1 170 505 504 -1 480 510 482 -1 153 542 571 -1 510 480 169 -1 171 501 502 -1 492 493 495 -1 489 488 487 -1 483 503 500 -1 490 175 488 -1 175 490 501 -1 491 502 493 -1 496 164 494 -1 499 509 513 -1 163 513 515 -1 164 496 498 -1 497 498 509 -1 529 576 534 -1 522 521 519 -1 157 566 569 -1 577 523 517 -1 489 486 490 -1 486 500 490 -1 502 501 500 -1 501 490 500 -1 495 493 504 -1 493 502 503 -1 498 496 482 -1 496 495 505 -1 513 509 510 -1 509 498 482 -1 510 509 482 -1 456 515 517 -1 515 513 510 -1 535 515 479 -1 517 523 456 -1 531 529 477 -1 529 535 478 -1 535 517 515 -1 496 505 482 -1 493 503 504 -1 502 500 503 -1 479 515 510 -1 495 504 505 -1 463 521 518 -1 521 516 466 -1 466 518 521 -1 514 468 511 -1 468 466 516 -1 511 468 516 -1 470 512 511 -1 512 514 511 -1 473 472 528 -1 472 470 528 -1 507 508 506 -1 508 473 528 -1 506 508 528 -1 477 475 531 -1 475 507 506 -1 478 477 529 -1 475 506 531 -1 470 511 528 -1 519 521 463 -1 462 460 520 -1 460 458 520 -1 519 463 462 -1 456 523 462 -1 523 519 462 -1 375 374 377 -1 537 536 152 -1 543 571 545 -1 540 541 542 -1 544 546 565 -1 535 534 524 -1 546 544 154 -1 538 158 536 -1 573 539 158 -1 541 540 539 -1 574 161 547 -1 549 548 161 -1 553 562 564 -1 465 466 468 -1 156 565 566 -1 557 556 555 -1 155 564 567 -1 554 567 568 -1 559 572 560 -1 570 551 548 -1 575 550 551 -1 563 552 550 -1 562 553 552 -1 172 520 458 -1 151 560 561 -1 556 557 558 -1 150 558 572 -1 346 340 341 -1 340 384 341 -1 384 387 341 -1 549 574 569 -1 549 569 570 -1 569 566 563 -1 575 570 563 -1 563 570 569 -1 564 562 546 -1 562 563 546 -1 567 564 545 -1 557 568 571 -1 568 567 545 -1 572 558 542 -1 558 557 571 -1 542 558 571 -1 561 560 573 -1 560 572 541 -1 538 537 561 -1 573 538 561 -1 560 541 573 -1 541 572 542 -1 568 545 571 -1 564 546 545 -1 563 566 565 -1 181 512 470 -1 455 456 520 -1 469 470 472 -1 456 455 165 -1 336 334 328 -1 328 329 376 -1 376 330 328 -1 576 529 531 -1 579 516 521 -1 338 351 353 -1 336 330 381 -1 404 340 346 -1 474 475 477 -1 429 418 182 -1 433 419 418 -1 56 295 365 -1 319 318 320 -1 311 310 398 -1 767 127 760 -1 757 796 758 -1 803 758 795 -1 798 795 797 -1 802 798 796 -1 763 762 761 -1 795 763 797 -1 756 800 799 -1 799 802 801 -1 801 765 803 -1 803 764 757 -1 767 796 766 -1 767 766 127 -1 757 764 796 -1 762 759 760 -1 759 795 767 -1 760 759 767 -1 795 756 799 -1 799 801 803 -1 803 757 758 -1 758 767 795 -1 795 799 803 -1 798 756 795 -1 764 765 796 -1 765 802 796 -1 802 800 798 -1 798 797 796 -1 797 763 796 -1 763 761 127 -1 127 766 763 -1 766 796 763 -1 763 759 762 -1 795 759 763 -1 756 798 800 -1 799 800 802 -1 801 802 765 -1 803 765 764 -1 767 758 796 -1 804 777 811 -1 779 121 112 -1 789 790 793 -1 794 103 769 -1 791 771 770 -1 782 781 786 -1 785 782 784 -1 789 772 790 -1 791 774 792 -1 774 104 119 -1 790 791 792 -1 794 793 768 -1 793 787 788 -1 788 771 789 -1 785 780 782 -1 777 807 806 -1 806 783 808 -1 810 813 812 -1 804 805 777 -1 808 815 809 -1 812 776 814 -1 784 811 810 -1 814 809 815 -1 778 775 779 -1 777 806 811 -1 806 808 813 -1 811 806 813 -1 808 809 776 -1 776 813 808 -1 811 778 804 -1 778 779 804 -1 779 112 781 -1 781 780 779 -1 780 804 779 -1 779 775 121 -1 790 792 793 -1 792 774 793 -1 774 119 103 -1 103 768 774 -1 768 793 774 -1 793 788 789 -1 794 768 103 -1 104 773 769 -1 773 791 794 -1 769 773 794 -1 791 772 771 -1 771 787 770 -1 770 794 791 -1 782 780 781 -1 121 775 786 -1 775 784 782 -1 786 775 782 -1 784 810 785 -1 810 812 805 -1 785 810 805 -1 812 814 783 -1 814 815 783 -1 783 807 812 -1 807 805 812 -1 789 771 772 -1 791 773 774 -1 774 773 104 -1 790 772 791 -1 794 770 793 -1 793 770 787 -1 788 787 771 -1 785 804 780 -1 777 805 807 -1 806 807 783 -1 810 811 813 -1 804 785 805 -1 808 783 815 -1 812 813 776 -1 784 778 811 -1 814 776 809 -1 778 784 775 -1 28 7 733 -1 8 732 731 -1 8 735 9 -1 10 13 12 -1 751 723 722 -1 32 15 16 -1 750 749 734 -1 28 732 29 -1 702 18 730 -1 736 729 737 -1 752 714 721 -1 740 739 741 -1 740 742 706 -1 706 744 743 -1 736 739 738 -1 745 746 709 -1 729 702 730 -1 117 5 122 -1 31 9 128 -1 125 28 126 -1 126 29 30 -1 33 17 34 -1 131 14 130 -1 130 32 33 -1 702 34 17 -1 95 682 624 -1 645 648 589 -1 91 818 605 -1 677 678 686 -1 694 94 91 -1 656 132 90 -1 122 104 117 -1 112 106 781 -1 659 662 605 -1 825 631 90 -1 1118 584 83 -1 586 641 587 -1 755 1 0 -1 21 22 23 -1 102 2 19 -1 19 20 21 -1 116 706 107 -1 78 91 1181 -1 123 738 705 -1 821 34 124 -1 627 115 111 -1 591 592 1160 -1 100 0 102 -1 646 647 652 -1 674 657 613 -1 633 639 636 -1 679 681 684 -1 83 587 81 -1 81 642 80 -1 630 581 631 -1 580 629 582 -1 582 583 86 -1 85 585 584 -1 634 585 635 -1 86 635 85 -1 613 588 602 -1 584 586 83 -1 593 595 261 -1 257 650 591 -1 80 695 623 -1 590 588 589 -1 592 594 593 -1 695 615 623 -1 591 649 592 -1 664 604 605 -1 261 597 596 -1 596 599 598 -1 598 600 258 -1 258 90 601 -1 603 606 248 -1 248 663 607 -1 607 608 250 -1 250 673 609 -1 616 615 624 -1 611 613 602 -1 609 672 610 -1 610 675 252 -1 252 612 611 -1 74 617 70 -1 70 689 66 -1 66 688 618 -1 614 683 74 -1 618 693 65 -1 65 619 68 -1 68 620 72 -1 72 621 75 -1 75 91 622 -1 705 740 116 -1 704 736 123 -1 660 658 108 -1 625 120 118 -1 625 626 120 -1 627 114 115 -1 597 656 599 -1 628 629 630 -1 628 630 631 -1 641 638 695 -1 632 111 633 -1 660 661 113 -1 634 635 583 -1 682 679 687 -1 636 637 638 -1 636 639 637 -1 666 670 668 -1 640 586 585 -1 653 595 594 -1 684 687 679 -1 641 695 642 -1 641 642 587 -1 583 628 634 -1 137 135 654 -1 643 133 136 -1 643 645 133 -1 646 644 647 -1 663 662 667 -1 648 650 590 -1 648 590 589 -1 651 652 137 -1 653 594 649 -1 654 134 132 -1 654 135 134 -1 625 118 114 -1 655 597 595 -1 667 673 608 -1 656 90 600 -1 656 600 599 -1 672 674 675 -1 670 113 110 -1 755 99 719 -1 646 643 644 -1 658 110 109 -1 658 659 110 -1 660 108 661 -1 662 606 664 -1 662 664 605 -1 665 113 666 -1 667 608 663 -1 694 684 690 -1 668 669 657 -1 668 670 669 -1 671 672 673 -1 674 613 612 -1 674 612 675 -1 649 648 653 -1 676 93 677 -1 676 678 93 -1 676 95 678 -1 684 686 690 -1 688 687 692 -1 682 683 616 -1 682 616 624 -1 679 677 680 -1 684 681 685 -1 687 689 617 -1 690 92 94 -1 690 691 92 -1 690 686 691 -1 692 619 693 -1 692 693 688 -1 694 91 621 -1 694 621 620 -1 617 682 687 -1 106 696 700 -1 96 700 701 -1 697 701 698 -1 701 696 698 -1 124 703 704 -1 717 715 714 -1 712 751 97 -1 107 743 707 -1 707 745 708 -1 708 709 105 -1 105 747 138 -1 138 710 98 -1 98 750 711 -1 718 719 99 -1 97 714 715 -1 716 753 718 -1 733 734 739 -1 747 746 748 -1 22 4 24 -1 750 723 713 -1 24 6 5 -1 751 721 714 -1 22 725 726 -1 26 6 727 -1 753 754 719 -1 747 749 710 -1 755 754 728 -1 2 1 3 -1 2 725 20 -1 15 12 13 -1 752 753 717 -1 10 735 11 -1 745 744 724 -1 26 7 27 -1 32 18 17 -1 825 824 822 -1 822 821 89 -1 817 816 819 -1 819 818 820 -1 820 817 819 -1 818 816 101 -1 699 698 696 -1 823 821 824 -1 825 822 89 -1 25 27 125 -1 711 713 712 -1 589 657 645 -1 638 624 695 -1 23 24 117 -1 122 26 25 -1 128 10 129 -1 30 8 31 -1 1178 90 840 -1 626 628 631 -1 619 694 620 -1 129 12 131 -1 1174 1143 1202 -1 1110 1106 1108 -1 1144 1128 1146 -1 1114 1172 1142 -1 1177 1147 251 -1 220 1097 1096 -1 1113 1141 1111 -1 1094 220 1096 -1 71 1095 1114 -1 1111 1090 1112 -1 1112 1091 67 -1 67 1093 71 -1 1176 1150 229 -1 1160 1134 1161 -1 1148 1149 249 -1 1154 1135 1180 -1 1180 1137 259 -1 229 1151 231 -1 1163 79 1102 -1 231 1143 233 -1 253 1153 1129 -1 259 1158 1157 -1 1157 1138 262 -1 260 1136 1160 -1 79 1172 1102 -1 262 1159 260 -1 1117 1103 82 -1 82 1104 240 -1 1161 1133 1179 -1 1171 1106 1109 -1 1179 1153 1152 -1 1155 1162 1132 -1 240 1105 1118 -1 1118 1164 84 -1 1168 1170 1171 -1 84 1165 1119 -1 1119 1167 1166 -1 1166 1169 1168 -1 221 1140 1113 -1 251 1126 1148 -1 1156 1155 1132 -1 1145 253 1129 -1 249 1125 1176 -1 69 1139 221 -1 1100 1116 77 -1 1099 1188 1116 -1 247 1121 1185 -1 1184 1183 1182 -1 1196 1107 88 -1 830 1186 1192 -1 831 1190 1198 -1 77 1101 1100 -1 1194 840 87 -1 832 1185 1124 -1 1124 1175 832 -1 1123 1181 1175 -1 254 1131 1130 -1 1130 834 254 -1 1189 1187 834 -1 1193 1192 1191 -1 88 1186 1120 -1 87 1191 1194 -1 1110 1197 1196 -1 256 1162 255 -1 831 1199 842 -1 842 1200 256 -1 1204 1121 1173 -1 1174 1203 1201 -1 1206 1097 76 -1 1201 1205 1204 -1 1184 1098 1115 -1 1115 1207 1206 -1 1146 1127 1177 -1 73 1092 69 -1 28 27 7 -1 8 29 732 -1 8 731 735 -1 10 11 13 -1 751 713 723 -1 32 14 15 -1 750 710 749 -1 28 733 732 -1 702 17 18 -1 736 703 729 -1 752 717 714 -1 740 738 739 -1 740 741 742 -1 706 742 744 -1 736 737 739 -1 745 724 746 -1 729 703 702 -1 117 24 5 -1 31 8 9 -1 125 27 28 -1 126 28 29 -1 33 32 17 -1 131 12 14 -1 130 14 32 -1 702 124 34 -1 95 676 682 -1 645 643 648 -1 91 94 820 -1 94 817 820 -1 101 659 818 -1 659 605 818 -1 91 820 818 -1 817 94 697 -1 94 92 678 -1 697 94 95 -1 92 691 686 -1 686 685 681 -1 681 680 677 -1 677 93 678 -1 678 95 94 -1 95 638 96 -1 638 106 96 -1 96 697 95 -1 678 92 686 -1 686 681 677 -1 694 690 94 -1 656 654 132 -1 128 129 127 -1 129 821 645 -1 645 132 134 -1 821 132 645 -1 134 135 647 -1 135 137 647 -1 137 652 647 -1 647 644 136 -1 136 133 645 -1 645 657 762 -1 645 762 760 -1 647 136 134 -1 136 645 134 -1 31 128 127 -1 129 645 127 -1 645 760 127 -1 127 761 126 -1 761 119 122 -1 25 761 122 -1 104 769 101 -1 761 25 125 -1 119 104 122 -1 30 31 127 -1 126 30 127 -1 104 101 19 -1 101 102 19 -1 126 761 125 -1 104 19 21 -1 104 21 23 -1 104 23 117 -1 112 699 106 -1 659 658 662 -1 825 89 626 -1 90 132 823 -1 132 821 823 -1 825 626 631 -1 90 823 825 -1 622 78 77 -1 622 77 1116 -1 622 1116 1188 -1 1188 1184 76 -1 1184 1115 76 -1 1115 1206 76 -1 76 220 622 -1 220 73 75 -1 73 69 72 -1 69 221 68 -1 73 72 75 -1 221 1113 65 -1 1113 1111 618 -1 221 65 68 -1 1111 1112 618 -1 1112 67 66 -1 618 1112 66 -1 67 71 70 -1 71 1114 74 -1 74 1114 614 -1 1114 1142 614 -1 1142 79 615 -1 79 1117 80 -1 1117 82 81 -1 79 80 623 -1 82 240 81 -1 240 1118 83 -1 81 240 83 -1 1118 84 584 -1 84 1119 85 -1 1119 1166 86 -1 1166 1168 582 -1 1168 1171 582 -1 1171 1109 580 -1 580 1109 581 -1 1109 1110 581 -1 1110 1196 1120 -1 830 1110 1120 -1 1196 88 1120 -1 1110 830 581 -1 84 85 584 -1 1166 582 86 -1 1142 615 614 -1 220 75 622 -1 622 1188 76 -1 65 1113 618 -1 80 1117 81 -1 615 79 623 -1 72 69 68 -1 1171 580 582 -1 830 1193 581 -1 87 840 581 -1 1193 87 581 -1 1119 86 85 -1 70 66 67 -1 74 70 71 -1 586 640 641 -1 755 728 1 -1 21 20 22 -1 102 0 2 -1 19 2 20 -1 116 740 706 -1 1122 1101 78 -1 78 622 91 -1 91 605 1181 -1 605 604 1181 -1 1181 1122 78 -1 123 736 738 -1 100 102 101 -1 101 817 100 -1 817 697 718 -1 100 817 99 -1 699 112 89 -1 112 121 89 -1 99 817 718 -1 716 718 697 -1 715 716 697 -1 97 715 697 -1 712 97 697 -1 711 712 697 -1 711 697 98 -1 697 699 138 -1 98 697 138 -1 105 138 699 -1 708 105 699 -1 707 708 699 -1 707 699 107 -1 107 699 116 -1 116 699 705 -1 786 781 638 -1 781 106 638 -1 705 699 123 -1 123 699 89 -1 121 786 626 -1 786 638 626 -1 114 638 639 -1 638 637 639 -1 639 633 111 -1 111 115 639 -1 115 114 639 -1 114 118 120 -1 120 626 638 -1 626 89 121 -1 89 821 124 -1 821 129 131 -1 821 131 130 -1 114 120 638 -1 704 123 89 -1 821 130 33 -1 821 33 34 -1 124 704 89 -1 111 632 627 -1 632 640 627 -1 640 634 627 -1 1154 1180 598 -1 1180 259 598 -1 259 1157 596 -1 1157 262 261 -1 596 1157 261 -1 262 260 593 -1 260 1160 592 -1 262 593 261 -1 1160 1161 591 -1 1161 1179 591 -1 591 1179 257 -1 1179 1152 257 -1 1152 253 588 -1 253 1144 611 -1 1144 1146 252 -1 253 611 602 -1 1146 1177 252 -1 1177 251 610 -1 252 1177 610 -1 251 1148 609 -1 1148 249 250 -1 249 1176 607 -1 1176 229 248 -1 229 231 248 -1 231 233 603 -1 603 233 604 -1 233 1174 604 -1 1174 1201 1173 -1 247 1174 1173 -1 1201 1204 1173 -1 1174 247 604 -1 1148 250 609 -1 1176 248 607 -1 1152 588 257 -1 259 596 598 -1 1155 1154 258 -1 256 255 831 -1 255 1155 601 -1 831 842 256 -1 1187 831 255 -1 255 601 1187 -1 1154 598 258 -1 611 1144 252 -1 588 253 602 -1 231 603 248 -1 247 832 604 -1 1175 1181 604 -1 832 1175 604 -1 601 1178 254 -1 601 254 834 -1 601 834 1187 -1 258 601 1155 -1 249 607 250 -1 593 260 592 -1 251 609 610 -1 100 755 0 -1 652 651 646 -1 651 655 646 -1 655 653 646 -1 674 668 657 -1 636 641 632 -1 641 640 632 -1 632 633 636 -1 679 680 681 -1 83 586 587 -1 81 587 642 -1 630 580 581 -1 580 630 629 -1 582 629 583 -1 85 635 585 -1 634 640 585 -1 86 583 635 -1 613 589 588 -1 584 585 586 -1 593 594 595 -1 257 590 650 -1 80 642 695 -1 590 257 588 -1 592 649 594 -1 695 624 615 -1 591 650 649 -1 664 603 604 -1 261 595 597 -1 596 597 599 -1 598 599 600 -1 258 600 90 -1 603 664 606 -1 248 606 663 -1 607 663 608 -1 250 608 673 -1 616 614 615 -1 611 612 613 -1 609 673 672 -1 610 672 675 -1 252 675 612 -1 74 683 617 -1 70 617 689 -1 66 689 688 -1 614 616 683 -1 618 688 693 -1 65 693 619 -1 68 619 620 -1 72 620 621 -1 75 621 91 -1 705 738 740 -1 704 703 736 -1 660 667 662 -1 662 658 660 -1 658 109 108 -1 597 655 656 -1 641 636 638 -1 113 665 660 -1 665 671 660 -1 671 667 660 -1 682 676 679 -1 668 674 665 -1 674 671 665 -1 665 666 668 -1 653 655 595 -1 684 692 687 -1 583 629 628 -1 654 656 651 -1 656 655 651 -1 651 137 654 -1 663 606 662 -1 114 627 625 -1 627 634 628 -1 625 627 628 -1 667 671 673 -1 672 671 674 -1 110 659 657 -1 659 101 103 -1 101 769 103 -1 103 119 657 -1 119 761 762 -1 657 119 762 -1 657 669 670 -1 670 666 113 -1 113 661 108 -1 108 109 113 -1 109 110 113 -1 659 103 657 -1 657 670 110 -1 755 100 99 -1 646 653 648 -1 648 643 646 -1 643 136 644 -1 694 692 684 -1 649 650 648 -1 684 685 686 -1 688 689 687 -1 679 676 677 -1 617 683 682 -1 106 699 696 -1 96 106 700 -1 697 96 701 -1 701 700 696 -1 124 702 703 -1 717 716 715 -1 712 713 751 -1 107 706 743 -1 707 743 745 -1 708 745 709 -1 105 709 747 -1 138 747 710 -1 98 710 750 -1 718 753 719 -1 97 751 714 -1 716 717 753 -1 18 16 15 -1 15 13 18 -1 13 11 18 -1 11 735 731 -1 731 732 733 -1 733 7 727 -1 727 6 4 -1 4 726 725 -1 725 3 4 -1 3 1 4 -1 1 728 752 -1 728 754 752 -1 754 720 752 -1 752 721 722 -1 722 723 734 -1 734 749 748 -1 748 746 724 -1 724 744 742 -1 742 741 739 -1 739 737 729 -1 729 730 739 -1 730 18 739 -1 11 731 733 -1 733 727 4 -1 752 722 1 -1 722 734 1 -1 734 748 724 -1 724 742 734 -1 742 739 734 -1 18 11 739 -1 11 733 739 -1 733 4 734 -1 4 1 734 -1 747 709 746 -1 22 726 4 -1 750 734 723 -1 24 4 6 -1 751 722 721 -1 22 20 725 -1 26 5 6 -1 753 720 754 -1 747 748 749 -1 755 719 754 -1 2 0 1 -1 2 3 725 -1 15 14 12 -1 752 720 753 -1 10 9 735 -1 745 743 744 -1 26 727 7 -1 32 16 18 -1 825 823 824 -1 822 824 821 -1 817 101 816 -1 819 816 818 -1 699 697 698 -1 25 26 27 -1 711 750 713 -1 589 613 657 -1 638 95 624 -1 23 22 24 -1 122 5 26 -1 128 9 10 -1 30 29 8 -1 1195 1131 1178 -1 1178 601 90 -1 90 631 840 -1 631 581 840 -1 840 1195 1178 -1 626 625 628 -1 619 692 694 -1 129 10 12 -1 1174 233 1143 -1 1110 1109 1106 -1 1144 1145 1128 -1 1114 1095 1172 -1 1177 1127 1147 -1 220 76 1097 -1 1113 1140 1141 -1 1094 73 220 -1 71 1093 1095 -1 1111 1141 1090 -1 1112 1090 1091 -1 67 1091 1093 -1 1176 1125 1150 -1 1160 1136 1134 -1 1148 1126 1149 -1 1154 1156 1135 -1 1180 1135 1137 -1 229 1150 1151 -1 1163 1117 79 -1 231 1151 1143 -1 253 1152 1153 -1 259 1137 1158 -1 1157 1158 1138 -1 260 1159 1136 -1 79 1142 1172 -1 262 1138 1159 -1 1117 1163 1103 -1 82 1103 1104 -1 1161 1134 1133 -1 1171 1170 1106 -1 1179 1133 1153 -1 1155 255 1162 -1 240 1104 1105 -1 1118 1105 1164 -1 1168 1169 1170 -1 84 1164 1165 -1 1119 1165 1167 -1 1166 1167 1169 -1 221 1139 1140 -1 251 1147 1126 -1 1156 1154 1155 -1 1145 1144 253 -1 249 1149 1125 -1 69 1092 1139 -1 1100 1099 1116 -1 1099 1183 1188 -1 247 1173 1121 -1 1184 1188 1183 -1 1196 1197 1107 -1 830 1120 1186 -1 831 1187 1190 -1 77 78 1101 -1 1194 1195 840 -1 832 247 1185 -1 1124 1123 1175 -1 1123 1122 1181 -1 254 1178 1131 -1 1130 1189 834 -1 1189 1190 1187 -1 1193 830 1192 -1 88 1107 1186 -1 87 1193 1191 -1 1110 1108 1197 -1 256 1200 1162 -1 831 1198 1199 -1 842 1199 1200 -1 1204 1205 1121 -1 1174 1202 1203 -1 1206 1207 1097 -1 1201 1203 1205 -1 1184 1182 1098 -1 1115 1098 1207 -1 1146 1128 1127 -1 73 1094 1092 -1 982 976 980 -1 971 974 977 -1 969 958 965 -1 968 969 974 -1 931 923 927 -1 935 934 929 -1 856 865 851 -1 929 931 935 -1 945 937 943 -1 950 952 956 -1 937 939 943 -1 954 965 958 -1 1067 926 929 -1 1002 1083 999 -1 903 1027 1031 -1 920 922 925 -1 927 919 925 -1 927 1025 1028 -1 949 947 950 -1 855 872 1075 -1 913 916 920 -1 859 857 858 -1 859 855 873 -1 853 850 852 -1 864 863 868 -1 850 867 866 -1 872 870 856 -1 868 867 864 -1 871 852 854 -1 857 869 858 -1 861 862 869 -1 872 871 854 -1 874 1045 875 -1 874 876 1045 -1 877 1040 1039 -1 899 1060 898 -1 878 1082 880 -1 878 880 1022 -1 1021 876 1022 -1 881 882 883 -1 987 993 992 -1 884 1079 879 -1 885 1034 886 -1 1004 1005 1009 -1 887 1074 888 -1 895 897 900 -1 1007 1006 1010 -1 1001 997 1046 -1 892 1068 1070 -1 908 910 907 -1 885 883 1034 -1 893 891 1029 -1 1001 1010 1006 -1 1003 1006 1008 -1 892 889 894 -1 1013 1055 1054 -1 895 1026 896 -1 885 892 887 -1 898 1060 1062 -1 900 897 1027 -1 901 902 899 -1 994 990 988 -1 903 904 905 -1 903 1031 904 -1 985 986 987 -1 1010 1004 1014 -1 887 888 884 -1 998 1000 1077 -1 906 907 1056 -1 876 878 1022 -1 908 989 909 -1 908 909 910 -1 911 1064 1066 -1 911 1061 1064 -1 941 938 937 -1 916 1066 912 -1 913 914 1058 -1 1001 1049 1004 -1 916 912 917 -1 916 917 1030 -1 952 953 956 -1 1066 982 912 -1 919 1057 915 -1 920 918 921 -1 939 940 943 -1 923 924 1059 -1 925 922 1025 -1 1087 962 963 -1 964 962 968 -1 916 918 920 -1 927 1028 928 -1 929 930 1067 -1 1080 968 971 -1 969 970 974 -1 934 1076 1073 -1 950 1089 951 -1 935 933 936 -1 982 1036 983 -1 898 889 893 -1 937 938 1078 -1 939 1035 1037 -1 956 960 959 -1 955 958 1088 -1 941 942 1081 -1 941 1085 942 -1 943 940 1041 -1 935 1035 939 -1 945 946 1044 -1 945 1044 944 -1 905 988 989 -1 862 863 865 -1 947 1086 1085 -1 947 948 1086 -1 1073 929 934 -1 950 951 949 -1 952 944 1048 -1 952 1048 1052 -1 965 961 966 -1 1085 945 944 -1 973 971 976 -1 954 955 1089 -1 956 953 957 -1 977 976 971 -1 979 1075 976 -1 958 1087 1088 -1 981 977 978 -1 959 960 961 -1 969 967 1047 -1 924 926 1065 -1 1041 945 943 -1 965 966 967 -1 968 1084 964 -1 1058 911 913 -1 931 933 935 -1 931 928 932 -1 971 972 1080 -1 915 913 919 -1 974 970 1043 -1 976 1075 973 -1 977 975 978 -1 959 950 956 -1 1057 923 1059 -1 979 1069 1071 -1 979 1066 1069 -1 937 1076 934 -1 980 981 1036 -1 974 975 977 -1 982 983 984 -1 982 984 912 -1 1085 952 947 -1 1017 1053 1051 -1 985 1032 1033 -1 985 905 1032 -1 987 986 1038 -1 905 908 903 -1 879 1082 878 -1 988 1072 991 -1 988 991 989 -1 992 993 1042 -1 994 1077 990 -1 995 996 997 -1 874 1040 877 -1 998 999 1000 -1 1019 1015 1016 -1 889 886 890 -1 889 891 893 -1 1002 1003 1083 -1 995 1042 996 -1 1004 1049 1050 -1 1068 894 1063 -1 1062 894 898 -1 877 882 881 -1 1009 1005 1055 -1 1010 1012 1007 -1 1002 1001 1006 -1 1013 1054 1053 -1 1014 1016 1011 -1 1017 1018 876 -1 1017 1051 1018 -1 893 1026 895 -1 1019 1013 1017 -1 1019 1020 1015 -1 1056 902 901 -1 1021 1022 1023 -1 1021 1023 1024 -1 1028 1026 1029 -1 1049 967 966 -1 1065 860 861 -1 925 913 920 -1 880 1063 909 -1 982 979 976 -1 971 968 974 -1 969 962 958 -1 968 962 969 -1 931 926 923 -1 935 939 934 -1 856 870 859 -1 858 869 862 -1 856 859 858 -1 853 871 856 -1 864 867 851 -1 851 853 856 -1 856 858 865 -1 858 862 865 -1 865 864 851 -1 929 926 931 -1 945 941 937 -1 950 947 952 -1 937 934 939 -1 954 959 965 -1 1067 1065 926 -1 999 998 1002 -1 998 992 995 -1 1002 998 995 -1 903 900 1027 -1 920 921 922 -1 927 923 919 -1 927 925 1025 -1 949 948 947 -1 1064 1061 873 -1 1061 1058 873 -1 1058 914 873 -1 914 915 857 -1 873 914 857 -1 915 1057 857 -1 1069 1066 855 -1 1066 1064 873 -1 855 1066 873 -1 1075 1071 855 -1 1071 1069 855 -1 913 911 916 -1 859 873 857 -1 859 870 855 -1 853 851 850 -1 864 865 863 -1 850 851 867 -1 872 855 870 -1 868 866 867 -1 871 853 852 -1 857 861 869 -1 861 860 862 -1 872 856 871 -1 898 893 901 -1 893 895 901 -1 901 899 898 -1 1021 1017 876 -1 987 1038 993 -1 1004 1050 1005 -1 895 896 897 -1 1007 1008 1006 -1 1001 995 997 -1 907 906 908 -1 906 900 903 -1 908 906 903 -1 885 881 883 -1 1001 1004 1010 -1 1003 1002 1006 -1 892 885 889 -1 1013 1009 1055 -1 1070 1074 892 -1 1074 887 892 -1 887 881 885 -1 1072 988 990 -1 988 985 994 -1 985 987 994 -1 985 1033 986 -1 1009 1014 1004 -1 1014 1011 1010 -1 1011 1012 1010 -1 888 1079 884 -1 884 877 881 -1 881 887 884 -1 1077 994 998 -1 994 987 998 -1 987 992 998 -1 876 874 878 -1 941 1081 938 -1 916 911 1066 -1 1001 1046 1049 -1 952 1052 953 -1 1066 979 982 -1 939 1037 940 -1 1087 958 962 -1 964 963 962 -1 916 1030 918 -1 1080 1084 968 -1 969 1047 970 -1 950 954 1089 -1 982 980 1036 -1 898 894 889 -1 956 957 960 -1 955 954 958 -1 935 936 1035 -1 905 985 988 -1 862 860 863 -1 1073 930 929 -1 965 959 961 -1 1085 941 945 -1 973 972 971 -1 977 980 976 -1 979 1071 1075 -1 981 980 977 -1 969 965 967 -1 924 923 926 -1 1041 946 945 -1 1058 1061 911 -1 931 932 933 -1 931 927 928 -1 915 914 913 -1 959 954 950 -1 1057 919 923 -1 937 1078 1076 -1 974 1043 975 -1 1085 944 952 -1 1017 1013 1053 -1 905 989 908 -1 878 874 884 -1 874 877 884 -1 884 879 878 -1 874 875 1040 -1 1016 1014 1019 -1 1014 1009 1019 -1 1009 1013 1019 -1 889 885 886 -1 889 890 891 -1 995 992 1042 -1 1068 892 894 -1 1062 1063 894 -1 877 1039 882 -1 1002 995 1001 -1 893 1029 1026 -1 1017 1021 1019 -1 1021 1024 1020 -1 1019 1021 1020 -1 901 895 900 -1 900 906 901 -1 906 1056 901 -1 1028 1025 1026 -1 875 1045 946 -1 1045 876 1044 -1 946 1045 1044 -1 876 1018 1048 -1 1018 1051 1052 -1 1051 1053 1052 -1 1053 1054 953 -1 1052 1053 953 -1 1054 1055 960 -1 1055 1005 961 -1 1005 1050 961 -1 1050 1049 966 -1 961 1050 966 -1 1049 1046 1047 -1 1046 997 970 -1 997 996 1043 -1 996 1042 1043 -1 1042 993 978 -1 993 1038 981 -1 1038 986 981 -1 986 1033 1036 -1 981 986 1036 -1 1033 1032 984 -1 1032 905 912 -1 905 904 917 -1 904 1031 917 -1 1031 1027 918 -1 1027 897 921 -1 897 896 921 -1 896 1026 922 -1 921 896 922 -1 1026 1025 922 -1 1027 921 918 -1 1032 912 984 -1 993 981 978 -1 1046 970 1047 -1 1055 961 960 -1 1018 1052 1048 -1 1040 875 1041 -1 1041 875 946 -1 882 1039 1037 -1 1039 1040 940 -1 1037 1039 940 -1 1034 883 1035 -1 883 882 1035 -1 890 886 932 -1 886 1034 933 -1 932 886 933 -1 1029 891 928 -1 891 890 932 -1 928 1028 1029 -1 932 928 891 -1 1035 882 1037 -1 1031 918 1030 -1 1031 1030 917 -1 936 933 1034 -1 1035 936 1034 -1 905 917 912 -1 1033 984 983 -1 1041 940 1040 -1 1033 983 1036 -1 944 1044 876 -1 1042 978 975 -1 1042 975 1043 -1 1048 944 876 -1 997 1043 970 -1 1049 1047 967 -1 957 953 1054 -1 960 957 1054 -1 1089 955 852 -1 955 1088 852 -1 1088 1087 852 -1 1087 963 852 -1 963 964 854 -1 964 1084 854 -1 1084 1080 854 -1 1080 972 854 -1 972 973 872 -1 973 1075 872 -1 872 854 972 -1 852 850 1089 -1 850 866 951 -1 1089 850 951 -1 854 852 963 -1 949 951 866 -1 1086 948 866 -1 948 949 866 -1 942 1085 868 -1 1085 1086 866 -1 868 1085 866 -1 938 1081 868 -1 1081 942 868 -1 1076 1078 863 -1 1078 938 868 -1 930 1073 860 -1 1073 1076 860 -1 1065 1067 860 -1 1067 930 860 -1 1059 924 861 -1 924 1065 861 -1 857 1057 861 -1 1057 1059 861 -1 1078 868 863 -1 860 1076 863 -1 925 919 913 -1 1012 1011 1016 -1 1016 1015 1012 -1 1015 1020 1012 -1 1020 1024 1023 -1 1023 1022 880 -1 880 1082 888 -1 1082 879 888 -1 879 1079 888 -1 888 1074 1070 -1 1070 1068 1063 -1 1063 1062 1060 -1 1060 899 902 -1 902 1056 907 -1 907 910 902 -1 910 909 902 -1 909 989 991 -1 991 1072 990 -1 990 1077 1083 -1 1077 1000 1083 -1 1000 999 1083 -1 1083 1003 1012 -1 1003 1008 1012 -1 1008 1007 1012 -1 1020 1023 1012 -1 1023 880 1012 -1 888 1070 880 -1 1070 1063 880 -1 1063 1060 909 -1 1060 902 909 -1 909 991 1083 -1 991 990 1083 -1 1083 1012 909 -1 1012 880 909 -1 ]
	}
}
